{
  "name": "+4 Shield Special Abilities",
  "description": "",
  "results": [
    {
      "_id": "uUbiNLPlcnxObVFy",
      "flags": {},
      "type": 0,
      "text": "Energy Resistance",
      "weight": 50,
      "range": [1, 50],
      "drawn": false,
      "img": null,
      "documentCollection": "",
      "documentId": null
    },
    {
      "_id": "6zWGrT6Gx46ssGwe",
      "flags": {},
      "type": 0,
      "text": "Spell Resistance (17)",
      "weight": 50,
      "range": [51, 100],
      "drawn": false,
      "img": null,
      "documentCollection": "",
      "documentId": null
    }
  ],
  "formula": "1d100",
  "replacement": true,
  "displayRoll": true,
  "_id": "fgCE9DTIHLAmoHaP",
  "img": "icons/svg/d20-grey.svg",
  "sort": 0
}
