{
  "_id": "oAwUOm0PTpnVEBo2",
  "name": "Greater Medium Arcane Scrolls",
  "description": "",
  "results": [
    {
      "_id": "RkVWWsGQXBBdKTf6",
      "flags": {},
      "type": 2,
      "text": "Uncommon Level 3 Arcane Scrolls",
      "img": "icons/svg/d20-black.svg",
      "weight": 20,
      "range": [1, 20],
      "drawn": false,
      "documentCollection": "pf1.ultimate-equipment",
      "documentId": "A7az8TWRyRWLojVE"
    },
    {
      "_id": "Wk0iciDEXzFaoGzZ",
      "flags": {},
      "type": 2,
      "text": "Uncommon Level 4 Arcane Scrolls",
      "img": "icons/svg/d20-black.svg",
      "weight": 40,
      "range": [21, 60],
      "drawn": false,
      "documentCollection": "pf1.ultimate-equipment",
      "documentId": "DuDxURHlWK4ZXxxx"
    },
    {
      "_id": "g5clfAlAvx8WvQk2",
      "flags": {},
      "type": 2,
      "text": "Uncommon Level 5 Arcane Scrolls",
      "weight": 40,
      "range": [61, 100],
      "drawn": false,
      "documentCollection": "pf1.ultimate-equipment",
      "documentId": "y51BUptDZTIhdHGE",
      "img": null
    }
  ],
  "formula": "1d100",
  "replacement": true,
  "displayRoll": true,
  "img": "icons/svg/d20-grey.svg",
  "sort": 0
}
