{
  "_id": "OBmfrGVVbqvDfGwu",
  "name": "Lesser Medium Magic Items",
  "description": "",
  "results": [
    {
      "_id": "G7cr9fnI7FvccaUF",
      "flags": {},
      "type": 2,
      "text": "Lesser Medium Armour and Shields",
      "img": "icons/svg/d20-black.svg",
      "weight": 10,
      "range": [1, 10],
      "drawn": false,
      "documentCollection": "pf1.ultimate-equipment",
      "documentId": "MeojVL0zujA6LKnp"
    },
    {
      "_id": "UUzBILwaECO0WYoz",
      "flags": {},
      "type": 2,
      "text": "Lesser Medium Weapon",
      "img": "icons/svg/d20-black.svg",
      "weight": 10,
      "range": [11, 20],
      "drawn": false,
      "documentCollection": "pf1.ultimate-equipment",
      "documentId": "dsO9UXhmgjJZQ4cw"
    },
    {
      "_id": "cb0uza8gqhQwLgPT",
      "flags": {},
      "type": 2,
      "text": "Common Level 2 Potions and Oils",
      "img": "icons/svg/d20-black.svg",
      "weight": 5,
      "range": [21, 25],
      "drawn": false,
      "documentCollection": "pf1.ultimate-equipment",
      "documentId": "Eo22ZRkZ7filHo8R"
    },
    {
      "_id": "YHirITua4tSdV3RH",
      "flags": {},
      "type": 2,
      "text": "Common Level 3 Potions and Oils",
      "img": "icons/svg/d20-black.svg",
      "weight": 5,
      "range": [26, 30],
      "drawn": false,
      "documentCollection": "pf1.ultimate-equipment",
      "documentId": "PsQiiIpx8B3PHcOf"
    },
    {
      "_id": "VbuER5eJYQnIYjzw",
      "flags": {},
      "type": 2,
      "text": "Lesser Medium Ring",
      "img": "icons/svg/d20-black.svg",
      "weight": 8,
      "range": [31, 38],
      "drawn": false,
      "documentCollection": "pf1.ultimate-equipment",
      "documentId": "2TIxHeib5p4VgaZf"
    },
    {
      "_id": "n41cUmqky7dgYupe",
      "flags": {},
      "type": 2,
      "text": "Lesser Medium Rods",
      "img": "icons/svg/d20-black.svg",
      "weight": 7,
      "range": [39, 45],
      "drawn": false,
      "documentCollection": "pf1.ultimate-equipment",
      "documentId": "T4z08jHo5bXw69iQ"
    },
    {
      "_id": "dEKsaSkAXahQhgYT",
      "flags": {},
      "type": 2,
      "text": "Metamagic Rods +1 Level",
      "img": "icons/svg/d20-black.svg",
      "weight": 1,
      "range": [46, 46],
      "drawn": false,
      "documentCollection": "pf1.ultimate-equipment",
      "documentId": "h9UWUgzqrUn5XTMO"
    },
    {
      "_id": "J0z3FI3ErQffSF6Y",
      "flags": {},
      "type": 2,
      "text": "Lesser Medium Arcane Scrolls",
      "img": "icons/svg/d20-black.svg",
      "weight": 7,
      "range": [47, 53],
      "drawn": false,
      "documentCollection": "pf1.ultimate-equipment",
      "documentId": "iOt6ezDGtVM8JaeP"
    },
    {
      "_id": "deKK89YWEMjyPIm0",
      "flags": {},
      "type": 2,
      "text": "Lesser Medium Divine Scrolls",
      "img": "icons/svg/d20-black.svg",
      "weight": 7,
      "range": [54, 60],
      "drawn": false,
      "documentCollection": "pf1.ultimate-equipment",
      "documentId": "6n8ZEZaiwRPzQ0p4"
    },
    {
      "_id": "CN8xN260LbBf2SgK",
      "flags": {},
      "type": 2,
      "text": "Lesser Medium Staff",
      "img": "icons/svg/d20-black.svg",
      "weight": 3,
      "range": [61, 63],
      "drawn": false,
      "documentCollection": "pf1.ultimate-equipment",
      "documentId": "xeIR3IRHlQ7O5ABU"
    },
    {
      "_id": "s4HSTiRHzAorn0EB",
      "flags": {},
      "type": 2,
      "text": "Common Level 2 Wands",
      "img": "icons/svg/d20-black.svg",
      "weight": 5,
      "range": [64, 68],
      "drawn": false,
      "documentCollection": "pf1.ultimate-equipment",
      "documentId": "qeC9fgOka2MItT2A"
    },
    {
      "_id": "bpVGp4AXwLre07tg",
      "flags": {},
      "type": 2,
      "text": "Uncommon Level 2 Wands",
      "img": "icons/svg/d20-black.svg",
      "weight": 2,
      "range": [69, 70],
      "drawn": false,
      "documentCollection": "pf1.ultimate-equipment",
      "documentId": "visy19CsXY2jpABp"
    },
    {
      "_id": "Iw1EkkYwPe2S29ym",
      "flags": {},
      "type": 2,
      "text": "Common Level 3 Wands",
      "img": "icons/svg/d20-black.svg",
      "weight": 4,
      "range": [71, 74],
      "drawn": false,
      "documentCollection": "pf1.ultimate-equipment",
      "documentId": "dB3WvGIjmNmuI0kP"
    },
    {
      "_id": "zDknTMDw5NtIQxzs",
      "flags": {},
      "type": 2,
      "text": "Uncommon Level 3 Wands",
      "img": "icons/svg/d20-black.svg",
      "weight": 2,
      "range": [75, 76],
      "drawn": false,
      "documentCollection": "pf1.ultimate-equipment",
      "documentId": "tQ3dzkGqsrzhzHKl"
    },
    {
      "_id": "NoIwrQeEYhOjduqF",
      "flags": {},
      "type": 2,
      "text": "Lesser Medium Belt",
      "img": "icons/svg/d20-black.svg",
      "weight": 2,
      "range": [77, 78],
      "drawn": false,
      "documentCollection": "pf1.ultimate-equipment",
      "documentId": "kFORBvFtu79fYVvA"
    },
    {
      "_id": "RPUQbdm9pLpzJ585",
      "flags": {},
      "type": 2,
      "text": "Lesser Medium Body",
      "img": "icons/svg/d20-black.svg",
      "weight": 2,
      "range": [79, 80],
      "drawn": false,
      "documentCollection": "pf1.ultimate-equipment",
      "documentId": "9JP48MynceBpC6qv"
    },
    {
      "_id": "YxBNOoYVVYwreBdT",
      "flags": {},
      "type": 2,
      "text": "Lesser Medium Chest",
      "img": "icons/svg/d20-black.svg",
      "weight": 2,
      "range": [81, 82],
      "drawn": false,
      "documentCollection": "pf1.ultimate-equipment",
      "documentId": "kLZhycx2j6ObUuYG"
    },
    {
      "_id": "1xblpZwJ40xiycwg",
      "flags": {},
      "type": 2,
      "text": "Lesser Medium Eye",
      "img": "icons/svg/d20-black.svg",
      "weight": 2,
      "range": [83, 84],
      "drawn": false,
      "documentCollection": "pf1.ultimate-equipment",
      "documentId": "nhnZInqU3SoiKGOp"
    },
    {
      "_id": "57DJhpgyWKd0Os3t",
      "flags": {},
      "type": 2,
      "text": "Lesser Medium Feet",
      "img": "icons/svg/d20-black.svg",
      "weight": 2,
      "range": [85, 86],
      "drawn": false,
      "documentCollection": "pf1.ultimate-equipment",
      "documentId": "H5O2yEua379XhU5t"
    },
    {
      "_id": "pHCdY5FxJVKaS7Xd",
      "flags": {},
      "type": 2,
      "text": "Lesser Medium Hand",
      "img": "icons/svg/d20-black.svg",
      "weight": 2,
      "range": [87, 88],
      "drawn": false,
      "documentCollection": "pf1.ultimate-equipment",
      "documentId": "xTJbKOirGKWjnx5q"
    },
    {
      "_id": "Z6DOYWFu48bd7wyN",
      "flags": {},
      "type": 2,
      "text": "Lesser Medium Head",
      "img": "icons/svg/d20-black.svg",
      "weight": 2,
      "range": [89, 90],
      "drawn": false,
      "documentCollection": "pf1.ultimate-equipment",
      "documentId": "ipxIniLVjR6V3baD"
    },
    {
      "_id": "9wT6T3138MArqDpB",
      "flags": {},
      "type": 2,
      "text": "Lesser Medium Headband",
      "img": "icons/svg/d20-black.svg",
      "weight": 2,
      "range": [91, 92],
      "drawn": false,
      "documentCollection": "pf1.ultimate-equipment",
      "documentId": "MtzZGwkaGWbraLdL"
    },
    {
      "_id": "tEgOuVnF9TIvUZxP",
      "flags": {},
      "type": 2,
      "text": "Lesser Medium Neck",
      "img": "icons/svg/d20-black.svg",
      "weight": 2,
      "range": [93, 94],
      "drawn": false,
      "documentCollection": "pf1.ultimate-equipment",
      "documentId": "Us0EQXxBecScscQQ"
    },
    {
      "_id": "HuCPUZG0vXR43qPA",
      "flags": {},
      "type": 2,
      "text": "Lesser Medium Shoulders",
      "img": "icons/svg/d20-black.svg",
      "weight": 2,
      "range": [95, 96],
      "drawn": false,
      "documentCollection": "pf1.ultimate-equipment",
      "documentId": "SDIoSwYsGY1hR8eT"
    },
    {
      "_id": "Dk3iXclr7ZpgtYAJ",
      "flags": {},
      "type": 2,
      "text": "Lesser Medium Wrists",
      "img": "icons/svg/d20-black.svg",
      "weight": 2,
      "range": [97, 98],
      "drawn": false,
      "documentCollection": "pf1.ultimate-equipment",
      "documentId": "ZCud0FVyAuzDhtny"
    },
    {
      "_id": "PdbVyEHFoU2Hg4A5",
      "flags": {},
      "type": 2,
      "text": "Lesser Medium Slotless",
      "img": "icons/svg/d20-black.svg",
      "weight": 2,
      "range": [99, 100],
      "drawn": false,
      "documentCollection": "pf1.ultimate-equipment",
      "documentId": "hkvuo80YGMS2KhdN"
    }
  ],
  "formula": "1d100",
  "replacement": true,
  "displayRoll": true,
  "img": "icons/svg/d20-grey.svg",
  "sort": 0
}
