{
  "_id": "RwcA3WdbaYSp3xze",
  "name": "Weapon Type",
  "description": "",
  "results": [
    {
      "_id": "e9pVp9pDW2m70Tko",
      "flags": {},
      "type": 2,
      "text": "Light Melee",
      "weight": 1,
      "range": [1, 15],
      "drawn": false,
      "documentCollection": "pf1.ultimate-equipment",
      "documentId": "w3GqfgBGS0ccUFiR",
      "img": null
    },
    {
      "_id": "kDvWAatUntbxcgOS",
      "flags": {},
      "type": 2,
      "text": "One Handed Melee",
      "weight": 1,
      "range": [16, 35],
      "drawn": false,
      "documentCollection": "pf1.ultimate-equipment",
      "documentId": "7oUe3wUklUUbAVhL",
      "img": null
    },
    {
      "_id": "nOiToXw9KSMgLKcU",
      "flags": {},
      "type": 2,
      "text": "Ranged",
      "weight": 1,
      "range": [36, 60],
      "drawn": false,
      "documentCollection": "pf1.ultimate-equipment",
      "documentId": "QMDELLppsdz5zS7S",
      "img": null
    },
    {
      "_id": "d73iSYrsGxfr7j8s",
      "flags": {},
      "type": 2,
      "text": "Two Handed Melee",
      "weight": 1,
      "range": [61, 90],
      "drawn": false,
      "documentCollection": "pf1.ultimate-equipment",
      "documentId": "ddBiEymXuAAnE9BP",
      "img": null
    },
    {
      "_id": "qKL8nLICdIqtkQP8",
      "flags": {},
      "type": 2,
      "text": "Ammunition",
      "weight": 1,
      "range": [91, 100],
      "drawn": false,
      "documentCollection": "pf1.ultimate-equipment",
      "documentId": "HIi7oxxt0rIhvNA6",
      "img": null
    }
  ],
  "formula": "1d100",
  "replacement": true,
  "displayRoll": true,
  "img": "icons/svg/d20-grey.svg",
  "sort": 0
}
