{
  "_id": "q2HbIx7a7YpGJ3Kn",
  "name": "Agile Breastplate",
  "type": "equipment",
  "img": "systems/pf1/icons/items/armor/breastplate-agile.PNG",
  "system": {
    "description": {
      "value": "<p>This breastplate is specially crafted in a manner that allows extra maneuverability for some physical activities. The armor check penalty for Climb checks and Acrobatics checks made to jump is only –1 (masterwork and mithral versions of this armor reduce this penalty as well as the normal penalty).</p>"
    },
    "weight": {
      "value": 25
    },
    "price": 400,
    "hp": {
      "max": 30,
      "value": 30
    },
    "hardness": 10,
    "baseTypes": ["Agile Breastplate"],
    "equipmentSubtype": "mediumArmor",
    "armor": {
      "value": 6,
      "dex": 3,
      "acp": 4
    },
    "spellFailure": 25,
    "slot": "armor"
  }
}
