{
  "_id": "mcDNhbR4RQ5Z1ckQ",
  "name": "Light Wooden Shield (Quickdraw)",
  "type": "equipment",
  "img": "systems/pf1/icons/items/armor/shield-light-wood.png",
  "system": {
    "description": {
      "value": "<p>A light wooden shield is essentially the same as a light steel shield, except it responds differently to some spells and effects (such as rusting grasp). A druid can use a light wooden shield, but not a light steel shield.</p>"
    },
    "weight": {
      "value": 6
    },
    "price": 53,
    "hp": {
      "max": 7,
      "value": 7
    },
    "hardness": 5,
    "subType": "shield",
    "equipmentSubtype": "lightShield",
    "armor": {
      "value": 1,
      "acp": 2
    },
    "spellFailure": 5,
    "slot": "shield"
  }
}
