{
  "_id": "tmCIvphURV00VhY2",
  "name": "Tatami-Do",
  "type": "equipment",
  "img": "systems/pf1/icons/items/armor/tatami-do.png",
  "system": {
    "description": {
      "value": "<p>Worn by samurai as a lighter-weight alternative to o-yoroi, tatami-do is a full-body field armor that combines both metal lamellar and kikko components into a suit of mail with a cloth backing. It typically includes a collapsible kabuto helmet or an armored hood, as well as arm, shoulder, and thigh guards.</p>"
    },
    "weight": {
      "value": 45
    },
    "price": 1000,
    "hp": {
      "max": 35,
      "value": 35
    },
    "hardness": 10,
    "baseTypes": ["Tatami-Do"],
    "equipmentSubtype": "heavyArmor",
    "armor": {
      "value": 7,
      "dex": 3,
      "acp": 6
    },
    "spellFailure": 35,
    "slot": "armor"
  }
}
