{
  "_id": "8kHcvgFNoGObDhQ8",
  "name": "Celestial",
  "type": "feat",
  "img": "systems/pf1/icons/skills/violet_07.jpg",
  "system": {
    "description": {
      "value": "<p><b>Acquired/Inherited Template</b> Acquired<br><b>Simple Template</b> Yes<br><b>Usable with Summons</b> Yes<p>Celestial creatures dwell in the higher planes, but can be summoned using spells such as summon monster and planar ally. A celestial creature’s CR increases by +1 only if the base creature has 5 or more HD. A celestial creature’s quick and rebuild rules are the same.<p><b>Rebuild Rules:</b> Senses gains darkvision 60 ft.; Defensive Abilities gains DR and energy resistance as noted on the table; SR gains SR equal to new CR +5; Special Attacks smite evil 1/day as a swift action (adds Cha bonus to attack rolls and damage bonus equal to HD against evil foes; smite persists until target is dead or the celestial creature rests).</p>\n<p><br><b>Celestial Creature Defenses</b></p>\n<hr>\n<table>\n<tbody>\n<tr>\n<td><b>Hit Dice</b></td>\n<td><b>Resist Acid, Cold, and Electricity</b></td>\n<td><b>DR</b></td>\n</tr>\n<tr>\n<td>1-4</td>\n<td>5</td>\n<td>—</td>\n</tr>\n<tr>\n<td>5-10</td>\n<td>10</td>\n<td>5/evil</td>\n</tr>\n<tr>\n<td>11+</td>\n<td>15</td>\n<td>10/evil</td>\n</tr>\n</tbody>\n</table>"
    },
    "subType": "template",
    "crOffset": "@attributes.hd.total >= 5 ? 1 : 0"
  }
}
