{
  "_id": "sFoAenfeqwUBbc67",
  "name": "Deep Creature (Quick)",
  "type": "feat",
  "img": "systems/pf1/icons/skills/violet_07.jpg",
  "system": {
    "description": {
      "value": "<p><b>Acquired/Inherited Template</b> Acquired</p>\n<p><b>Simple Template</b> Yes<br><b>Usable with Summons</b> No<p>Deep creatures have been twisted by the deep ones, whether through interbreeding or foul rituals.<p><b>Quick Rules:</b> +8 on Swim checks and can always take 10 on Swim checks; swim speed equal to base land speed; +1 to AC; +1 on rolls based on Con or Wis; +1 hp/HD; two claw attacks that each deal 1d4 points of damage (for Medium creatures); amphibious.<p><b>Rebuild Rules:</b> Type gain the aquatic and deep one subtypes; AC natural armor increases by 1; Speed swim speed equal to base land speed; Melee two claw attacks that each deal 1d4 points of damage (for Medium creatures); Special Qualities amphibious; Ability Scores +2 Str, +2 Con, +2 Wis.</p>"
    },
    "changes": [
      {
        "_id": "6u0vi6v1",
        "formula": "8",
        "subTarget": "skill.swm",
        "modifier": "untyped"
      },
      {
        "_id": "v1a13431",
        "formula": "1",
        "subTarget": "ac",
        "modifier": "untyped"
      },
      {
        "_id": "k2ub2q6d",
        "formula": "@attributes.hd.total",
        "subTarget": "mhp",
        "modifier": "untyped"
      },
      {
        "_id": "j2tr4cku",
        "formula": "1",
        "subTarget": "fort",
        "modifier": "untyped"
      },
      {
        "_id": "wfmlcav1",
        "formula": "1",
        "subTarget": "conSkills",
        "modifier": "untyped"
      },
      {
        "_id": "bt91n5q2",
        "formula": "1",
        "subTarget": "conChecks",
        "modifier": "untyped"
      },
      {
        "_id": "v0rcoojz",
        "formula": "1",
        "subTarget": "will",
        "modifier": "untyped"
      },
      {
        "_id": "61kwdc6e",
        "formula": "1",
        "subTarget": "wisChecks",
        "modifier": "untyped"
      },
      {
        "_id": "ffh0o6yt",
        "formula": "1",
        "subTarget": "wisSkills",
        "modifier": "untyped"
      }
    ],
    "subType": "template",
    "crOffset": "1"
  }
}
