{
  "_id": "zfZ7M3PGgvWeolOz",
  "name": "Degenerate (Quick)",
  "type": "feat",
  "img": "systems/pf1/icons/skills/violet_07.jpg",
  "system": {
    "description": {
      "value": "<p><b>Acquired/Inherited Template</b> Acquired</p>\n<p><b>Simple Template</b> Yes<br><b>Usable with Summons</b> No<p>Degenerate creatures are weaker than their ordinary cousins.<p><b>Quick Rules:</b> -2 on all rolls (including damage rolls) and to special ability DCs; -2 to AC and CMD; -2 hp/HD.<p><b>Rebuild Rules:</b> Ability Scores -4 to all ability scores (minimum 1).</p>"
    },
    "changes": [
      {
        "_id": "fo7a8i2b",
        "formula": "-2",
        "subTarget": "attack",
        "modifier": "untyped"
      },
      {
        "_id": "a1s71u71",
        "formula": "-2",
        "subTarget": "wdamage",
        "modifier": "untyped"
      },
      {
        "_id": "bsizn2bg",
        "formula": "-2",
        "subTarget": "allSavingThrows",
        "modifier": "untyped"
      },
      {
        "_id": "qdi41w1u",
        "formula": "-2",
        "subTarget": "skills",
        "modifier": "untyped"
      },
      {
        "_id": "q2i6pb89",
        "formula": "-2",
        "subTarget": "allChecks",
        "modifier": "untyped"
      },
      {
        "_id": "hxx0uqfh",
        "formula": "-2",
        "subTarget": "ac",
        "modifier": "untyped"
      },
      {
        "_id": "qy5ge54l",
        "formula": "-2",
        "subTarget": "cmd",
        "modifier": "untyped"
      },
      {
        "_id": "so685yut",
        "formula": "@attributes.hd.total * -2",
        "subTarget": "mhp",
        "modifier": "untyped"
      }
    ],
    "subType": "template",
    "crOffset": "-1"
  }
}
