{
  "_id": "3K1uexLg6lGMugaI",
  "name": "Druid (Rebuild)",
  "type": "feat",
  "img": "systems/pf1/icons/skills/violet_07.jpg",
  "system": {
    "description": {
      "value": "<p><b>Acquired/Inherited Template</b> Acquired<br><b>Simple Template</b> Yes<br><b>Usable with Summons</b> No<p>Drawn to the raw might and power of nature, a druid creature gains the ability to change shape and cast druid spells. A druid creature's CR increases by 2 if the creature has 7 or more HD, and it increases by 3 if the creature has 13 or more HD.<p><b>Quick Rules:</b> +2 on all rolls based on Wis; can use wild shape† if it has 7 or more HD (using its HD – 3 as its druid level to determine the effect of the wild shape); can cast a small number of druid spells (see the Cleric, Druid, and Wizard Spell Slots table above) using its HD as its CL; woodland stride†.<p><b>Rebuild Rules:</b> Special Attacks wild shape† (if it has 7 or more HD, using its HD – 3 as its druid level to determine the effect of the wild shape); Druid Spells can cast a small number of druid spells (see the Cleric, Druid, and Wizard Spell Slots table above) using its HD as its CL; Ability Scores +4 Wisdom; SQ woodland stride†.<p><b>Animal Companion:</b> These rules assume the druid creature doesn't have an animal companion. If you want to add one, select a creature from the list of a summon nature's ally spell. The spell must have a level no higher than 1/2 the creature's CR. Treat the companion as an additional creature in the encounter, awarding XP for defeating it as if it was not an animal companion.</p>\n<p><b>Cleric, Druid, and Wizard Spells Slots</b></p>\n<hr />\n<table>\n<tbody>\n<tr>\n<td><b>HD</b></td>\n<td><b>0</b></td>\n<td><b>1</b></td>\n<td><b>2</b></td>\n<td><b>3</b></td>\n<td><b>4</b></td>\n<td><b>5</b></td>\n<td><b>6</b></td>\n<td><b>7</b></td>\n<td><b>8</b></td>\n<td><b>9</b></td>\n</tr>\n<tr>\n<td>1-3</td>\n<td>2</td>\n<td>1</td>\n<td>—</td>\n<td>—</td>\n<td>—</td>\n<td>—</td>\n<td>—</td>\n<td>—</td>\n<td>—</td>\n<td>—</td>\n</tr>\n<tr>\n<td>4-6</td>\n<td>2</td>\n<td>2</td>\n<td>1</td>\n<td>—</td>\n<td>—</td>\n<td>—</td>\n<td>—</td>\n<td>—</td>\n<td>—</td>\n<td>—</td>\n</tr>\n<tr>\n<td>7-9</td>\n<td>†</td>\n<td>2</td>\n<td>2</td>\n<td>1</td>\n<td>—</td>\n<td>—</td>\n<td>—</td>\n<td>—</td>\n<td>—</td>\n<td>—</td>\n</tr>\n<tr>\n<td>10-12</td>\n<td>†</td>\n<td>†</td>\n<td>2</td>\n<td>2</td>\n<td>1</td>\n<td>—</td>\n<td>—</td>\n<td>—</td>\n<td>—</td>\n<td>—</td>\n</tr>\n<tr>\n<td>13-15</td>\n<td>†</td>\n<td>†</td>\n<td>†</td>\n<td>2</td>\n<td>2</td>\n<td>1</td>\n<td>—</td>\n<td>—</td>\n<td>—</td>\n<td>—</td>\n</tr>\n<tr>\n<td>16-18</td>\n<td>†</td>\n<td>†</td>\n<td>†</td>\n<td>†</td>\n<td>2</td>\n<td>2</td>\n<td>1</td>\n<td>—</td>\n<td>—</td>\n<td>—</td>\n</tr>\n<tr>\n<td>19-21</td>\n<td>†</td>\n<td>†</td>\n<td>†</td>\n<td>†</td>\n<td>†</td>\n<td>2</td>\n<td>2</td>\n<td>1</td>\n<td>—</td>\n<td>—</td>\n</tr>\n<tr>\n<td>22-24</td>\n<td>†</td>\n<td>†</td>\n<td>†</td>\n<td>†</td>\n<td>†</td>\n<td>†</td>\n<td>2</td>\n<td>2</td>\n<td>1</td>\n<td>—</td>\n</tr>\n<tr>\n<td>25+</td>\n<td>†</td>\n<td>†</td>\n<td>†</td>\n<td>†</td>\n<td>†</td>\n<td>†</td>\n<td>†</td>\n<td>2</td>\n<td>2</td>\n<td>1</td>\n</tr>\n</tbody>\n</table>"
    },
    "changes": [
      {
        "_id": "ijym7ttr",
        "formula": "4",
        "subTarget": "wis",
        "modifier": "untyped"
      }
    ],
    "subType": "template",
    "crOffset": "(@attributes.hd.total >= 13) ? 3 : ((@attributes.hd.total > 6 && @attributes.hd.total < 13) ? 2 : 1)"
  }
}
