{
  "_id": "yDRhZid8sMuCiN0q",
  "name": "Giantkin Ogre",
  "type": "feat",
  "img": "systems/pf1/icons/skills/violet_07.jpg",
  "system": {
    "description": {
      "value": "<p><b>Acquired/Inherited Template</b> Inherited<br><b>Simple Template</b> No<br><b>Usable with Summons</b> No<p>Ogres sometimes interbreed with other giants. The result of such crossbreeding is a giantkin ogre, which gains some abilities from its non-ogre parents. In areas where ogre clans live near large populations of giants, interbreeding can be so common that entire ogre clans consist solely of giantkin.<p>Blessed with the blood of greater giants, giantkin ogres are larger and stronger than their normal ogre relatives and gain abilities from their giant progenitors.<p><b>Rebuild Rules:</b> Hit points +10 hit points; Saving Throws +1 racial bonus to all saving throws; Ability Scores +4 Strength, +4 Constitution; Special Attacks rock throwing (1d6, 90 ft.), Special see table.</p>\n<hr>\n<table>\n<tbody>\n<tr>\n<td><b>Crossbreed</b></td>\n<td><b>Special Abilities</b></td>\n</tr>\n<tr>\n<td>Fireblood</td>\n<td>Resist fire 10</td>\n</tr>\n<tr>\n<td>Frostblood</td>\n<td>Resist cold 10</td>\n</tr>\n<tr>\n<td>Hillblood</td>\n<td>Increase natural armor by 2</td>\n</tr>\n<tr>\n<td>Stoneblood</td>\n<td>Rock catching, rock throwing (1d8, 120 ft.)</td>\n</tr>\n</tbody>\n</table>"
    },
    "changes": [
      {
        "_id": "kqn0quhx",
        "formula": "10",
        "subTarget": "mhp",
        "modifier": "untyped"
      },
      {
        "_id": "8v9djafz",
        "formula": "1",
        "subTarget": "allSavingThrows",
        "modifier": "untyped"
      },
      {
        "_id": "t19udrpk",
        "formula": "4",
        "subTarget": "str",
        "modifier": "untyped"
      },
      {
        "_id": "yi9fni6e",
        "formula": "4",
        "subTarget": "con",
        "modifier": "untyped"
      }
    ],
    "subType": "template",
    "crOffset": "1"
  }
}
