{
  "name": "Old (Age Category)",
  "type": "feat",
  "img": "icons/magic/time/hourglass-tilted-gray.webp",
  "_id": "NtQDu5p8IXfyJnKa",
  "system": {
    "description": {
      "value": "<p>You suffer a -3 penalty to your physical ability scores, and gain a +2 to your mental ability scores, due to your age category.</p>"
    },
    "changes": [
      {
        "_id": "ngi43p28",
        "formula": "-min(3, @abilities.str.total - 1)",
        "subTarget": "str",
        "modifier": "untypedPerm",
        "priority": -500
      },
      {
        "_id": "kndqvezz",
        "formula": "-min(3, @abilities.dex.total - 1)",
        "subTarget": "dex",
        "modifier": "untypedPerm",
        "priority": -500
      },
      {
        "_id": "1ose1les",
        "formula": "-min(3, @abilities.con.total - 1)",
        "subTarget": "con",
        "modifier": "untypedPerm",
        "priority": -500
      },
      {
        "_id": "70k8rdw0",
        "formula": "2",
        "subTarget": "int",
        "modifier": "untypedPerm"
      },
      {
        "_id": "81zqir3h",
        "formula": "2",
        "subTarget": "wis",
        "modifier": "untypedPerm"
      },
      {
        "_id": "c8y6ubiw",
        "formula": "2",
        "subTarget": "cha",
        "modifier": "untypedPerm"
      }
    ],
    "subType": "misc"
  }
}
