{
  "_id": "lxDJhpqwtR3J4UXx",
  "name": "Agile Maneuvers",
  "type": "feat",
  "img": "systems/pf1/icons/feats/agile-maneuvers.jpg",
  "system": {
    "description": {
      "value": "<i>You've learned to use your quickness in place of brute force when performing combat maneuvers.</i>\n<p><b>Benefits</b></p>\n<p>You add your Dexterity bonus to your base attack bonus and size bonus when determining your Combat Maneuver Bonus (see Combat) instead of your Strength bonus.</p>\n<p><b>Normal</b></p>\n<p>You add your Strength bonus to your base attack bonus and size bonus when determining your Combat Maneuver Bonus.</p>"
    },
    "tags": ["Combat"],
    "changes": [
      {
        "_id": "t7xzgayi",
        "formula": "@abilities.dex.mod > @abilities.str.mod ? (@abilities.dex.mod - @abilities.str.mod) : 0",
        "subTarget": "cmb",
        "modifier": "untyped"
      }
    ],
    "tag": "feat_agileManeuvers",
    "useCustomTag": true
  }
}
