{
  "_id": "3v85ul6tGGBZbtBg",
  "name": "Arcane Armor Training",
  "type": "feat",
  "img": "systems/pf1/icons/feats/arcane-armor-training.jpg",
  "system": {
    "description": {
      "value": "<em>You have learned how to cast spells while wearing armor.</em><p><b>Prerequisites</b><br>Light Armor Proficiency, caster level 3rd.<p><b>Benefits</b><br>As a swift action, reduce the arcane spell failure chance due to the armor you are wearing by 10% for any spells you cast this round.<p><b>Combat Trick</b><br>When casting a spell while wearing armor, you can spend 1 stamina point to activate Arcane Armor Training as a free action."
    },
    "tags": ["PFS", "Combat"],
    "contextNotes": [
      {
        "subTarget": "spellEffect",
        "text": "[[-10]]% arcane spell failure"
      }
    ],
    "tag": "feat_arcaneArmorTraining",
    "useCustomTag": true
  }
}
