{
  "_id": "u7rGDZUL296QIuA0",
  "name": "Combat Casting",
  "type": "feat",
  "img": "systems/pf1/icons/feats/combat-casting.jpg",
  "system": {
    "description": {
      "value": "<i>You are adept at spellcasting when threatened or distracted.</i>\n<p><b>Benefits</b></p>\n<p>You get a +4 bonus on concentration checks made to cast a spell or use a spell-like ability when casting on the defensive or while grappled.</p>"
    },
    "tags": ["General", "Magic", "Defensive"],
    "tag": "feat_combatCasting",
    "useCustomTag": true
  }
}
