{
  "name": "Cultivate Magic Plants",
  "type": "feat",
  "img": "icons/consumables/plants/sprout-glowing-roots-green.webp",
  "system": {
    "description": {
      "value": "<p><strong>Source</strong> Ultimate Wilderness pg. 109</p><p><em>You combine a natural green thumb and knowledge of magic in order to grow magic plants.</em></p><p><strong>Prerequisites</strong>: Brew Potion, Craft Wondrous Item, Knowledge (nature) 1 rank.</p><p><strong>Benefit</strong>: You can cultivate magic plants. Cultivating a magic plant takes 1 week per 1,000 gp in its base price. When you create a magic plant, you make the same choices that you would normally make when casting the spell. Whoever consumes the fruit of the magic plant is the target of the spell.</p>"
    },
    "tags": ["General", "Item Creation"],
    "tag": "feat_cultivateMagicPlants",
    "useCustomTag": true
  },
  "_id": "57ELWypg7Rq3XBwG"
}
