{
  "_id": "oP4Srsuk0dF2Zf9F",
  "name": "Extra Rage",
  "type": "feat",
  "img": "systems/pf1/icons/feats/extra-rage.jpg",
  "system": {
    "description": {
      "value": "<p><em>You can use your rage ability more than normal.</em><p><b>Prerequisites</b><br>Rage class feature.<p><b>Benefits</b><br>You can rage for 6 additional rounds per day.<p><b>Special</b><br>You can gain Extra Rage multiple times. Its effects stack.</p>\n<p><b>Usage</b>: add additional charges to Rage feature Maximum Usage Formula manually.</p>"
    },
    "tags": ["PFS", "General"],
    "tag": "feat_extraRage",
    "useCustomTag": true
  }
}
