{
  "_id": "ZmQkRk93nbHxsQSt",
  "name": "Improved Grapple",
  "type": "feat",
  "img": "systems/pf1/icons/feats/improved-grapple.jpg",
  "system": {
    "description": {
      "value": "<i>You are skilled at grappling opponents.</i>\n<p><b>Prerequisites</b></p>\n<p>Dex 13, Improved Unarmed Strike.</p>\n<p><b>Benefits</b></p>\n<p>You do not provoke an attack of opportunity when performing a grapple combat maneuver. In addition, you receive a +2 bonus on checks made to grapple a foe. You also receive a +2 bonus to your Combat Maneuver Defense whenever an opponent tries to grapple you.</p>\n<p><b>Normal</b></p>\n<p>You provoke an attack of opportunity when performing a grapple combat maneuver.</p>"
    },
    "tags": ["Combat", "Combat Maneuver", "Offensive"],
    "tag": "feat_improvedGrapple",
    "useCustomTag": true
  }
}
