{
  "_id": "gTrGPxzN054GfpkM",
  "name": "Improved Trip",
  "type": "feat",
  "img": "systems/pf1/icons/feats/improved-trip.jpg",
  "system": {
    "description": {
      "value": "<em>You are skilled at sending your opponents to the ground.</em><p><b>Prerequisites</b><br>Int 13, Combat Expertise.<p><b>Benefits</b><br>You do not provoke an attack of opportunity when performing a trip combat maneuver. In addition, you receive a +2 bonus on checks made to trip a foe. You also receive a +2 bonus to your Combat Maneuver Defense whenever an opponent tries to trip you.<p><b>Normal</b><br>You provoke an attack of opportunity when performing a trip combat maneuver.<p><b>Combat Trick</b><br>You can select this feat even if you don't meet the ability score prerequisite (Intelligence 13). You gain the benefits of this feat only as long as you have at least 1 stamina point in your stamina pool. When you are the target of a trip combat maneuver, you can spend a number of stamina points up to your Strength or Dexterity bonus, whichever is greater. Your CMD against that trip attempt increases by that number."
    },
    "tags": ["PFS", "Combat"],
    "contextNotes": [
      {
        "subTarget": "cmb",
        "text": "No AoO from Trip. +2 to Trip."
      },
      {
        "subTarget": "cmd",
        "text": "+2 CMD vs. Trip"
      }
    ],
    "tag": "feat_improvedTrip",
    "useCustomTag": true
  }
}
