{
  "_id": "J1yi4hFKYdXqZE3h",
  "name": "Maximize Spell",
  "type": "feat",
  "img": "systems/pf1/icons/feats/maximize-spell.jpg",
  "system": {
    "description": {
      "value": "<i>Your spells have the maximum possible effect.</i>\n<p><b>Benefits</b></p>\n<p>All variable, numeric effects of a spell modified by this feat are maximized. Saving throws and opposed rolls are not affected, nor are spells without random variables. A maximized spell uses up a spell slot three levels higher than the spell's actual level.</p><p>An empowered, maximized spell gains the separate benefits of each feat: the maximum result plus half the normally rolled result.</p>"
    },
    "tags": ["Metamagic", "Magic"],
    "tag": "feat_maximizeSpell",
    "useCustomTag": true
  }
}
