{
  "_id": "WKIVfdosc5SqYzmP",
  "name": "Quick Draw",
  "type": "feat",
  "img": "systems/pf1/icons/feats/quick-draw.jpg",
  "system": {
    "description": {
      "value": "<i>You can draw weapons faster than most.</i>\n<p><b>Prerequisites</b></p>\n<p>Base attack bonus +1.</p>\n<p><b>Benefits</b></p>\n<p>You can draw a weapon as a free action instead of as a move action. You can draw a hidden weapon (see the Sleight of Hand skill) as a move action.</p><p>A character who has selected this feat may throw weapons at his full normal rate of attacks (much like a character with a bow).</p><p>Alchemical items, potions, scrolls, and wands cannot be drawn quickly using this feat.</p>\n<p><b>Normal</b></p>\n<p>Without this feat, you may draw a weapon as a move action, or (if your base attack bonus is +1 or higher) as a free action as part of movement. Without this feat, you can draw a hidden weapon as a standard action.</p>"
    },
    "tags": ["Combat", "Weapon"],
    "tag": "feat_quickDraw",
    "useCustomTag": true
  }
}
