{
  "_id": "KlE26ofz7uAkd0IJ",
  "name": "Spell Mastery",
  "type": "feat",
  "img": "systems/pf1/icons/feats/spell-mastery.jpg",
  "system": {
    "description": {
      "value": "<i>You have mastered a small handful of spells, and can prepare these spells without referencing your spellbooks at all.</i>\n<p><b>Prerequisites</b></p>\n<p>1st-level wizard</p>\n<p><b>Benefits</b></p>\n<p>Each time you take this feat, choose a number of spells that you already know equal to your Intelligence modifier. From that point on, you can prepare these spells without referring to a spellbook.</p>\n<p><b>Normal</b></p>\n<p>Without this feat, you must use a spellbook to prepare all your spells, except <i>read magic</i>.</p>"
    },
    "tags": ["General", "Magic"],
    "tag": "feat_spellMastery",
    "useCustomTag": true
  }
}
