{
  "_id": "4fAgch4ut1JYPBbL",
  "name": "Unseat",
  "type": "feat",
  "img": "systems/pf1/icons/feats/unseat.png",
  "system": {
    "description": {
      "value": "<i>You are skilled at unseating your mounted opponents.</i>\n<p><b>Prerequisites</b></p>\n<p>Str 13, Ride 1 rank, Mounted Combat, Power Attack, Improved Bull Rush, base attack bonus +1.</p>\n<p><b>Benefits</b></p>\n<p>When charging an opponent while mounted and wielding a lance, resolve the attack as normal. If it hits, you may immediately make a free bull rush attempt in addition to the normal damage. If successful, the target is knocked off his horse and lands prone in a space adjacent to his mount that is directly away from you.</p>"
    },
    "tags": ["Combat", "Mount", "Movement", "Offensive", "Combat Maneuver"],
    "tag": "feat_unseat",
    "useCustomTag": true
  }
}
