{
  "_id": "WxPc1Nw2V3ohdl2x",
  "name": "Locathah",
  "type": "race",
  "img": "systems/pf1/icons/skills/blue_06.jpg",
  "system": {
    "description": {
      "value": "<h2>Standard Racial Traits</h2><ul><li><strong>Ability Scores</strong>: +2 <em>Dexterity</em>, +2 <em>Wisdom</em>, –2 <em>Intelligence</em>: Locathahs are agile and intuitive, but they are more interested in travel and experiences than in academia.</li><li><strong>Type</strong>: Locathahs are <em>humanoids</em> with the <em>aquatic</em> subtype.</li><li><strong>Size</strong>: Locathahs are Medium creatures and have no bonuses or penalties due to their size.</li><li><strong>Slow Speed</strong>: Locathahs have a base speed of 10 feet.</li><li><strong>Languages</strong>: Locathahs begin play speaking Aquan and Common. Locathahs with a high <em>Intelligence</em> score can choose from the following: Aklo, Draconic, Elven, Giant, Gnome, Goblin, and Halfling.</li></ul><h3>Defense Racial Traits</h3><ul><li><strong>Natural Armor</strong>: Locathahs have thick scales that provide a +2 <em>natural armor bonus</em>.</li></ul><h3>Movement Racial Traits</h3><ul><li><strong>Fast Swimmer (5 RP)</strong>: Locathahs have a swim speed of 60 feet.</li></ul><h3>Senses Racial Traits</h3><ul><li><strong>Low-Light Vision</strong>: Locathahs live in areas where sunlight illuminates the water, and they have <em>low-light vision</em>.</li></ul><h3>Other Racial Traits</h3><ul><li><strong>Amphibious</strong>: Locathahs have the <em>aquatic</em> subtype but can breathe both water and air.</li></ul>"
    },
    "changes": [
      {
        "_id": "3b0w0yzd",
        "formula": "2",
        "subTarget": "dex",
        "modifier": "racial"
      },
      {
        "_id": "255n7bob",
        "formula": "2",
        "subTarget": "wis",
        "modifier": "racial"
      },
      {
        "_id": "37r2eq31",
        "formula": "-2",
        "subTarget": "int",
        "modifier": "racial"
      },
      {
        "_id": "cw1zdh1t",
        "formula": "2",
        "subTarget": "nac",
        "modifier": "base"
      }
    ],
    "languages": {
      "value": ["common", "aquan"]
    },
    "subTypes": ["Aquatic"],
    "classSkills": {
      "swm": true
    }
  }
}
