{
  "_id": "sXIQ3MFLInN9SF7m",
  "name": "Yaddithian",
  "type": "race",
  "img": "systems/pf1/icons/races/creature-types/abberation.png",
  "system": {
    "description": {
      "value": "<h2>Standard Racial Traits</h2><ul><li><strong>Ability Score Modifiers</strong>: +2 <em>Constitution</em>, +2 <em>Intelligence</em>, –2 <em>Wisdom</em>.</li><li><strong>Type</strong>: Yaddithians are Aberrations.</li><li><strong>Size</strong>: Yaddithians are Medium creatures and thus receive no bonuses or penalties due to their size.</li><li><strong>Base Speed</strong>: Yaddithians have a land speed of 20 feet.</li><li><strong>Languages</strong>: Yaddithians begin play speaking Yaddithian. Those with high <em>Intelligence</em> scores can choose any language as a bonus language.</li></ul><h3>Senses Racial Traits</h3><ul><li><strong>Darkvision</strong>: Yaddithians can see in the dark up to 60 feet.</li></ul><h3>Offensive Racial Traits</h3><ul><li><strong>Claws</strong>: A Yaddithian has two claws that deal 1d4 points of damage each.</li></ul><h3>Defense Racial Traits</h3><ul><li><strong>Defensive Abilities</strong>: Yaddithians have cold <em>resistance</em> 5 and the <em>no breath</em> ability.</li><li><strong>Rugose</strong>: A Yaddithian gains a +1 <em>natural armor bonus</em>.</li></ul><h3>Other Racial Traits</h3><ul><li><strong>Cosmic Mind (Ex)</strong>: A Yaddithian gets a +2 <em>racial bonus</em> on <em>Knowledge</em> and <em>Spellcraft</em> checks. A yaddithian spellcaster who would store spells in a <em>spellbook</em> or <em>familiar</em> instead stores those spells in its mind (but must expend the normal resources to learn new spells).</li><li><strong>Long-Lived (Ex)</strong>: Yaddithians live for thousands of years; they gain no benefit or penalty from aging and are immune to magical aging effects.</li></ul>"
    },
    "tags": ["Bestiary", "Alien"],
    "changes": [
      {
        "_id": "98zj9gl2",
        "formula": "2",
        "subTarget": "con",
        "modifier": "racial"
      },
      {
        "_id": "6099nxwc",
        "formula": "2",
        "subTarget": "int",
        "modifier": "racial"
      },
      {
        "_id": "os4rmk3g",
        "formula": "-2",
        "subTarget": "wis",
        "modifier": "racial"
      },
      {
        "_id": "9b15p13d",
        "formula": "1",
        "subTarget": "nac",
        "modifier": "base"
      },
      {
        "_id": "7qtnx2wd",
        "formula": "2",
        "subTarget": "skill.kar",
        "modifier": "racial"
      },
      {
        "_id": "kygc6jl6",
        "formula": "2",
        "subTarget": "skill.kdu",
        "modifier": "racial"
      },
      {
        "_id": "3v7zg6h2",
        "formula": "2",
        "subTarget": "skill.ken",
        "modifier": "racial"
      },
      {
        "_id": "hrijl2vg",
        "formula": "2",
        "subTarget": "skill.kge",
        "modifier": "racial"
      },
      {
        "_id": "54pugikv",
        "formula": "2",
        "subTarget": "skill.khi",
        "modifier": "racial"
      },
      {
        "_id": "adiosrlh",
        "formula": "2",
        "subTarget": "skill.klo",
        "modifier": "racial"
      },
      {
        "_id": "tz278l3k",
        "formula": "2",
        "subTarget": "skill.kna",
        "modifier": "racial"
      },
      {
        "_id": "olntu3vg",
        "formula": "2",
        "subTarget": "skill.kno",
        "modifier": "racial"
      },
      {
        "_id": "jf5ajvcz",
        "formula": "2",
        "subTarget": "skill.kpl",
        "modifier": "racial"
      },
      {
        "_id": "krw4yj6d",
        "formula": "2",
        "subTarget": "skill.kre",
        "modifier": "racial"
      },
      {
        "_id": "49umhs7d",
        "formula": "2",
        "subTarget": "skill.spl",
        "modifier": "racial"
      }
    ],
    "languages": {
      "custom": "Yaddithian"
    },
    "creatureType": "aberration"
  }
}
