{
  "_id": "8ZfCKla7JiarRC75",
  "name": "Axe Musket",
  "type": "weapon",
  "img": "icons/weapons/guns/gun-wood.webp",
  "system": {
    "description": {
      "value": "<p><b>Source</b> <em>Ultimate Equipment pg. 43</em>, <em>Ultimate Combat pg. 137</em></p>\n<h3>Statistics</h3><p><b>Damage</b> 1d6 (small), 1d8 (medium); <b>Critical</b> x4; <b>Range</b> 30 ft.; <b>Type</b> B and P</p>\n<p><b>Misfire</b> 1-2 (5 ft.); <b>Capacity</b> 1</p>\n<h3>Description</h3>\n<p>This short musket features an axe blade at the end of its barrel. It can be used as both a musket and a battleaxe. It is considered a double weapon for the purposes of creating masterwork or magical versions of this weapon.</p>\n<p>If this firearm gains the broken condition, both the firearm component and the axe are considered broken. An axe musket uses either a bullet and a single dose of black powder or an alchemical cartridge as ammunition.</p>"
    },
    "tags": ["PFS", "Early Firearm"],
    "weight": {
      "value": 6
    },
    "price": 1600,
    "hardness": 10,
    "actions": [
      {
        "_id": "gvg32nqo666g1jp9",
        "name": "Attack",
        "img": "icons/weapons/guns/gun-wood.webp",
        "activation": {
          "type": "attack"
        },
        "duration": {
          "units": "inst"
        },
        "range": {
          "value": "30",
          "units": "ft",
          "maxIncrements": 10
        },
        "actionType": "rwak",
        "damage": {
          "parts": [
            {
              "formula": "sizeRoll(1, 8, @size)",
              "type": {
                "values": ["bludgeoning", "piercing"],
                "custom": ""
              }
            }
          ]
        },
        "formulaicAttacks": {
          "count": {
            "formula": "min(3, ceil(@attributes.bab.total / 5) - 1)"
          },
          "bonus": {
            "formula": "@formulaicAttack * -5"
          },
          "label": ""
        },
        "ability": {
          "attack": "dex",
          "critMult": 4
        },
        "usesAmmo": true
      }
    ],
    "tag": "axeMusket",
    "held": "2h",
    "baseTypes": ["Axe Musket"],
    "weaponGroups": {
      "value": ["firearms"]
    },
    "subType": "exotic",
    "weaponSubtype": "ranged",
    "ammoType": "gunBullet"
  }
}
