{
  "_id": "lxN8LUTXzcckKu32",
  "name": "Baston Fighting Stick",
  "type": "weapon",
  "img": "systems/pf1/icons/items/weapons/quarterstaff.png",
  "system": {
    "description": {
      "value": "<p><b>Source</b> <em>Merchant's Manifest pg. 11</em></p><h3>Statistics</h3><p><b>Damage</b> 1d4 (small), 1d6 (medium); <b>Critical</b> x2; <b>Range</b> -; <b>Type</b> B</p><h3>Description</h3><p>These weapons are treated sticks of wood, either left bare or covered in elaborate decorative designs. Baston fighting sticks vary in length from 2 to 4 feet, with thicknesses varying between 1 to 3 inches. In most applications, these weapons are similar to clubs or quarterstaffs, but in the hands of a trained expert, they truly shine. A creature with the Combat Reflexes feat treats the weapon as having the blocking and performance weapon special features (<em>Pathfinder RPG Ultimate Equipment</em> 22).</p>"
    },
    "weight": {
      "value": 2
    },
    "price": 10,
    "hardness": 10,
    "actions": [
      {
        "_id": "hgd9pczxb067sz1q",
        "name": "Attack",
        "img": "systems/pf1/icons/items/weapons/quarterstaff.png",
        "activation": {
          "type": "attack"
        },
        "duration": {
          "units": "inst"
        },
        "range": {
          "value": "0",
          "units": "melee"
        },
        "actionType": "mwak",
        "damage": {
          "parts": [
            {
              "formula": "sizeRoll(1, 6, @size)",
              "type": {
                "values": ["bludgeoning"],
                "custom": ""
              }
            }
          ]
        },
        "formulaicAttacks": {
          "count": {
            "formula": "min(3, ceil(@attributes.bab.total / 5) - 1)"
          },
          "bonus": {
            "formula": "@formulaicAttack * -5"
          }
        },
        "ability": {
          "attack": "str",
          "damage": "str",
          "critRange": "",
          "critMult": "2"
        }
      }
    ],
    "tag": "bastonFightingStick",
    "baseTypes": ["Baston Fighting Stick"],
    "weaponSubtype": "1h",
    "properties": {
      "mnk": true,
      "spc": true
    }
  }
}
