{
  "_id": "O1rCSxU8ey85PnBb",
  "name": "Bill",
  "type": "weapon",
  "img": "systems/pf1/icons/items/weapons/bill.PNG",
  "system": {
    "description": {
      "value": "<p><b>Source</b> <em>Ultimate Equipment pg. 18</em>, <em>Adventurer's Armory pg. 2</em>, <em>Advanced Player's Guide pg. 176</em></p><h3>Statistics</h3><p><b>Damage</b> 1d6 (small), 1d8 (medium); <b>Critical</b> x3; <b>Range</b> -; <b>Type</b> S</p><p><b>Weapon Groups</b> Polearms</p><h3>Description</h3><p>The blade of this polearm is a curved or hooked chopping blade with a spiked projection on the back of the blade. The spike is commonly used to block and parry. When fighting defensively or with full defense, this weapon gives you a +1 shield bonus to AC. A mounted opponent hit by a bill takes a -1 penalty on his Ride check to stay mounted.</p>"
    },
    "tags": ["PFS"],
    "weight": {
      "value": 11
    },
    "price": 11,
    "hardness": 10,
    "actions": [
      {
        "_id": "rx7tr51w27ufcb9l",
        "name": "Attack",
        "img": "systems/pf1/icons/items/weapons/bill.PNG",
        "activation": {
          "type": "attack"
        },
        "duration": {
          "units": "inst"
        },
        "range": {
          "value": "0",
          "units": "reach"
        },
        "actionType": "mwak",
        "damage": {
          "parts": [
            {
              "formula": "sizeRoll(1, 8, @size)",
              "type": {
                "values": ["slashing"],
                "custom": ""
              }
            }
          ]
        },
        "formulaicAttacks": {
          "count": {
            "formula": "min(3, ceil(@attributes.bab.total / 5) - 1)"
          },
          "bonus": {
            "formula": "@formulaicAttack * -5"
          }
        },
        "ability": {
          "attack": "str",
          "damage": "str",
          "damageMult": 1.5,
          "critMult": 3
        }
      }
    ],
    "tag": "bill",
    "held": "2h",
    "baseTypes": ["Bill"],
    "weaponGroups": {
      "value": ["polearms"]
    },
    "subType": "martial",
    "weaponSubtype": "2h",
    "properties": {
      "brc": true,
      "dis": true,
      "rch": true,
      "spc": true
    }
  }
}
