{
  "_id": "TaRfSanfIvyJeCdm",
  "name": "Blunt Arrow",
  "type": "loot",
  "img": "systems/pf1/icons/items/weapons/arrow.PNG",
  "system": {
    "description": {
      "value": "<p><b>Source</b> <em>Ultimate Equipment pg. 22</em>, <em>Advanced Player's Guide pg. 176</em></p>\n<h3>Statistics</h3>\n<h3>Description</h3>\n<p>These arrows have rounded wooden tips that deal bludgeoning damage rather than piercing.</p>\n<p>An archer can use a blunt arrow to deal nonlethal damage (at the normal -4 attack penalty for using a lethal weapon to deal nonlethal damage).</p>"
    },
    "tags": ["PFS"],
    "quantity": 20,
    "weight": {
      "value": 0.15
    },
    "price": 0.1,
    "equipped": false,
    "hp": {
      "max": 1,
      "value": 1
    },
    "hardness": 5,
    "unidentified": {
      "price": 0.1
    },
    "tag": "bluntArrows20",
    "subType": "ammo",
    "extraType": "arrow"
  }
}
