{
  "_id": "kBfgnl7ccM6QLCcH",
  "name": "Bolas",
  "type": "weapon",
  "img": "icons/weapons/thrown/bolas-stone.webp",
  "system": {
    "description": {
      "value": "<p><b>Source</b> <em>Ranged Tactics Toolbox pg. 33</em>, <em>PRPG Core Rulebook pg. 143</em>, <em>Ultimate Equipment pg. 21</em></p><h3>Statistics</h3><p><b>Damage</b> 1d3 (small), 1d4 (medium); <b>Critical</b> x2; <b>Range</b> 10 ft.; <b>Type</b> B</p><p><b>Weapon Groups</b> Thrown</p><h3>Description</h3><p>A bolas is a pair of wooden, stone, or metal weights connected by a thin rope or cord. You can whirl and throw this weapon to make a ranged trip attack against an opponent. You can't be tripped during your own trip attempt when using a bolas.</p>"
    },
    "tags": ["PFS"],
    "weight": {
      "value": 2
    },
    "price": 5,
    "hp": {
      "max": 5,
      "value": 5
    },
    "hardness": 5,
    "actions": [
      {
        "_id": "l07tt3cwyysv44au",
        "name": "Attack",
        "img": "icons/weapons/thrown/bolas-stone.webp",
        "activation": {
          "type": "attack"
        },
        "duration": {
          "units": "inst"
        },
        "range": {
          "value": "10",
          "units": "ft"
        },
        "actionType": "rwak",
        "damage": {
          "parts": [
            {
              "formula": "sizeRoll(1, 4, @size)",
              "type": {
                "values": ["bludgeoning"],
                "custom": ""
              }
            }
          ]
        },
        "formulaicAttacks": {
          "count": {
            "formula": "min(3, ceil(@attributes.bab.total / 5) - 1)"
          },
          "bonus": {
            "formula": "@formulaicAttack * -5"
          }
        },
        "ability": {
          "attack": "dex",
          "damage": "str"
        }
      }
    ],
    "baseTypes": ["Bolas"],
    "weaponGroups": {
      "value": ["thrown"]
    },
    "subType": "exotic",
    "weaponSubtype": "ranged",
    "properties": {
      "trp": true,
      "nnl": true
    }
  }
}
