{
  "_id": "8GJqvDB2EM7rUNDG",
  "name": "Colossal Siege Tower",
  "type": "weapon",
  "img": "icons/environment/settlement/watchtower-tribe.webp",
  "system": {
    "description": {
      "value": "<p><b>Source</b> <em>Ultimate Combat pg. 166</em></p><h3>Statistics</h3><p><b>Damage</b> -; <b>Critical</b> -; <b>Range</b> -; <b>Type</b> -</p><p><b>Crew</b> 48; <b>Aim</b> 0; <b>Load</b> 0; <b>Speed</b> 15 ft.</p><p><b>Category</b> Close Assault; <b>Proficiency</b> Siege Engine</p><h3>Description</h3><p>A wooden gallery of stout construction, a siege tower consists of a tall protective shell with a roof section. The lower story of the tower contains the crew members who propel the tower, and provides total cover to those within. A siege tower with the broken condition moves at half speed. If a siege tower is destroyed, the entire tower collapses. Treat this as a <a href=\"Rules.aspx?Name=Cave-Ins%20and%20Collapses%20(CR%208)&amp;Category=Dungeon%20Terrain\">cave-in</a>.</p><p>The upper section of a siege tower provides improved cover for a number of soldiers (see below) and may have pierced walls allowing creatures to fire ranged weapons out the sides. The roof section may have a battlement and may mount a siege engine of the siege tower's size or smaller and a corvus. Siege towers have a base speed of 15 (or 10 feet if protected with medium or heavy armor).</p><p>Siege towers have a hardness of 5, and hit points based on their size. A Large siege tower has 60 hit points, a Huge one has 240 hit points, a Gargantuan one has 640 hit points, and a Colossal one has 1,250 hit points.</p><p><h3>Table 3-17: Siege Tower Complement</h3><table><tbody><tr><td><b>Size</b></td><td><b>Soldiers</b></td></tr><tr><td>Large</td><td>5</td></tr><tr><td>Huge</td><td>10</td></tr><tr><td>Gargantuan</td><td>50</td></tr><tr><td>Colossal</td><td>200</td></tr></tbody></table>"
    },
    "price": 10000,
    "hardness": 10,
    "actions": [
      {
        "_id": "7t7yejgcpuifu1rd",
        "name": "Attack",
        "img": "icons/environment/settlement/watchtower-tribe.webp",
        "activation": {
          "type": "attack"
        },
        "duration": {
          "units": "inst"
        },
        "range": {
          "value": "0",
          "units": "melee"
        },
        "actionType": "mwak",
        "formulaicAttacks": {
          "count": {
            "formula": "min(3, ceil(@attributes.bab.total / 5) - 1)"
          },
          "bonus": {
            "formula": "@formulaicAttack * -5"
          }
        },
        "ability": {
          "attack": "str",
          "damage": "str",
          "critRange": "",
          "critMult": "2"
        }
      }
    ],
    "tag": "colossalSiegeTower",
    "baseTypes": ["Siege Tower"],
    "subType": "misc",
    "weaponSubtype": "other"
  }
}
