{
  "_id": "DWen2GjBlnSsFoir",
  "name": "Double Walking Stick Katana",
  "type": "weapon",
  "img": "icons/weapons/staves/staff-simple.webp",
  "system": {
    "description": {
      "value": "<p><b>Source</b> <em>Ultimate Equipment pg. 20</em>, <em>Ultimate Combat pg. 132</em></p><h3>Statistics</h3><p><b>Damage</b> 1d4 (small), 1d6 (medium); <b>Critical</b> 19-20/x2; <b>Range</b> -; <b>Type</b> S</p><p><b>Weapon Groups</b> Double</p><h3>Description</h3><p>This single case conceals a pair of matched fighting swords perfectly balanced to be wielded as a pair. Despite their name, the blades more closely resemble the shorter wakizashi. When drawn, the blades use the statistics listed on the table. When the blades are concealed in their case, this weapon can be used as a quarterstaff.</p>"
    },
    "tags": ["PFS"],
    "weight": {
      "value": 6
    },
    "price": 50,
    "hardness": 10,
    "actions": [
      {
        "_id": "ltpr7eo9kgi3ygcr",
        "name": "Attack",
        "img": "icons/weapons/staves/staff-simple.webp",
        "activation": {
          "type": "attack"
        },
        "duration": {
          "units": "inst"
        },
        "range": {
          "value": "0",
          "units": "melee"
        },
        "actionType": "mwak",
        "damage": {
          "parts": [
            {
              "formula": "sizeRoll(1, 6, @size)",
              "type": {
                "values": ["slashing"],
                "custom": ""
              }
            }
          ]
        },
        "formulaicAttacks": {
          "count": {
            "formula": "min(3, ceil(@attributes.bab.total / 5) - 1)"
          },
          "bonus": {
            "formula": "@formulaicAttack * -5"
          }
        },
        "ability": {
          "attack": "str",
          "damage": "str",
          "damageMult": 1.5,
          "critRange": 19
        }
      }
    ],
    "tag": "doubleWalkingStickKatana",
    "held": "2h",
    "baseTypes": ["Double Walking Stick Katana", "Quarterstaff"],
    "weaponGroups": {
      "value": ["bladesHeavy", "double"]
    },
    "subType": "exotic",
    "weaponSubtype": "2h"
  }
}
