{
  "_id": "JVObA6FqSBzZfikV",
  "name": "Dwarven Longhammer",
  "type": "weapon",
  "img": "systems/pf1/icons/items/weapons/dwarven-long-hammer.PNG",
  "system": {
    "description": {
      "value": "<p><b>Source</b> <em>Advanced Race Guide pg. 17</em></p><h3>Statistics</h3><p><b>Damage</b> 1d10 (small), 2d6 (medium); <b>Critical</b> x3; <b>Range</b> -; <b>Type</b> B</p><h3>Description</h3><p>These heavy-headed bludgeons are often carved or cast with monstrous faces or drilled with tiny holes to create a menacing whistling as they are swung through the air.</p>"
    },
    "tags": ["PFS", "Dwarven"],
    "weight": {
      "value": 20
    },
    "price": 70,
    "hardness": 10,
    "actions": [
      {
        "_id": "323e3aicetlv61r8",
        "name": "Attack",
        "img": "systems/pf1/icons/items/weapons/dwarven-long-hammer.PNG",
        "activation": {
          "type": "attack"
        },
        "duration": {
          "units": "inst"
        },
        "range": {
          "value": "0",
          "units": "reach"
        },
        "actionType": "mwak",
        "damage": {
          "parts": [
            {
              "formula": "sizeRoll(2, 6, @size)",
              "type": {
                "values": ["bludgeoning"],
                "custom": ""
              }
            }
          ]
        },
        "formulaicAttacks": {
          "count": {
            "formula": "min(3, ceil(@attributes.bab.total / 5) - 1)"
          },
          "bonus": {
            "formula": "@formulaicAttack * -5"
          }
        },
        "ability": {
          "attack": "str",
          "damage": "str",
          "damageMult": 1.5,
          "critMult": 3
        }
      }
    ],
    "tag": "dwarvenLonghammer",
    "held": "2h",
    "baseTypes": ["Dwarven Longhammer"],
    "weaponGroups": {
      "value": ["hammers"]
    },
    "subType": "exotic",
    "weaponSubtype": "2h",
    "properties": {
      "rch": true
    }
  }
}
