{
  "_id": "v8Ee5Iagp62xsUQZ",
  "name": "Falchion",
  "type": "weapon",
  "img": "systems/pf1/icons/items/weapons/falchion.PNG",
  "system": {
    "description": {
      "value": "<p><b>Source</b> <em>Ultimate Equipment pg. 18</em>, <em>PRPG Core Rulebook pg. 143</em></p><h3>Statistics</h3><p><b>Damage</b> 1d6 (small), 2d4 (medium); <b>Critical</b> 18-20/x2; <b>Range</b> -; <b>Type</b> S</p><p><b>Weapon Groups</b> Blades, Heavy</p><h3>Description</h3><p>This sword has one curved, sharp edge like a scimitar, with the back edge unsharpened and either flat or slightly curved. Its weight is greater toward the end, making it better for chopping rather than stabbing.</p>"
    },
    "tags": ["PFS"],
    "weight": {
      "value": 8
    },
    "price": 75,
    "hardness": 10,
    "actions": [
      {
        "_id": "gntaanu0qgah9nhj",
        "name": "Attack",
        "img": "systems/pf1/icons/items/weapons/falchion.PNG",
        "activation": {
          "type": "attack"
        },
        "duration": {
          "units": "inst"
        },
        "range": {
          "value": "0",
          "units": "melee"
        },
        "actionType": "mwak",
        "damage": {
          "parts": [
            {
              "formula": "sizeRoll(2, 4, @size)",
              "type": {
                "values": ["slashing"],
                "custom": ""
              }
            }
          ]
        },
        "formulaicAttacks": {
          "count": {
            "formula": "min(3, ceil(@attributes.bab.total / 5) - 1)"
          },
          "bonus": {
            "formula": "@formulaicAttack * -5"
          }
        },
        "ability": {
          "attack": "str",
          "damage": "str",
          "damageMult": 1.5,
          "critRange": 18
        }
      }
    ],
    "tag": "falchion",
    "held": "2h",
    "baseTypes": ["Falchion"],
    "weaponGroups": {
      "value": ["bladesHeavy"]
    },
    "subType": "martial",
    "weaponSubtype": "2h"
  }
}
