{
  "_id": "TY2OYrSQi0lcKT3x",
  "name": "Flight Arrow",
  "type": "loot",
  "img": "systems/pf1/icons/items/weapons/arrow.PNG",
  "system": {
    "description": {
      "value": "<p><b>Source</b> <em>Ultimate Equipment pg. 22</em>, <em>Advanced Player's Guide pg. 176</em></p>\n<h3>Statistics</h3>\n<h3>Description</h3>\n<p>These arrows have light shafts and special fletching to give them greater range. A flight arrow's range increment is 20 feet greater with longbows and 10 feet greater with shortbows.</p>\n<p>They deal damage as if one size category smaller.</p>"
    },
    "tags": ["PFS"],
    "quantity": 20,
    "weight": {
      "value": 0.15
    },
    "price": 0.1,
    "equipped": false,
    "hp": {
      "max": 1,
      "value": 1
    },
    "hardness": 5,
    "unidentified": {
      "price": 0.1
    },
    "subType": "ammo",
    "extraType": "arrow"
  }
}
