{
  "_id": "Rk9RhWGqoKk0G55Z",
  "name": "Heavy Slaver's Crossbow",
  "type": "weapon",
  "img": "systems/pf1/icons/items/weapons/crossbow-heavy.PNG",
  "system": {
    "description": {
      "value": "<p><b>Source</b> <em>Monster Codex pg. 45</em></p><h3>Statistics</h3><p><b>Damage</b> 1d6 (small), 1d8 (medium); <b>Critical</b> 19-20/see \"bolas bolts\" text; <b>Range</b> 80 ft.; <b>Type</b> B</p><h3>Description</h3><p>This crossbow shoots ammunition called bolas bolts instead of crossbow bolts. It comes in both light and heavy varieties (but not double, hand, or repeating crossbow varieties) with the same reload action as a conventional crossbow of its type.</p>"
    },
    "weight": {
      "value": 12
    },
    "price": 400,
    "hp": {
      "max": 5,
      "value": 5
    },
    "hardness": 5,
    "actions": [
      {
        "_id": "ziicko2d09mon115",
        "name": "Attack",
        "img": "systems/pf1/icons/items/weapons/crossbow-heavy.PNG",
        "activation": {
          "type": "attack"
        },
        "duration": {
          "units": "inst"
        },
        "range": {
          "value": "80",
          "units": "ft"
        },
        "actionType": "rwak",
        "damage": {
          "parts": [
            {
              "formula": "sizeRoll(1, 8, @size)",
              "type": {
                "values": ["bludgeoning"],
                "custom": ""
              }
            }
          ]
        },
        "formulaicAttacks": {
          "count": {
            "formula": "min(3, ceil(@attributes.bab.total / 5) - 1)"
          },
          "bonus": {
            "formula": "@formulaicAttack * -5"
          }
        },
        "ability": {
          "attack": "dex",
          "critRange": 19,
          "critMult": 0
        },
        "usesAmmo": true
      }
    ],
    "tag": "heavySlaversCrossbow",
    "baseTypes": ["Heavy Slaver's Crossbow"],
    "weaponGroups": {
      "value": ["crossbows"]
    },
    "subType": "exotic",
    "weaponSubtype": "ranged",
    "properties": {
      "trp": true,
      "nnl": true,
      "spc": true
    },
    "ammoType": "bolt"
  }
}
