{
  "_id": "4ygv4epeaYaWk8q6",
  "name": "Hook Hand",
  "type": "weapon",
  "img": "systems/pf1/icons/items/weapons/hook-hand.PNG",
  "system": {
    "description": {
      "value": "<p><b>Source</b> <em>Villain Codex pg. 188</em>, <em>Pirates of the Inner Sea pg. 19</em>, <em>Skull and Shackles Player's Guide pg. 6</em></p><h3>Statistics</h3><p><b>Damage</b> 1d3 (small), 1d4 (medium); <b>Critical</b> x2; <b>Range</b> -; <b>Type</b> S</p><h3>Description</h3><p>Pirates who lose a hand in the course of their adventures sometimes attach hooks to their wrists. Hook hands can't be disarmed. They generally don't interfere with day-to-day activities, but can't be used for tasks that would require an actual hand (such as completing somatic components, drawing arrows, or holding a weapon with both hands).</p>"
    },
    "weight": {
      "value": 1
    },
    "price": 10,
    "hp": {
      "max": 2,
      "value": 2
    },
    "hardness": 10,
    "actions": [
      {
        "_id": "g8mcy6xgi5nyvppd",
        "name": "Attack",
        "img": "systems/pf1/icons/items/weapons/hook-hand.PNG",
        "activation": {
          "type": "attack"
        },
        "duration": {
          "units": "inst"
        },
        "range": {
          "value": "0",
          "units": "melee"
        },
        "actionType": "mwak",
        "damage": {
          "parts": [
            {
              "formula": "sizeRoll(1, 4, @size)",
              "type": {
                "values": ["slashing"],
                "custom": ""
              }
            }
          ]
        },
        "formulaicAttacks": {
          "count": {
            "formula": "min(3, ceil(@attributes.bab.total / 5) - 1)"
          },
          "bonus": {
            "formula": "@formulaicAttack * -5"
          }
        },
        "ability": {
          "attack": "str",
          "damage": "str"
        }
      }
    ],
    "tag": "hookHand",
    "baseTypes": ["Hook Hand"],
    "weaponGroups": {
      "value": ["close"]
    },
    "properties": {
      "dis": true
    }
  }
}
