{
  "_id": "ik99jFlELGHbSryg",
  "name": "Kama",
  "type": "weapon",
  "img": "systems/pf1/icons/items/weapons/kama.png",
  "system": {
    "description": {
      "value": "<p><b>Source</b> <em>Ultimate Equipment pg. 20</em>, <em>PRPG Core Rulebook pg. 143</em></p><h3>Statistics</h3><p><b>Damage</b> 1d4 (small), 1d6 (medium); <b>Critical</b> x2; <b>Range</b> -; <b>Type</b> S</p><p><b>Weapon Groups</b> Blades, Light; Monk</p><h3>Description</h3><p>Similar to a sickle-and in some regions still used to reap grain-a kama is a short, curved blade attached to a simple handle, usually made of wood. It is sometimes also referred to as a kai, and is frequently used in pairs by martial artists.</p>"
    },
    "tags": ["PFS"],
    "weight": {
      "value": 2
    },
    "price": 2,
    "hp": {
      "max": 2,
      "value": 2
    },
    "hardness": 10,
    "actions": [
      {
        "_id": "o1oxqa1t5oiw7nn9",
        "name": "Attack",
        "img": "systems/pf1/icons/items/weapons/kama.png",
        "activation": {
          "type": "attack"
        },
        "duration": {
          "units": "inst"
        },
        "range": {
          "value": "0",
          "units": "melee"
        },
        "actionType": "mwak",
        "damage": {
          "parts": [
            {
              "formula": "sizeRoll(1, 6, @size)",
              "type": {
                "values": ["slashing"],
                "custom": ""
              }
            }
          ]
        },
        "formulaicAttacks": {
          "count": {
            "formula": "min(3, ceil(@attributes.bab.total / 5) - 1)"
          },
          "bonus": {
            "formula": "@formulaicAttack * -5"
          }
        },
        "ability": {
          "attack": "str",
          "damage": "str"
        }
      }
    ],
    "tag": "kama",
    "baseTypes": ["Kama"],
    "weaponGroups": {
      "value": ["bladesLight", "monk"]
    },
    "subType": "exotic",
    "properties": {
      "mnk": true,
      "trp": true
    }
  }
}
