{
  "_id": "prQK9j1wfKuHR3jq",
  "name": "Launching Crossbow",
  "type": "weapon",
  "img": "systems/pf1/icons/items/weapons/crossbow-launching.PNG",
  "system": {
    "description": {
      "value": "<p><b>Source</b> <em>Adventurer's Armory pg. 4</em></p><h3>Statistics</h3><p><b>Damage</b> - (small), - (medium); <b>Critical</b> -; <b>Range</b> 30 ft.; <b>Type</b> -</p><p><b>Weapon Groups</b> Crossbows</p><h3>Description</h3><p>This stubby-looking crossbow has a cup-like attachment rather than a groove for a bolt. It is designed to launch splash weapons. Loading a launching crossbow is a full-round action.</p>"
    },
    "tags": ["PFS"],
    "weight": {
      "value": 8
    },
    "price": 75,
    "hp": {
      "max": 5,
      "value": 5
    },
    "hardness": 5,
    "actions": [
      {
        "_id": "r2vsq2edqiulo2dm",
        "name": "Attack",
        "img": "systems/pf1/icons/items/weapons/crossbow-launching.PNG",
        "activation": {
          "type": "attack"
        },
        "duration": {
          "units": "inst"
        },
        "range": {
          "value": "30",
          "units": "ft"
        },
        "actionType": "rwak",
        "formulaicAttacks": {
          "count": {
            "formula": "min(3, ceil(@attributes.bab.total / 5) - 1)"
          },
          "bonus": {
            "formula": "@formulaicAttack * -5"
          }
        },
        "ability": {
          "attack": "dex",
          "critMult": 0
        }
      }
    ],
    "tag": "launchingCrossbow",
    "baseTypes": ["Launching Crossbow"],
    "weaponGroups": {
      "value": ["crossbows"]
    },
    "subType": "exotic",
    "weaponSubtype": "ranged"
  }
}
