{
  "_id": "7Wx6OgcshMS6djwD",
  "name": "Rhomphaia",
  "type": "weapon",
  "img": "icons/weapons/polearms/glaive-simple.webp",
  "system": {
    "description": {
      "value": "<p><b>Source</b> <em>Ultimate Equipment pg. 19</em></p><h3>Statistics</h3><p><b>Damage</b> 1d6 (small), 2d4 (medium); <b>Critical</b> x3; <b>Range</b> -; <b>Type</b> P or S</p><h3>Description</h3><p>This Bronze Age weapon is an early polearm consisting of a long, single-edged blade attached to a sturdy staff, sometimes slightly curved. It serves as both a cutting and a thrusting weapon.</p>"
    },
    "tags": ["PFS"],
    "weight": {
      "value": 10
    },
    "price": 15,
    "hardness": 10,
    "actions": [
      {
        "_id": "jfjzfkyqumccnrx9",
        "name": "Attack",
        "img": "icons/weapons/polearms/glaive-simple.webp",
        "activation": {
          "type": "attack"
        },
        "duration": {
          "units": "inst"
        },
        "range": {
          "value": "0",
          "units": "melee"
        },
        "actionType": "mwak",
        "damage": {
          "parts": [
            {
              "formula": "sizeRoll(2, 4, @size)",
              "type": {
                "values": ["piercing", "slashing"],
                "custom": ""
              }
            }
          ]
        },
        "formulaicAttacks": {
          "count": {
            "formula": "min(3, ceil(@attributes.bab.total / 5) - 1)"
          },
          "bonus": {
            "formula": "@formulaicAttack * -5"
          }
        },
        "ability": {
          "attack": "str",
          "damage": "str",
          "damageMult": 1.5,
          "critMult": 3
        }
      }
    ],
    "tag": "rhomphaia",
    "held": "2h",
    "baseTypes": ["Rhomphaia"],
    "subType": "martial",
    "weaponSubtype": "2h",
    "properties": {
      "brc": true,
      "frg": true,
      "rch": true
    }
  }
}
