{
  "_id": "mkwz0g7RwRwWkFkN",
  "name": "Sap",
  "type": "weapon",
  "img": "systems/pf1/icons/items/weapons/sap.png",
  "system": {
    "description": {
      "value": "<p><b>Source</b> <em>Ultimate Equipment pg. 18</em>, <em>PRPG Core Rulebook pg. 142</em></p><h3>Statistics</h3><p><b>Damage</b> 1d4 (small), 1d6 (medium); <b>Critical</b> x2; <b>Range</b> -; <b>Type</b> B</p><p><b>Weapon Groups</b> Close</p><h3>Description</h3><p>This weapon consists of a soft wrapping around a hard, dense core, typically a leather sheath around a lead rod. The head is wider than the handle and designed to spread out the force of the blow, making it less likely to draw blood or break bones.</p>"
    },
    "tags": ["PFS"],
    "weight": {
      "value": 2
    },
    "price": 1,
    "hp": {
      "max": 2,
      "value": 2
    },
    "hardness": 10,
    "actions": [
      {
        "_id": "mwxgnu5mxmfwrb35",
        "name": "Attack",
        "img": "systems/pf1/icons/items/weapons/sap.png",
        "activation": {
          "type": "attack"
        },
        "duration": {
          "units": "inst"
        },
        "range": {
          "value": "0",
          "units": "melee"
        },
        "actionType": "mwak",
        "damage": {
          "parts": [
            {
              "formula": "sizeRoll(1, 6, @size)",
              "type": {
                "values": ["bludgeoning"],
                "custom": ""
              }
            }
          ]
        },
        "formulaicAttacks": {
          "count": {
            "formula": "min(3, ceil(@attributes.bab.total / 5) - 1)"
          },
          "bonus": {
            "formula": "@formulaicAttack * -5"
          }
        },
        "ability": {
          "attack": "str",
          "damage": "str"
        }
      }
    ],
    "tag": "sap",
    "baseTypes": ["Sap"],
    "weaponGroups": {
      "value": ["close"]
    },
    "subType": "martial",
    "properties": {
      "nnl": true
    }
  }
}
