{
  "_id": "CWxJdnooZrwetePJ",
  "name": "Slow Burn Arrow",
  "type": "loot",
  "img": "systems/pf1/icons/items/weapons/arrow-special.PNG",
  "system": {
    "description": {
      "value": "<p><b>Source</b> <em>Alchemy Manual pg. 21</em>, <em>Elves of Golarion pg. 23</em><h3>Statistics</h3><p><b>Category</b> Alchemical Weapons</p>\n<h3>Description</h3>\n<p>Behind the head of this arrow is a small receptacle of alchemical material that heats up when exposed to air and eventually combusts; barbs on the arrowhead pierce the pouch when it hits a target.</p>\n<p>If you hit a target with a slow burn arrow, it deals damage as normal, but at the beginning of your next turn, the arrow bursts into flames and deals <b>1d6 points of fire damage</b> to the target.</p>\n<h3>Alchemical Recipe</h3>\n<p><b>Recipe</b> (70 magnesium + 80 myrrh + 25 phosphorus)/congelation; <b>Craft</b> 25<br><b>Time</b> 10 minutes; <b>Tools</b> alchemist's lab; <b>Type</b> alchemical weapon</p>"
    },
    "price": 150,
    "equipped": false,
    "hp": {
      "max": 1,
      "value": 1
    },
    "hardness": 5,
    "tag": "slowBurnArrow",
    "subType": "ammo",
    "extraType": "arrow"
  }
}
