{
  "_id": "JRfUcNzydUeBm76p",
  "name": "Spear-Sling",
  "type": "weapon",
  "img": "systems/pf1/icons/items/weapons/spear-sling.PNG",
  "system": {
    "description": {
      "value": "<p><b>Source</b> <em>Ranged Tactics Toolbox pg. 18</em></p><h3>Statistics</h3><p><b>Damage</b> 1d6 (small), 1d8 (medium); <b>Critical</b> x3; <b>Range</b> see text; <b>Type</b> P</p><h3>Description</h3><p>A spear-sling consists of a hollow tube with a loop of elastic material, such as rubber or sinew, attached to one end. The wielder draws a harpoon, javelin, shortspear, or spear through the tube, pulling the loop taut. Releasing the loop propels the shaft forward like a bow does an arrow. A harpoon, javelin, shortspear, spear, or other weapon shot from a spear-sling is treated as a projectile weapon instead of a thrown weapon, increasing its maximum range and allowing it to be used underwater. Using a spear-sling requires two hands. Loading a spear-sling is a standard action (a move action if the wielder has the Rapid Reload feat) that provokes attacks of opportunity.</p><p>A spear-sling is made with a particular strength rating, like a composite longbow. Each point of Strength bonus granted by the sling's strength rating adds 50 gp to its cost. If you have a negative Strength modifier, apply it to damage rolls when you use a spear-sling.</p>"
    },
    "tags": ["PFS"],
    "weight": {
      "value": 2
    },
    "price": 50,
    "hp": {
      "max": 5,
      "value": 5
    },
    "hardness": 5,
    "actions": [
      {
        "_id": "ej3puu9x4qjl4ksq",
        "name": "Attack",
        "img": "systems/pf1/icons/items/weapons/spear-sling.PNG",
        "activation": {
          "type": "attack"
        },
        "duration": {
          "units": "inst"
        },
        "range": {
          "value": "0",
          "units": "ft"
        },
        "actionType": "rwak",
        "damage": {
          "parts": [
            {
              "formula": "sizeRoll(1, 8, @size) + min(@abilities.str.mod, 0)",
              "type": {
                "values": ["piercing"],
                "custom": ""
              }
            }
          ]
        },
        "formulaicAttacks": {
          "count": {
            "formula": "min(3, ceil(@attributes.bab.total / 5) - 1)"
          },
          "bonus": {
            "formula": "@formulaicAttack * -5"
          }
        },
        "ability": {
          "attack": "dex",
          "critMult": 3
        }
      }
    ],
    "tag": "spearsling",
    "baseTypes": ["Spear-Sling"],
    "weaponGroups": {
      "value": ["spears"]
    },
    "subType": "martial",
    "weaponSubtype": "ranged",
    "properties": {
      "spc": true
    }
  }
}
