{
  "_id": "Ybiyah8XFZ1Yhh35",
  "name": "Switchscythe",
  "type": "weapon",
  "img": "systems/pf1/icons/items/weapons/switchscythe.PNG",
  "system": {
    "description": {
      "value": "<p><b>Source</b> <em>Adventurer's Armory 2 pg. 9</em></p><h3>Statistics</h3><p><b>Damage</b> 1d6 (small), 2d4 (medium); <b>Critical</b> x4; <b>Range</b> -; <b>Type</b> P or S</p><p><b>Weapon Groups</b> Blades, Heavy</p><h3>Description</h3><p>This scythe has a spring-loaded blade that folds down into the weapon's handle. Opening the scythe blade is a swift action, and closing it again is a standard action. You can use Bluff or Sleight of Hand to treat a closed switchscythe as a hidden weapon; the apparatus can be disguised with 1 minute of work, which grants a +5 bonus on such checks. This disguise is ruined when the weapon is opened and must be reapplied to hide the weapon again. Any effects that apply to a scythe also apply to a switchscythe.</p>"
    },
    "tags": ["PFS"],
    "weight": {
      "value": 10
    },
    "price": 18,
    "hardness": 10,
    "actions": [
      {
        "_id": "tov7jd571gmomq94",
        "name": "Attack",
        "img": "systems/pf1/icons/items/weapons/switchscythe.PNG",
        "activation": {
          "type": "attack"
        },
        "duration": {
          "units": "inst"
        },
        "range": {
          "value": "0",
          "units": "melee"
        },
        "actionType": "mwak",
        "damage": {
          "parts": [
            {
              "formula": "sizeRoll(2, 4, @size)",
              "type": {
                "values": ["piercing", "slashing"],
                "custom": ""
              }
            }
          ]
        },
        "formulaicAttacks": {
          "count": {
            "formula": "min(3, ceil(@attributes.bab.total / 5) - 1)"
          },
          "bonus": {
            "formula": "@formulaicAttack * -5"
          }
        },
        "ability": {
          "attack": "str",
          "damage": "str",
          "damageMult": 1.5,
          "critRange": null,
          "critMult": 4
        }
      }
    ],
    "tag": "switchscythe",
    "held": "2h",
    "baseTypes": ["Scythe"],
    "weaponGroups": {
      "value": ["bladesHeavy"]
    },
    "subType": "exotic",
    "weaponSubtype": "2h",
    "properties": {
      "trp": true
    }
  }
}
