{
  "_id": "gxTN2rn0eYV4QsYJ",
  "name": "Tangleshot Arrow",
  "type": "loot",
  "img": "systems/pf1/icons/items/weapons/arrow-special.PNG",
  "system": {
    "description": {
      "value": "<p><b>Source</b> <em>Alchemy Manual pg. 21</em>, <em>Elves of Golarion pg. 23</em><h3>Statistics</h3><p><b>Category</b> Alchemical Weapons</p>\n<h3>Description</h3>\n<p>This arrow is tipped with a tiny vial of tanglefoot goo. Firing a tangleshot arrow is a ranged touch attack; the arrow deals no damage when it hits, but the target is splashed with the alchemical adhesive.</p>\n<p>This effect is similar to that of a @Compendium[pf1.items.utncinnlwzscpzbd]{Tanglefoot Bag}, but with the following adjustments: <b>Reflex DC 10</b>, <b>Strength DC 12</b> to break, 10 points of slashing damage to cut through, concentration DC 10 to cast spells.</p>\n<p>A tangleshot arrow imposes a <b>-1 penalty on attack rolls</b> because of its weight.</p>\n<h3>Alchemical Recipe</h3>\n<p><b>Recipe</b> (18 myrrh + 26 urea)/congelation; <b>Craft</b> 25<br><b>Time</b> 10 minutes; <b>Tools</b> alchemist's lab; <b>Type</b> alchemical weapon</p>"
    },
    "price": 20,
    "equipped": false,
    "hp": {
      "max": 1,
      "value": 1
    },
    "hardness": 5,
    "unidentified": {
      "price": 20
    },
    "tag": "tangleshotArrow",
    "subType": "ammo",
    "extraType": "arrow"
  }
}
