{
  "_id": "kRFQLnjgl2cTlTrc",
  "name": "Tekko-Kagi",
  "type": "weapon",
  "img": "icons/weapons/fist/fist-katar-triple-engraved.webp",
  "system": {
    "description": {
      "value": "<p><b>Source</b> <em>Ultimate Equipment pg. 20</em>, <em>Ultimate Combat pg. 134</em></p><h3>Statistics</h3><p><b>Damage</b> 1d2 (small), 1d3 (medium); <b>Critical</b> x2; <b>Range</b> -; <b>Type</b> P</p><p><b>Weapon Groups</b> Close</p><h3>Description</h3><p>Also known as an iron claw, this device consists of a fanlike structure of three or more 10-inch blades secured to a sturdy handle strapped to the forearm of the off hand. It can be used as an offensive weapon or defensively like a buckler, or used to disarm an opponent without provoking an attack of opportunity. It provides its owner with a +2 circumstance bonus on attempts to disarm or sunder swords or other slender-bladed weapons.</p>"
    },
    "tags": ["PFS"],
    "price": 2,
    "hp": {
      "max": 2,
      "value": 2
    },
    "hardness": 10,
    "actions": [
      {
        "_id": "gdr5wh1c56hzo7bq",
        "name": "Attack",
        "img": "icons/weapons/fist/fist-katar-triple-engraved.webp",
        "activation": {
          "type": "attack"
        },
        "duration": {
          "units": "inst"
        },
        "range": {
          "value": "0",
          "units": "melee"
        },
        "actionType": "mwak",
        "damage": {
          "parts": [
            {
              "formula": "sizeRoll(1, 3, @size)",
              "type": {
                "values": ["piercing"],
                "custom": ""
              }
            }
          ]
        },
        "formulaicAttacks": {
          "count": {
            "formula": "min(3, ceil(@attributes.bab.total / 5) - 1)"
          },
          "bonus": {
            "formula": "@formulaicAttack * -5"
          }
        },
        "ability": {
          "attack": "str",
          "damage": "str"
        }
      }
    ],
    "tag": "tekkokagi",
    "baseTypes": ["Tekko-Kagi"],
    "weaponGroups": {
      "value": ["close"]
    },
    "subType": "exotic",
    "properties": {
      "dis": true,
      "spc": true
    }
  }
}
