{
  "_id": "bfIz1vVKGX9p8MHT",
  "name": "Tonfa",
  "type": "weapon",
  "img": "icons/weapons/staves/staff-simple.webp",
  "system": {
    "description": {
      "value": "<p><b>Source</b> <em>Ultimate Equipment pg. 18</em>, <em>Ultimate Combat pg. 134</em></p><h3>Statistics</h3><p><b>Damage</b> 1d4 (small), 1d6 (medium); <b>Critical</b> x2; <b>Range</b> -; <b>Type</b> B</p><p><b>Weapon Groups</b> Close; Monk</p><h3>Description</h3><p>These L-shaped fighting batons are good for striking and blocking. The wielder holds the handle and either spins the stick or strikes with the stick covering the forearm.</p>"
    },
    "tags": ["PFS"],
    "weight": {
      "value": 1
    },
    "price": 1,
    "hp": {
      "max": 2,
      "value": 2
    },
    "hardness": 10,
    "actions": [
      {
        "_id": "3j4f4cbsien9zgnw",
        "name": "Attack",
        "img": "icons/weapons/staves/staff-simple.webp",
        "activation": {
          "type": "attack"
        },
        "duration": {
          "units": "inst"
        },
        "range": {
          "value": "0",
          "units": "melee"
        },
        "actionType": "mwak",
        "damage": {
          "parts": [
            {
              "formula": "sizeRoll(1, 6, @size)",
              "type": {
                "values": ["bludgeoning"],
                "custom": ""
              }
            }
          ]
        },
        "formulaicAttacks": {
          "count": {
            "formula": "min(3, ceil(@attributes.bab.total / 5) - 1)"
          },
          "bonus": {
            "formula": "@formulaicAttack * -5"
          }
        },
        "ability": {
          "attack": "str",
          "damage": "str"
        }
      }
    ],
    "tag": "tonfa",
    "baseTypes": ["Tonfa"],
    "weaponGroups": {
      "value": ["close", "monk"]
    },
    "subType": "martial",
    "properties": {
      "blc": true,
      "mnk": true
    }
  }
}
