{
  "_id": "rXxv6Q9b6Px3qhFE",
  "name": "Tube Arrow Shooter",
  "type": "weapon",
  "img": "icons/weapons/thrown/dagger-simple-wood.webp",
  "system": {
    "description": {
      "value": "<p><b>Source</b> <em>Ranged Tactics Toolbox pg. 0</em>, <em>Ultimate Combat pg. 134</em>, <em>Ultimate Equipment pg. 19</em></p><h3>Statistics</h3><p><b>Damage</b> 1d3 (small), 1d4 (medium); <b>Critical</b> x2; <b>Range</b> 40 ft.; <b>Type</b> P</p><p><b>Weapon Groups</b> Crossbows</p><h3>Description</h3><p>This weapon consists of a small metal tube hidden within a sleeve; the tube holds a short, spring-loaded bamboo shaft. You gain a +2 bonus on Sleight of Hand checks made to conceal a tube arrow shooter on your body. Releasing the fastener allows the spring to force the arrow out. Once a shaft is fired, the tube must be reloaded before it can be used again. Reloading a tube is a full-round action, or a standard action if the wielder has the Rapid Reload feat.</p>"
    },
    "tags": ["PFS"],
    "weight": {
      "value": 0.5
    },
    "price": 3,
    "hp": {
      "max": 5,
      "value": 5
    },
    "hardness": 5,
    "actions": [
      {
        "_id": "7egw5f3vnzwhmo3t",
        "name": "Attack",
        "img": "icons/weapons/thrown/dagger-simple-wood.webp",
        "activation": {
          "type": "attack"
        },
        "duration": {
          "units": "inst"
        },
        "range": {
          "value": "40",
          "units": "ft"
        },
        "actionType": "rwak",
        "damage": {
          "parts": [
            {
              "formula": "sizeRoll(1, 4, @size)",
              "type": {
                "values": ["piercing"],
                "custom": ""
              }
            }
          ]
        },
        "formulaicAttacks": {
          "count": {
            "formula": "min(3, ceil(@attributes.bab.total / 5) - 1)"
          },
          "bonus": {
            "formula": "@formulaicAttack * -5"
          }
        },
        "ability": {
          "attack": "dex",
          "damage": "str"
        }
      }
    ],
    "tag": "tubeArrowShooter",
    "baseTypes": ["Tube Arrow Shooter"],
    "weaponGroups": {
      "value": ["crossbows"]
    },
    "subType": "martial",
    "weaponSubtype": "ranged"
  }
}
