{
  "_id": "6KIccfc5fgXSn7JZ",
  "name": "Weighted Bolt",
  "type": "loot",
  "img": "icons/weapons/ammunition/arrow-simple-brown.webp",
  "system": {
    "description": {
      "value": "<p><b>Source</b> <em>Dragonslayer's Handbook pg. 27</em></p>\n<h3>Statistics</h3>\n<h3>Description</h3>\n<p>This barbed ballista bolt is equipped with a heavy weight at the end of a long chain. The bolt's extra weight makes the bolt harder to fire accurately, and imposes a -2 penalty on attack rolls.</p>\n<p>In addition to the normal damage dealt by a ballista bolt of its size, on a successful hit the weighted bolt lodges itself into the target's body, leaving the weighted chain hanging loosely, imparting a -5 penalty on all Fly checks made by the target.</p>\n<p>These penalties stack if a target is hit with multiple weighted bolts. A weighted bolt can be removed with a successful DC 25 Heal check or a DC 20 Strength check.</p>"
    },
    "weight": {
      "value": 40
    },
    "price": 50,
    "equipped": false,
    "hp": {
      "max": 1,
      "value": 1
    },
    "hardness": 5,
    "tag": "weightedBolt",
    "subType": "ammo"
  }
}
