{
  "_id": "AGATY0QneZ4gvvSc",
  "name": "Whistling Arrow",
  "type": "loot",
  "img": "systems/pf1/icons/items/weapons/arrow.PNG",
  "system": {
    "description": {
      "value": "<p><b>Source</b> <em>Ultimate Equipment pg. 22</em>, <em>Adventurer's Armory pg. 2</em>, <em>Ultimate Combat pg. 130</em></p>\n<h3>Statistics</h3>\n<h3>Description</h3>\n<p>These arrows come with specially designed grooves and fletching that cause them to emit a loud keening sound audible within 500 feet of their flight path.</p>\n<p>They are sold in quantities of 20.</p>"
    },
    "tags": ["PFS"],
    "quantity": 20,
    "weight": {
      "value": 0.15
    },
    "price": 0.1,
    "equipped": false,
    "hp": {
      "max": 1,
      "value": 1
    },
    "hardness": 5,
    "unidentified": {
      "price": 0.1
    },
    "subType": "ammo",
    "extraType": "arrow"
  }
}
