{
  "_id": "hilqnbonojptuuvu",
  "name": "Bag, Waterproof",
  "type": "loot",
  "img": "systems/pf1/icons/items/inventory/dice.jpg",
  "system": {
    "description": {
      "value": "<p><b>Price</b> 5 sp; <b>Weight</b> 1/2 lb.</p>\n<p>This leather <em>sack</em> sealed with tar or pitch keeps delicate items from being ruined by water. Items kept inside remain relatively dry, making the bag ideal for carrying maps, scrolls, spellbooks, and the like, although the bag is not impervious and can only be completely immersed for 10 rounds before enough water seeps in to ruin such items.</p>"
    },
    "weight": {
      "value": 0.5
    },
    "price": 0.5,
    "equipped": false,
    "subType": "gear"
  }
}
