{
  "_id": "D0NxKkJTZebPbFZO",
  "name": "Chain",
  "type": "loot",
  "img": "systems/pf1/icons/items/inventory/dice.jpg",
  "system": {
    "description": {
      "value": "<p>Source <a href=\"http://paizo.com/products/btpy8tmc?Pathfinder-Roleplaying-Game-Ultimate-Equipment\">Ultimate Equipment pg. 56</a>, <a href=\"http://paizo.com/pathfinderRPG/v5748btpy88yj\">PRPG Core Rulebook pg. 158</a><br>Price 30 gp; Weight 2 lbs.<br>Category Adventuring Gear</p>\n<h3>Description</h3>\n<p>This chain is made of interlocking metal links roughly an inch long, and thick enough to bear large amounts of weight. It has hardness 10 and 5 hit points. It can be burst with a DC 26 Strength check.</p>"
    },
    "weight": {
      "value": 2
    },
    "price": 30,
    "equipped": false,
    "subType": "gear"
  }
}
