{
  "_id": "nbbqukzwghrixhyl",
  "name": "Chalk",
  "type": "loot",
  "img": "systems/pf1/icons/items/inventory/dice.jpg",
  "system": {
    "description": {
      "value": "<p class=\"source\"><b>Source</b> <em>PZO1110</em></p>\n<p><b>Price</b> 1 cp; <b>Weight</b> -</p>\n<p>This fat piece of white chalk easily marks wood, metal, or stone. You can write with it for about 24 hours before it is expended. Chalk also comes in other colors, but these are rarer and can be more expensive.</p>"
    },
    "price": 0.01,
    "equipped": false,
    "subType": "gear"
  }
}
