{
  "_id": "lpayawzoidoyszqg",
  "name": "Cloak, Patchwork",
  "type": "loot",
  "img": "systems/pf1/icons/items/inventory/dice.jpg",
  "system": {
    "description": {
      "value": "<p><b>Price</b> 5 gp; <b>Weight</b> 1/2 lb.</p>\n<p>These cloaks are popular among traveling <em>bards</em>, and each patchwork cloak is unique. The patches represent where the traveler has been, and often the performer uses them to recall specific stories from his repertoire. When a <em>bard</em> retires or dies, he often bequeaths his cloak to a young entertainer he mentored or admired.</p>"
    },
    "weight": {
      "value": 0.5
    },
    "price": 5,
    "equipped": false,
    "subType": "gear"
  }
}
