{
  "name": "Comb",
  "type": "loot",
  "img": "systems/pf1/icons/items/inventory/dice.jpg",
  "system": {
    "tags": ["Mundane", "Grooming"],
    "equipped": false,
    "subType": "tradeGoods"
  },
  "_id": "DGFs2jVxtanZnxQB"
}
