{
  "_id": "Xovy8oxmRxth4EVY",
  "name": "Headband of Alluring Charisma +4",
  "type": "equipment",
  "img": "systems/pf1/icons/items/equipment/belt-gems.jpg",
  "system": {
    "description": {
      "value": "<p>This attractive silver headband is decorated with a number of small red and orange gemstones.</p>\n<p>The headband grants the wearer an <em>enhancement bonus</em> to <em>Charisma</em> of +2, +4, or +6. Treat this as a temporary ability bonus for the first 24 hours the headband is worn.</p>",
      "unidentified": "<p>This attractive silver headband is decorated with a number of small red and orange gemstones.</p>"
    },
    "weight": {
      "value": 1
    },
    "price": 16000,
    "resizing": true,
    "unidentified": {
      "name": "Headband"
    },
    "cl": 8,
    "aura": {
      "school": "trs"
    },
    "changes": [
      {
        "_id": "xujo5l9v",
        "formula": "4",
        "subTarget": "cha",
        "modifier": "enh"
      }
    ],
    "subType": "wondrous",
    "slot": "headband"
  }
}
