{
  "_id": "txkgvmomhompjpbr",
  "name": "Ink, Glowing",
  "type": "loot",
  "img": "systems/pf1/icons/items/inventory/dice.jpg",
  "system": {
    "description": {
      "value": "<p><b>Price</b> 5 gp; <b>Weight</b> -</p>\n<p>Often extracted from phosphorescent insects, tiny marine plants, or subterranean fungi, glowing ink emits a faint but steady light (typically red or green) that allows you to read it in normal darkness-this includes darkness created by spells like darkness, but not the supernatural darkness created by deeper darkness. If there is glowing ink on an object, you have a +2 bonus on Perception checks to locate it. Mixing glowing ink with marker dye makes the dye glow in the dark until it fades.</p>"
    },
    "price": 5,
    "equipped": false,
    "subType": "gear"
  }
}
