{
  "_id": "qzfhagwwlzugphrb",
  "name": "Kit, Undead Slayer's",
  "type": "loot",
  "img": "systems/pf1/icons/items/inventory/dice.jpg",
  "system": {
    "description": {
      "value": "<p><b>Price</b> 402 gp; <b>Weight</b> 7 lbs.</p>\n<p>This kit includes a wooden holy symbol, a necklace of garlic bulbs, a hammer, a wooden stake, 2 flasks of holy water, one sunrod, a potion of lesser restoration, and a potion of protection from evil.</p>"
    },
    "weight": {
      "value": 7
    },
    "price": 402,
    "equipped": false,
    "subType": "gear"
  }
}
