{
  "_id": "ajttarrnkljnmayq",
  "name": "Kit, Pyramid Buster's",
  "type": "loot",
  "img": "systems/pf1/icons/items/inventory/dice.jpg",
  "system": {
    "description": {
      "value": "<p class=\"source\"><b>Source</b>: <em>USH</em></p>\n<p><b>Price</b> 310 gp; <b>Weight</b> 8 lbs.</p>\n<p>This kit contains items helpful in navigating the winding corridors of pyramids, but is also useful in other crypts and tombs. It contains three sticks of <em>chalk</em>, five sheets of <em>parchment</em>, 1 dose of synthetic mumia, a <em>flask</em> of <em>alchemist's fire</em>, a tangleburn bag, and a pair of sunrods.</p>"
    },
    "weight": {
      "value": 8
    },
    "price": 310,
    "equipped": false,
    "subType": "gear"
  }
}
