{
  "_id": "nmzgaxvydqstysvt",
  "name": "Kit, Light",
  "type": "loot",
  "img": "systems/pf1/icons/items/inventory/dice.jpg",
  "system": {
    "description": {
      "value": "<p class=\"source\"><b>Source</b>: <em>USH</em></p>\n<p><b>Price</b> 170 gp; <b>Weight</b> 6 lbs.</p>\n<p>Ideal for use in subterranean environments or in combat against light-averse creatures, this small kit provides ample alchemical and magical sources of illumination. It contains an <em>ioun torch</em>, <em>flash powder</em>, a pair of sunrods, four torches, and six tindertwigs.</p>"
    },
    "weight": {
      "value": 6
    },
    "price": 170,
    "equipped": false,
    "subType": "gear"
  }
}
