{
  "_id": "uyblvrzlawildlhs",
  "name": "Kit, Chronicler's",
  "type": "loot",
  "img": "systems/pf1/icons/items/inventory/dice.jpg",
  "system": {
    "description": {
      "value": "<p><b>Price</b> 40 gp; <b>Weight</b> 4-1/2 lbs.</p>\n<p>This bundle contains a map case, two vials of <em>ink</em>, two inkpens, 10 sheets of <em>paper</em>, two blank journals, a pound of fine <em>powder</em> for drying <em>ink</em>, and a 20-foot measuring cord. The supplies usually suffice for chronicling a single expedition of not more than 2 months' duration.</p>"
    },
    "weight": {
      "value": 4
    },
    "price": 40,
    "equipped": false,
    "subType": "gear"
  }
}
