{
  "_id": "qydsjbxkjjhnobah",
  "name": "Kit, Trapper's",
  "type": "loot",
  "img": "systems/pf1/icons/items/inventory/dice.jpg",
  "system": {
    "description": {
      "value": "<p class=\"source\"><b>Source</b>: <em>PZO9430</em></p>\n<p><b>Price</b> 263 gp; <b>Weight</b> 90 lbs.</p>\n<p>This kit is particularly useful for dungeon explorers who specialize in trapping or taming whatever vile quarry they find. A trapper's kit contains an average lock, a <em>bear</em> <em>trap</em>, a container of bone paste, a Small cage, a set of manacles, a bag of marbles, 50 feet of silk rope, two <em>tanglefoot bags</em>, 50 feet of twine, and a wire</p>"
    },
    "weight": {
      "value": 90
    },
    "price": 263,
    "equipped": false,
    "subType": "gear"
  }
}
