{
  "_id": "gjnpbspqfceldzlj",
  "name": "Kit, Survival",
  "type": "loot",
  "img": "systems/pf1/icons/items/inventory/dice.jpg",
  "system": {
    "description": {
      "value": "<table border=\"1\" cellpadding=\"5\">\n<thead>\n<tr>\n<th>Type</th>\n<th>Price</th>\n<th>Weight</th>\n</tr>\n</thead>\n<tbody>\n<tr>\n<td>Common</td>\n<td>5 gp</td>\n<td>4 lbs.</td>\n</tr>\n<tr>\n<td>Masterwork</td>\n<td>50 gp</td>\n<td>5 lbs.</td>\n</tr>\n</tbody>\n</table>\n<p>A survival kit provides the necessary tools for day-to-day existence in a temperate wilderness. It typically contains a <em>flint and steel</em>, a <em>mess kit</em>, two waterskins (enough to hold water for 1 person for 1 day), very basic maps showing major landmarks, and a small utility knife.</p>\n<p>A masterwork survival kit contains higher quality gear and a guide to identifying flora and fauna. It grants you a +2 circumstance bonus on Survival checks to get along in the wild, deal with severe weather, keep from getting lost, avoid natural hazards such as quicksand, and predict the weather.</p>"
    },
    "equipped": false,
    "subType": "gear"
  }
}
