{
  "_id": "ukhmoytyvteruyvw",
  "name": "Kumis",
  "type": "loot",
  "img": "systems/pf1/icons/items/inventory/dice.jpg",
  "system": {
    "description": {
      "value": "<h4>Kumis</h4>\n<p><b>Price</b> 5 sp; <b>Weight</b> 1-1/2 lbs.</p>\n<p>This alcoholic beverage, made from fermented horse milk, has approximately the same potency as typical beer. It is served cold.</p>"
    },
    "price": 0.5,
    "equipped": false,
    "subType": "gear"
  }
}
