{
  "_id": "UVTxDWJGurLK899W",
  "name": "Magnet",
  "type": "loot",
  "img": "systems/pf1/icons/items/inventory/dice.jpg",
  "system": {
    "description": {
      "value": "<p>Source <a href=\"http://paizo.com/products/btpy8tmc?Pathfinder-Roleplaying-Game-Ultimate-Equipment\">Ultimate Equipment pg. 57</a>, <a href=\"http://paizo.com/pathfinderRPG/v5748btpy8fo1\">Advanced Player's Guide pg. 181</a>, <a href=\"http://paizo.com/store/downloads/pathfinder/pathfinderCompanion/pathfinderRPG/v5748btpy8dmf\">Adventurer's Armory pg. 19</a><br>Price 5 sp; Weight 1/2 lb.<br>Category Adventuring Gear</p>\n<h3>Description</h3>\n<p>Handheld magnets are relatively weak and are mainly used to detect or pull iron, mithral, or adamantine at a short range. They are not powerful enough to tug metal over significant distances or aid in disarming creatures wielding metal weapons. This hand-sized horseshoe magnet can lift up to a 3-pound iron weight.</p>"
    },
    "weight": {
      "value": 0.5
    },
    "price": 0.5,
    "equipped": false,
    "subType": "gear"
  }
}
