{
  "name": "Mirror, Miniature",
  "type": "loot",
  "img": "icons/tools/scribal/lens-grey-brown.webp",
  "system": {
    "description": {
      "value": "<p class=\"source\"><b>Source</b> <em>PZO1110</em></p>\n<p>A tiny steel mirror.</p>"
    },
    "tags": ["Mundane", "Grooming"],
    "weight": {
      "value": 0.2
    },
    "equipped": false,
    "subType": "tradeGoods"
  },
  "_id": "qtVn6uvpmPlc30AX"
}
