{
  "_id": "fubyjhqaertcabjp",
  "name": "Mistletoe",
  "type": "loot",
  "img": "systems/pf1/icons/items/inventory/dice.jpg",
  "system": {
    "description": {
      "value": "<p class=\"source\"><b>Source</b> <em>PZO9410</em></p>\n<p>This golden-colored parasitic plant grows on many different sorts of trees. Druids harvest mistletoe with specially prepared tools and during sacred times of the year.</p>"
    },
    "equipped": false,
    "subType": "gear"
  }
}
