{
  "_id": "jdotowxccjdccazt",
  "name": "Myrrh",
  "type": "loot",
  "img": "systems/pf1/icons/items/inventory/dice.jpg",
  "system": {
    "description": {
      "value": "<p class=\"source\"><b>Source</b> <em>PZO9445</em></p>\n<p><b>Price</b> 5 sp; <b>Weight</b> -</p>\n<p>Myrrh is an aromatic gum used as a base for alchemical remedies and as a sticky bonding agent.</p>\n<p>Alchemical Power Component</p>\n<p><b>Doses</b> 4 (2 gp); <b>Spells</b> abjuration school</p>\n<p>Spells of the abjuration school are cast at +1 caster level for the purpose of caster level checks and dispel checks.</p>"
    },
    "price": 0.5,
    "equipped": false,
    "subType": "gear"
  }
}
