{
  "name": "Nail File",
  "type": "loot",
  "img": "systems/pf1/icons/items/inventory/dice.jpg",
  "system": {
    "tags": ["Mundane", "Grooming"],
    "equipped": false,
    "subType": "gear"
  },
  "_id": "VWirsdZNCFFB9WDN"
}
