{
  "_id": "vfhmbhwxiumenqgc",
  "name": "Neck Guard",
  "type": "loot",
  "img": "systems/pf1/icons/items/inventory/dice.jpg",
  "system": {
    "description": {
      "value": "<p class=\"source\"><b>Source</b> <em>PZO1121</em></p>\n<p>Made from hardened leather reinforced with a band of metal, this collar protects the wearer against <em>vampire</em> bites when worn around the throat. It provides a +1 <em>armor bonus</em> to AC against <em>vampire</em> bites or similar attacks that specifically target the wearer's throat. Unlike most armor bonuses, the neck guard's +1 bonus stacks with the <em>armor bonus</em> of light or medium <em>armor</em>, but it provides no additional bonus when worn with heavy armor.</p>"
    },
    "weight": {
      "value": 0.25
    },
    "price": 10,
    "equipped": false,
    "subType": "gear"
  }
}
