{
  "_id": "rgtekmzusxufhcuf",
  "name": "Ointment, Loping",
  "type": "loot",
  "img": "systems/pf1/icons/items/inventory/dice.jpg",
  "system": {
    "description": {
      "value": "<p class=\"source\"><b>Source</b> <em>PZO90115</em></p>\n<p><b>Price</b> 60 gp; <b>Weight</b> 1 lb.</p>\n<p>This gray, greasy topical lotion strengthens and straightens the leg muscles of bandy-legged <em>hobgoblins</em>. Applying loping ointment requires 1 <em>full-round action</em>. A <em>hobgoblin</em> under the effects of loping ointment gains a 10-foot <em>alchemical bonus</em> to his speed when using the <em>charge</em>, run, or <em>withdraw action</em>. This bonus lasts for 10 minutes. Loping ointment is specifically created to enhance <em>hobgoblin</em> physiology; other creatures gain no benefit from this ointment and find it unpleasantly itchy. Crafting this item requires a successful DC 25 <em>Craft</em> (alchemy) check.</p>"
    },
    "equipped": false,
    "subType": "gear"
  }
}
