{
  "_id": "yCps4zSP1g7KYsrW",
  "name": "Outfit, Doctor's",
  "type": "equipment",
  "img": "systems/pf1/icons/items/inventory/mask-bird.jpg",
  "system": {
    "description": {
      "value": "<p class=\"source\"><b>Source</b> <em>PZO9410</em></p>\n<p>Any creature wearing this outfit gains a +2 <em>circumstance bonus</em> on <em>Fortitude</em> saves made to resist contact diseases.</p>\n<p>As this outfit does not cost 10 gp or less, player characters can not choose this outfit for free when first beginning play.</p>"
    },
    "weight": {
      "value": 6
    },
    "price": 150,
    "contextNotes": [
      {
        "text": "+[[2]] <b>Circumstance</b> vs Contact Diseases",
        "target": "savingThrows",
        "subTarget": "fort"
      }
    ],
    "subType": "clothing",
    "slot": "clothing"
  }
}
