{
  "_id": "6ke1HTaBi01fCCGo",
  "name": "Outfit, Pickpocket's",
  "type": "equipment",
  "img": "systems/pf1/icons/items/equipment/cowl.jpg",
  "system": {
    "description": {
      "value": "<p class=\"source\"><b>Source</b> <em>PZO9410</em></p>\n<p>Outfitted with concealed pockets, this clothing gives you a +2 bonus on hiding small objects on your person.</p>"
    },
    "weight": {
      "value": 3
    },
    "price": 5,
    "subType": "clothing",
    "slot": "clothing"
  }
}
