{
  "_id": "emnNEjzwJW7Vj9Y4",
  "name": "Pedzahr",
  "type": "loot",
  "img": "systems/pf1/icons/items/inventory/dice.jpg",
  "system": {
    "description": {
      "value": "<p>Source <a href=\"http://paizo.com/products/btpy8tmc?Pathfinder-Roleplaying-Game-Ultimate-Equipment\">Ultimate Equipment pg. 101</a><br>Price 80 gp; Weight —<br>Category Alchemical Remedies</p>\n<h3>Description</h3>\n<p>Drinking this crystal-clear liquid accelerates the natural process of healing Constitution damage. Resting for 1 hour after drinking a vial heals you of 1 point of Constitution damage as if you had benefited from a full night’s rest. Taking multiple doses in an hour does not increase the rate of healing; you must take each individually, followed by an hour of rest, for it to have any effect. Using more than 4 doses of padzahr in 1 day has no effect.</p>\n<h3>Construction</h3>\n<p>Craft (Alchemy) DC 25</p>"
    },
    "price": 80,
    "equipped": false,
    "subType": "gear"
  }
}
