{
  "_id": "manvtbznrwjmnrua",
  "name": "Rations, Trail",
  "type": "loot",
  "img": "systems/pf1/icons/items/inventory/meat.jpg",
  "system": {
    "description": {
      "value": "<h4>Rations, Trail</h4>\n<p><b>Price</b> 5 sp; <b>Weight</b> 1 lb.</p>\n<p>The listed price is for a day's worth of food. This bland food is usually some kind of hard tack, jerky, and dried fruit, though the contents vary from region to region and the race of those creating it. As long as it stays dry, it can go for months without spoiling.</p>"
    },
    "weight": {
      "value": 1
    },
    "price": 0.5,
    "equipped": false,
    "subType": "gear"
  }
}
