{
  "_id": "whvooybofnzhegoa",
  "name": "Scarf",
  "type": "loot",
  "img": "systems/pf1/icons/items/inventory/dice.jpg",
  "system": {
    "description": {
      "value": "<p class=\"source\"><b>Source</b> <em>PZO9410</em></p>\n<p>Scarves of colorful cloth or transparent silk, often embroidered with elaborate scenes, are favorite accessories.</p>"
    },
    "weight": {
      "value": 0.5
    },
    "price": 0.1,
    "equipped": false,
    "subType": "gear"
  }
}
