{
  "_id": "ucyddgbpuqmsvydk",
  "name": "Stretcher",
  "type": "loot",
  "img": "systems/pf1/icons/items/inventory/dice.jpg",
  "system": {
    "description": {
      "value": "<p><b>Price</b> 1 gp; <b>Weight</b> 10 lbs.</p>\n<p>A stretcher allows two people to share the burden of carrying one heavy object. You can also use it to drag a load you couldn't carry on your own. A stretcher holds up to 300 pounds.</p>"
    },
    "weight": {
      "value": 10
    },
    "price": 1,
    "equipped": false,
    "subType": "gear"
  }
}
