{
  "_id": "uwwpglorqzzefcom",
  "name": "Training Kit, Beast",
  "type": "loot",
  "img": "systems/pf1/icons/items/inventory/dice.jpg",
  "system": {
    "description": {
      "value": "<p class=\"source\"><b>Source</b> <em>PPZO9410</em></p>\n<p><b>Price</b> 15 gp; <b>Weight</b> 26 lbs.</p>\n<p>This kit includes a dandy brush, training harness, training whip, whet bone, and 2 days' worth of carnivore feed. The weight of this kit can be reduced by 10 pounds by forgoing the carnivore feed.</p>"
    },
    "weight": {
      "value": 26
    },
    "price": 15,
    "equipped": false,
    "subType": "gear"
  }
}
