{
  "_id": "gzbzrwxjddrwjihu",
  "name": "Winterbite",
  "type": "loot",
  "img": "systems/pf1/icons/items/inventory/dice.jpg",
  "system": {
    "description": {
      "value": "<p class=\"source\"><b>Source</b> <em>PZO1140</em></p>\n<p><b>Price</b> 20 gp</p>\n<p>The white-veined leaves of this minty sprig carry a pleasant and soothing <em>scent</em>.</p>\n<p><b>Gather</b> DC 11; <b>Yield</b> 1d4 doses</p>\n<p><b>Terrain</b> any cold</p>\n<p><b>Preparation</b> A dose of winterbite must be dried near an open flame in which certain alchemically treated sawdust and wood chips are burned.</p>\n<p>This requires a successful DC 12 <em>Craft</em> (alchemy) check and 1 hour.</p>\n<p><b>Use</b> When held under the nose and crushed (which takes a <em>standard action</em>), a dose of prepared winterbite releases a pungent, sweet odor that clears the sinuses and sharpens the senses. For the next hour, the user of a dose of prepared winterbite gains a +2 <em>alchemical bonus</em> on <em>scent</em>-based <em>Perception</em> checks.</p>"
    },
    "price": 1,
    "equipped": false,
    "subType": "gear"
  }
}
