{
  "_id": "NpmTiygcdDgOJ0db",
  "name": "Abjuration Resonant School",
  "type": "feat",
  "img": "systems/pf1/icons/items/armor/shield-heavy-metal.png",
  "system": {
    "description": {
      "value": "<p><em>Abjuration implements are objects associated with protection and wards.</em><p><b>Implements:</b> Amulet, armor, bell, bracers, brooch, cloak, holy symbol, shield.</p>"
    },
    "tag": "classFeat_abjurationResonantSchool",
    "useCustomTag": true,
    "subType": "classFeat",
    "associations": {
      "classes": ["Occultist"]
    }
  }
}
