{
  "_id": "RbMy25BMPqR0GqRh",
  "name": "Aligned Sneak Attack",
  "type": "feat",
  "img": "systems/pf1/icons/items/weapons/dagger.PNG",
  "system": {
    "description": {
      "value": "<p>When making a sneak attack against a creature that has damage reduction that can be overcome by weapons of a particular alignment (such as DR 5/good), the rogue’s attack reduces that damage reduction by an amount equal to the number of sneak attack dice rolled until the end of the rogue’s turn.</p>"
    },
    "tag": "classFeat_alignedSneakAttack",
    "useCustomTag": true,
    "subType": "classFeat",
    "associations": {
      "classes": ["Rogue"]
    },
    "abilityType": "su"
  }
}
