{
  "_id": "0seMJaDV6GyowhQg",
  "name": "Animal Fury, Greater",
  "type": "feat",
  "img": "systems/pf1/icons/feats/deafening-critical.jpg",
  "system": {
    "description": {
      "value": "<p>This power works as animal fury, but the barbarian’s bite attack deals damage as if she were one size larger.</p>\n<p>A barbarian must have the animal fury rage power to select this rage power.</p>"
    },
    "tag": "classFeat_animalFuryGreater",
    "useCustomTag": true,
    "subType": "classFeat",
    "associations": {
      "classes": ["Barbarian", "Skald"]
    },
    "abilityType": "ex"
  }
}
