{
  "_id": "uGfSuLC56u0Nnns6",
  "name": "Animal Skin",
  "type": "feat",
  "img": "systems/pf1/icons/skills/violet_02.jpg",
  "system": {
    "description": {
      "value": "<p>The witch can become any animal of a size from Tiny to Large whose skin she wears. This ability is similar to @Compendium[pf1.spells.774kmgcb7ygviht0]{Beast Shape II}, except she takes on the appearance of the specific individual from which the skin came.</p>"
    },
    "tags": ["Hex", "Major Hex"],
    "actions": [
      {
        "_id": "x1GMkEeBC28Pir1l",
        "name": "Use",
        "img": "systems/pf1/icons/skills/violet_02.jpg",
        "activation": {
          "type": "standard",
          "unchained": {
            "cost": 2,
            "type": "action"
          }
        },
        "target": {
          "value": "self"
        },
        "range": {
          "units": "personal"
        },
        "actionType": ""
      }
    ],
    "tag": "classFeat_animalSkin",
    "useCustomTag": true,
    "subType": "classFeat",
    "associations": {
      "classes": ["Witch"]
    }
  }
}
