{
  "_id": "p2Mku7UVdWwRFJrt",
  "name": "Aquatic Agility",
  "type": "feat",
  "img": "systems/pf1/icons/spells/enchant-red-3.jpg",
  "system": {
    "description": {
      "value": "<p>As an immediate action, the magus can spend 1 point from his arcane pool to gain the benefits of water breathing for 1 round per level. During this time, he can ignore the effects of rough water and underwater combat on his attacks and movement.</p>\n<p>The magus must be at least 6th level before selecting this magus arcana.</p>"
    },
    "actions": [
      {
        "_id": "x2tijj7ig3gdipfa",
        "name": "Use",
        "img": "systems/pf1/icons/spells/enchant-red-3.jpg",
        "activation": {
          "type": "immediate",
          "unchained": {
            "type": "reaction"
          }
        },
        "duration": {
          "value": "@classes.magus.level",
          "units": "round"
        },
        "target": {
          "value": "self"
        },
        "range": {
          "units": "personal"
        },
        "actionType": ""
      }
    ],
    "tag": "classFeat_aquaticAgility",
    "useCustomTag": true,
    "subType": "classFeat",
    "associations": {
      "classes": ["Magus"]
    },
    "abilityType": "su"
  }
}
