{
  "_id": "4AxAFyfs76eGkM8p",
  "name": "Arcane Redoubt",
  "type": "feat",
  "img": "systems/pf1/icons/spells/enchant-red-3.jpg",
  "system": {
    "description": {
      "value": "<p>As a swift action, the magus can expend 1 point from his arcane pool to treat his shield bonus to AC (including any enhancement bonus) as a bonus to touch AC until the beginning of his next turn.</p>"
    },
    "actions": [
      {
        "_id": "ca7g71g742ussmq8",
        "name": "Use",
        "img": "systems/pf1/icons/spells/enchant-red-3.jpg",
        "activation": {
          "type": "swift",
          "unchained": {
            "type": "action"
          }
        },
        "actionType": ""
      }
    ],
    "tag": "classFeat_arcaneRedoubt",
    "useCustomTag": true,
    "subType": "classFeat",
    "associations": {
      "classes": ["Magus"]
    },
    "abilityType": "su"
  }
}
