{
  "_id": "T75Oh2F5KNhMkKw9",
  "name": "Arcane Accuracy",
  "type": "feat",
  "img": "systems/pf1/icons/spells/enchant-red-3.jpg",
  "system": {
    "description": {
      "value": "<p>The magus can expend 1 point from his arcane pool as a swift action to grant himself an insight bonus equal to his Intelligence bonus on all attack rolls until the end of his turn.</p>"
    },
    "actions": [
      {
        "_id": "995rmfg55sk75ikr",
        "name": "Use",
        "img": "systems/pf1/icons/spells/enchant-red-3.jpg",
        "activation": {
          "type": "swift",
          "unchained": {
            "type": "action"
          }
        },
        "actionType": ""
      }
    ],
    "tag": "classFeat_arcaneAccuracy",
    "useCustomTag": true,
    "subType": "classFeat",
    "associations": {
      "classes": ["Magus"]
    },
    "abilityType": "su"
  }
}
