{
  "_id": "NwTe1Q2utlsmOAqK",
  "name": "Armor Mastery",
  "type": "feat",
  "img": "systems/pf1/icons/items/armor/parade-armor.png",
  "system": {
    "description": {
      "value": "<p>At 19th level, a fighter gains <em>damage reduction</em> 5/— whenever he is wearing armor or using a shield.</p>"
    },
    "actions": [
      {
        "_id": "vymeqoha2vp0q3u1",
        "name": "Use",
        "img": "systems/pf1/icons/items/armor/parade-armor.png",
        "activation": {
          "type": "passive",
          "unchained": {
            "type": "passive"
          }
        },
        "actionType": ""
      }
    ],
    "tag": "classFeat_armorMastery",
    "useCustomTag": true,
    "subType": "classFeat",
    "associations": {
      "classes": ["Fighter"]
    },
    "abilityType": "ex"
  }
}
