{
  "_id": "CN0cGYINGYNedmCc",
  "name": "Army of Darkness",
  "type": "feat",
  "img": "systems/pf1/icons/spells/light-royal-1.jpg",
  "system": {
    "description": {
      "value": "<p>Whenever you cast a summon monster spell and summon a creature that normally has the celestial or fiendish template, you can instead summon it with the shadow creature template (Pathfinder RPG Bestiary 4 238). This revelation counts as having the @Compendium[pf1.feats.V2zY7BltkpSXwejy]{Spell Focus} (conjuration) feat for the purpose of meeting the prerequisites of the Augment Summoning feat, as well as any feat that lists Augment Summoning as a prerequisite.</p>"
    },
    "actions": [
      {
        "_id": "qkuh8tg0uyks5d5e",
        "name": "Use",
        "img": "systems/pf1/icons/spells/light-royal-1.jpg",
        "activation": {
          "type": "passive",
          "unchained": {
            "type": "passive"
          }
        },
        "actionType": ""
      }
    ],
    "tag": "classFeat_armyOfDarkness",
    "useCustomTag": true,
    "subType": "classFeat",
    "associations": {
      "classes": ["Oracle"]
    },
    "abilityType": "su"
  }
}
