{
  "_id": "eJkRmASGoU3Agr7O",
  "name": "Ascetic Final Revelation",
  "type": "feat",
  "img": "systems/pf1/icons/spells/light-royal-1.jpg",
  "system": {
    "description": {
      "value": "<p>At 20th level, you become a magical creature. You are forevermore treated as an outsider rather than as a humanoid (or whatever your creature type was) for the purpose of spells and magical effects. Additionally, you gain damage reduction 10/chaotic, which allows you to ignore the first 10 points of damage from any attack made by a nonchaotic weapon or by any natural attack made by a creature that doesn't have similar damage reduction. Unlike other outsiders, you can still be brought back from the dead as if you were a member of your previous creature type.</p>"
    },
    "actions": [
      {
        "_id": "xm7dej2td8ncida9",
        "name": "Use",
        "img": "systems/pf1/icons/spells/light-royal-1.jpg",
        "activation": {
          "type": "passive",
          "unchained": {
            "type": "passive"
          }
        },
        "actionType": ""
      }
    ],
    "tag": "classFeat_asceticFinalRevelation",
    "useCustomTag": true,
    "subType": "classFeat",
    "associations": {
      "classes": ["Oracle"]
    }
  }
}
