{
  "_id": "RNIkkvqaq2iVrahs",
  "name": "Aura of Courage",
  "type": "feat",
  "img": "systems/pf1/icons/feats/greater-spell-focus.jpg",
  "system": {
    "description": {
      "value": "<p>At 3rd level, a paladin is immune to fear (magical or otherwise). Each ally within 10 feet of her gains a +4 morale bonus on <em>saving throws</em> against fear effects. This ability functions only while the paladin is conscious, not if she is <em>unconscious</em> or dead.</p>"
    },
    "actions": [
      {
        "_id": "2cinoppmhk579vcc",
        "name": "Use",
        "img": "systems/pf1/icons/feats/greater-spell-focus.jpg",
        "activation": {
          "type": "passive",
          "unchained": {
            "type": "passive"
          }
        },
        "actionType": ""
      }
    ],
    "tag": "classFeat_auraOfCourage",
    "useCustomTag": true,
    "subType": "classFeat",
    "associations": {
      "classes": ["Paladin"]
    },
    "abilityType": "su"
  }
}
