{
  "_id": "VdIakOhu1AVdlLf6",
  "name": "Aura of Sanctification",
  "type": "feat",
  "img": "systems/pf1/icons/spells/runes-orange-3.jpg",
  "system": {
    "description": {
      "value": "<p>At 8th level, as an immediate action, you can emit a 30-foot-radius aura of sanctification for a number of rounds per day equal to your cleric level. These rounds do not need to be consecutive. Within this aura, effects that are specifically harmful to good-aligned creatures are inverted so that they no longer harm good creatures and instead harm evil creatures. Similarly, effects that are specifically beneficial to evil creatures instead become beneficial only to good creatures.</p>\n<p>This power replaces the Holy Lance power of the Good Domain</p>"
    },
    "actions": [
      {
        "_id": "es6in653bll3tq87",
        "name": "Use",
        "img": "systems/pf1/icons/spells/runes-orange-3.jpg",
        "activation": {
          "type": "immediate",
          "unchained": {
            "type": "reaction"
          }
        },
        "duration": {
          "value": "1",
          "units": "round"
        },
        "target": {
          "value": "self"
        },
        "range": {
          "value": "30",
          "units": "ft"
        },
        "actionType": ""
      }
    ],
    "uses": {
      "per": "day",
      "maxFormula": "@classes.cleric.level"
    },
    "tag": "classFeat_auraOfSanctification",
    "useCustomTag": true,
    "subType": "classFeat",
    "associations": {
      "classes": ["Cleric"]
    },
    "abilityType": "su"
  }
}
