{
  "_id": "asccfGp4pwEh7ZmG",
  "name": "Banishment Subschool",
  "type": "feat",
  "img": "systems/pf1/icons/spells/air-burst-air-1.jpg",
  "system": {
    "description": {
      "value": "<p><b>Associated School:</b> <em>Abjuration</em>.</p>\n<p><b>Replacement Powers:</b> This subschool replaces the energy absorption power and the protective ward power of the <em>abjuration</em> school.</p>"
    },
    "tag": "classFeat_banishmentSubschool",
    "useCustomTag": true,
    "subType": "classFeat",
    "associations": {
      "classes": ["Wizard"]
    }
  }
}
