{
  "_id": "QGEEtV5NqZbomKE6",
  "name": "Battle Spirit",
  "type": "feat",
  "img": "systems/pf1/icons/skills/violet_20.jpg",
  "system": {
    "description": {
      "value": "<p>A shaman surrounds herself with the spirit of battle. Allies within 30 feet of the shaman (including the shaman) receive a +1 morale bonus on attack rolls and weapon damage rolls.</p>\n<p>At 8th level and 16th level, these bonuses increase by 1.</p>\n<p>The shaman can use this ability for a number of rounds per day equal to 3 + her Charisma modifier. These rounds do not need to be consecutive.</p>"
    },
    "actions": [
      {
        "_id": "ujknobm9qjcg1q3s",
        "name": "Use",
        "img": "systems/pf1/icons/skills/violet_20.jpg",
        "activation": {
          "type": "standard",
          "unchained": {
            "cost": 2,
            "type": "action"
          }
        },
        "duration": {
          "value": "1",
          "units": "round"
        },
        "target": {
          "value": "allies within range"
        },
        "range": {
          "value": "30",
          "units": "ft",
          "maxIncrements": "1"
        },
        "actionType": ""
      }
    ],
    "uses": {
      "per": "day",
      "maxFormula": "3 + @abilities.cha.mod"
    },
    "tag": "classFeat_battleSpirit",
    "useCustomTag": true,
    "subType": "classFeat",
    "associations": {
      "classes": ["Shaman"]
    },
    "abilityType": "su"
  }
}
