{
  "_id": "D14Nx9ByxLvrJ8L7",
  "name": "Battlefield Clarity",
  "type": "feat",
  "img": "systems/pf1/icons/spells/light-royal-1.jpg",
  "system": {
    "description": {
      "value": "<p>Once per day, as an immediate action, whenever you fail a saving throw that causes you to become blind, deaf, frightened, panicked, paralyzed, shaken, or stunned, you may attempt that saving throw again, with a +4 insight bonus on the roll. You must take the second result, even if it is worse.</p>\n<p>At 7th and 15th level, you can use this ability one additional time per day.</p>"
    },
    "tags": ["Revelation", "Battle Mystery"],
    "actions": [
      {
        "_id": "abaea0shcyb3oki4",
        "name": "Use",
        "img": "systems/pf1/icons/spells/light-royal-1.jpg",
        "activation": {
          "type": "immediate",
          "unchained": {
            "type": "reaction"
          }
        },
        "duration": {
          "units": "inst"
        },
        "target": {
          "value": "self"
        },
        "range": {
          "units": "personal"
        },
        "actionType": ""
      }
    ],
    "uses": {
      "per": "day",
      "maxFormula": "@classes.oracle.level >= 15 ? 3 : ((@classes.oracle.level > 6 && @classes.oracle.level < 15) ? 2 : 1)"
    },
    "tag": "classFeat_battlefieldClarity",
    "useCustomTag": true,
    "subType": "classFeat",
    "associations": {
      "classes": ["Oracle"]
    },
    "abilityType": "ex"
  }
}
