{
  "_id": "dav4npTr6UXGQUmH",
  "name": "Beast Speech",
  "type": "feat",
  "img": "systems/pf1/icons/feats/persuasive.jpg",
  "system": {
    "description": {
      "value": "<p>The vigilante can cast @Compendium[pf1.spells.ct9fhh8uawn8e4md]{Speak with Animals} once per day as a spell-like ability, with a caster level equal to his character level.</p>\n<p>The vigilante must have the songbird talent to select this talent.</p>"
    },
    "actions": [
      {
        "_id": "dmxw7iuneko527e2",
        "name": "Use",
        "img": "systems/pf1/icons/feats/persuasive.jpg",
        "activation": {
          "type": "standard",
          "unchained": {
            "cost": 2,
            "type": "action"
          }
        },
        "duration": {
          "value": "@classes.vigilante.level",
          "units": "minute"
        },
        "target": {
          "value": "self"
        },
        "range": {
          "units": "personal"
        },
        "actionType": ""
      }
    ],
    "uses": {
      "per": "day",
      "maxFormula": "1"
    },
    "tag": "classFeat_beastSpeech",
    "useCustomTag": true,
    "subType": "classFeat",
    "associations": {
      "classes": ["Vigilante"]
    },
    "abilityType": "su"
  }
}
