{
  "_id": "caTcrN7MxZKcfDia",
  "name": "Beast Eye",
  "type": "feat",
  "img": "systems/pf1/icons/skills/violet_02.jpg",
  "system": {
    "description": {
      "value": "<p>The witch can project her senses into an animal within 100 feet, sensing whatever it senses. She cannot control the animal's actions. She can project her senses from that animal to another within 100 feet of it as a standard action, and can continue to make these sensory leaps, potentially viewing things very far from her actual location. She may return her senses to her own body as a free action. Normal animals get no saving throw against this ability, but animal companions, paladin mounts, and similar unusual animals may resist with a Will save; the witch may use this ability on her own familiar as if it were an animal.</p><p>If the witch has the <em>coven</em> hex, all other witches within 10 feet of her who also have the coven hex can see through this animal at will, although the acting witch still controls the ability.</p><p>The witch can use this ability for a number of minutes per day equal to her level. These minutes need not be consecutive, but they must be spent in 1-minute increments.</p>"
    },
    "tags": ["Hex", "Major Hex"],
    "actions": [
      {
        "_id": "huhvrw7ff7wcav7o",
        "name": "Use",
        "img": "systems/pf1/icons/skills/violet_02.jpg",
        "activation": {
          "type": "standard",
          "unchained": {
            "cost": 2,
            "type": "action"
          }
        },
        "duration": {
          "value": "1",
          "units": "minute"
        },
        "target": {
          "value": "one animal"
        },
        "range": {
          "value": "100",
          "units": "ft"
        },
        "actionType": "save",
        "save": {
          "dc": "10 + floor(@classes.witch.level / 2) + @abilities.int.mod",
          "type": "will",
          "description": "Will negates; see text"
        }
      }
    ],
    "uses": {
      "per": "day",
      "maxFormula": "@classes.witch.level"
    },
    "tag": "classFeat_beastEye",
    "useCustomTag": true,
    "subType": "classFeat",
    "associations": {
      "classes": ["Witch"]
    },
    "abilityType": "su"
  }
}
