{
  "_id": "unGD2FKu3y6QU2xT",
  "name": "Beckoning Chill",
  "type": "feat",
  "img": "systems/pf1/icons/skills/green_03.jpg",
  "system": {
    "description": {
      "value": "<p>The shaman causes one creature within 30 feet to become more susceptible to the sapping powers of cold for 1 minute. When a creature takes cold damage while under this effect, it is entangled for 1 round. If the creature takes cold damage while already entangled by beckoning chill, the duration of the entangled condition increases by 1 round.</p>\n<p>Once affected, the creature cannot be the target of this hex again for 24 hours.</p>"
    },
    "actions": [
      {
        "_id": "wuhwe42djg9crda3",
        "name": "Use",
        "img": "systems/pf1/icons/skills/green_03.jpg",
        "activation": {
          "type": "standard",
          "unchained": {
            "cost": 2,
            "type": "action"
          }
        },
        "duration": {
          "value": "1",
          "units": "round"
        },
        "target": {
          "value": "one creature"
        },
        "range": {
          "value": "30",
          "units": "ft"
        },
        "actionType": ""
      }
    ],
    "tag": "classFeat_beckoningChill",
    "useCustomTag": true,
    "subType": "classFeat",
    "associations": {
      "classes": ["Shaman"]
    },
    "abilityType": "su"
  }
}
