{
  "_id": "jZ2qdgqP3ojO8Cp3",
  "name": "Blessed Secrecy",
  "type": "feat",
  "img": "systems/pf1/icons/items/inventory/badge-cross.jpg",
  "system": {
    "description": {
      "value": "<p>At 4th level, when you attempt a Bluff, Disguise, Sleight of Hand, or Stealth skill check, you can roll twice and take the more favorable result. You can use this ability a number of times per day equal to your Wisdom bonus.</p>"
    },
    "actions": [
      {
        "_id": "i8q7gtkq418kz1b0",
        "name": "Use",
        "img": "systems/pf1/icons/items/inventory/badge-cross.jpg",
        "activation": {
          "type": "free",
          "unchained": {
            "type": "free"
          }
        },
        "actionType": ""
      }
    ],
    "uses": {
      "per": "day",
      "maxFormula": "@abilities.wis.mod"
    },
    "tag": "classFeat_blessedSecrecy",
    "useCustomTag": true,
    "subType": "classFeat",
    "associations": {
      "classes": ["Inquisitor"]
    },
    "abilityType": "su"
  }
}
