{
  "_id": "yrRTYcudngiApDvg",
  "name": "Bomber",
  "type": "feat",
  "img": "systems/pf1/icons/items/weapons/dagger.PNG",
  "system": {
    "description": {
      "value": "<p>A rogue with this talent can make a number of bombs per day equal to her Intelligence modifier (minimum 1). These bombs act as alchemist’s bombs (Pathfinder RPG Advanced Player’s Guide 28), except they deal damage equal to the damage dealt by the rogue’s sneak attack (the rogue doesn’t add her Intelligence modifier to this damage).</p>"
    },
    "tag": "classFeat_bomber",
    "useCustomTag": true,
    "subType": "classFeat",
    "associations": {
      "classes": ["Rogue"]
    },
    "abilityType": "su"
  }
}
