{
  "_id": "OsRZD888rDOpHqoZ",
  "name": "Call Spirit",
  "type": "feat",
  "img": "systems/pf1/icons/skills/affliction_07.jpg",
  "system": {
    "description": {
      "value": "<p>At 16th level, a spiritualist gains the ability to use @Compendium[pf1.spells.k0ihiqhfppkchs1j]{Call Spirit} as a spell-like ability once per day.</p>"
    },
    "actions": [
      {
        "_id": "qbdsfy2yojybiqq0",
        "name": "Use",
        "img": "systems/pf1/icons/skills/affliction_07.jpg",
        "activation": {
          "cost": 10,
          "type": "minute",
          "unchained": {
            "cost": 10,
            "type": "minute"
          }
        },
        "duration": {
          "units": "seeText"
        },
        "range": {
          "value": "10",
          "units": "ft"
        },
        "actionType": ""
      }
    ],
    "uses": {
      "per": "day",
      "maxFormula": "1"
    },
    "tag": "classFeat_callSpirit",
    "useCustomTag": true,
    "subType": "classFeat",
    "associations": {
      "classes": ["Spiritualist"]
    },
    "abilityType": "sp"
  }
}
