{
  "_id": "g2BrrsULtaQKkSuD",
  "name": "Chivalry Inquisition",
  "type": "feat",
  "img": "systems/pf1/icons/items/inventory/badge-cross.jpg",
  "system": {
    "description": {
      "value": "<p><b>Granted Powers:</b> You embrace the spirit of chivalry, guarding your honor and training a noble mount.</p>"
    },
    "tag": "classFeat_chivalryInquisition",
    "useCustomTag": true,
    "subType": "classFeat",
    "associations": {
      "classes": ["Inquisitor"]
    }
  }
}
