{
  "_id": "7TRqodkvu9xssbtx",
  "name": "Coat of Many Stars",
  "type": "feat",
  "img": "systems/pf1/icons/spells/light-royal-1.jpg",
  "system": {
    "description": {
      "value": "<p>You conjure a coat of starry radiance that grants you a +4 armor bonus.</p>\n<p>At 7th level, and every four levels thereafter, this bonus increases by +2.</p>\n<p>At 13th level, this armor grants you DR 5/slashing.</p>\n<p>You can use this coat for 1 hour per day per oracle level. The duration does not need to be consecutive; it can instead be spent in 1-hour increments.</p>"
    },
    "actions": [
      {
        "_id": "6mlyck9uqwrhh064",
        "name": "Use",
        "img": "systems/pf1/icons/spells/light-royal-1.jpg",
        "activation": {
          "type": "standard",
          "unchained": {
            "cost": 2,
            "type": "action"
          }
        },
        "duration": {
          "value": "1",
          "units": "hour"
        },
        "target": {
          "value": "self"
        },
        "range": {
          "units": "personal"
        },
        "actionType": ""
      }
    ],
    "uses": {
      "per": "day",
      "maxFormula": "@classes.oracle.level"
    },
    "tag": "classFeat_coatOfManyStars",
    "useCustomTag": true,
    "subType": "classFeat",
    "associations": {
      "classes": ["Oracle"]
    },
    "abilityType": "su"
  }
}
