{
  "_id": "WEw3XdparBysVuF3",
  "name": "Cunning Feint",
  "type": "feat",
  "img": "systems/pf1/icons/feats/deceitful.jpg",
  "system": {
    "description": {
      "value": "<p>The vigilante can feint as a move action or in place of his first attack during a full attack.</p>\n<p>At 8th level, when the vigilante successfully feints, the opponent is denied its Dexterity bonus to AC against all attacks until the vigilante’s next turn.</p>"
    },
    "tag": "classFeat_cunningFeint",
    "useCustomTag": true,
    "subType": "classFeat",
    "associations": {
      "classes": ["Vigilante"]
    },
    "abilityType": "ex"
  }
}
