{
  "_id": "YQse8LTz2m9DTr7c",
  "name": "Damnation Domain",
  "type": "feat",
  "img": "systems/pf1/icons/items/inventory/badge-cross.jpg",
  "system": {
    "description": {
      "value": "<p><b>Granted Powers:</b> The prospect of an afterlife filled with torment can cause even the most stalwart to blanch—at least for a moment.</p>"
    },
    "tag": "classFeat_damnationDomain",
    "useCustomTag": true,
    "subType": "classFeat",
    "associations": {
      "classes": ["Inquisitor"]
    }
  }
}
