{
  "_id": "gCZ8TUPc30wt6wgu",
  "name": "Dark Apothecary",
  "type": "feat",
  "img": "systems/pf1/icons/skills/violet_02.jpg",
  "system": {
    "description": {
      "value": "<p>The witches of ancient Iblydos were masters of herbalism, crafting potent drugs and poisons. The witch receives a +4 insight bonus on checks to craft and apply poison.</p>"
    },
    "tags": ["Hex"],
    "tag": "classFeat_darkApothecary",
    "useCustomTag": true,
    "subType": "classFeat",
    "associations": {
      "classes": ["Witch"]
    },
    "abilityType": "ex"
  }
}
