{
  "_id": "23m7J15MrtkjBqO6",
  "name": "Dazzling Infusion",
  "type": "feat",
  "img": "systems/pf1/icons/spells/fireball-red-3.jpg",
  "system": {
    "description": {
      "value": "<p><b>Element</b> fire, wood; <b>Type</b> substance infusion; <b>Level</b> 1; <b>Burn</b> 1<br><b>Associated Blasts</b> blue flame, fire, plasma, positive, verdant<br><b>Saving Throw</b> Will negates</p>\n<p>Your kinetic blast shines brightly, making it harder for your foes to see. If your blast hits a foe (and penetrates SR if applicable), that foe must succeed at a Will save or be dazzled for 1 minute, whether or not it takes damage from the blast. You can reduce the blast’s damage by half to increase the DC of this save by 2.</p>"
    },
    "actions": [
      {
        "_id": "c0f4wcfugkq36e1z",
        "name": "Use",
        "img": "systems/pf1/icons/spells/fireball-red-3.jpg",
        "actionType": "save",
        "save": {
          "type": "will",
          "description": "Will negates"
        }
      }
    ],
    "tag": "classFeat_dazzlingInfusion",
    "useCustomTag": true,
    "subType": "classFeat",
    "associations": {
      "classes": ["Kineticist"]
    }
  }
}
