{
  "_id": "yDG7xVuH7oqWS4Mt",
  "name": "Deflection Aura",
  "type": "feat",
  "img": "systems/pf1/icons/skills/red_16.jpg",
  "system": {
    "description": {
      "value": "<p>Once each day, you can emit a 20-foot aura for a number of rounds equal to your cleric level. Allies within the aura gain a +2 deflection bonus to AC and combat maneuver defense.</p>\n<p>This power replaces the Resistant Touch power of the Protection Domain.</p>"
    },
    "actions": [
      {
        "_id": "ifkxen2416u3hzsa",
        "name": "Use",
        "img": "systems/pf1/icons/skills/red_16.jpg",
        "activation": {
          "type": "swift",
          "unchained": {
            "type": "action"
          }
        },
        "duration": {
          "value": "1",
          "units": "round"
        },
        "target": {
          "value": "allies within range"
        },
        "range": {
          "value": "20",
          "units": "ft"
        },
        "actionType": ""
      }
    ],
    "uses": {
      "per": "day",
      "maxFormula": "@classes.cleric.level"
    },
    "tag": "classFeat_deflectionAura",
    "useCustomTag": true,
    "subType": "classFeat",
    "associations": {
      "classes": ["Cleric"]
    },
    "abilityType": "su"
  }
}
