{
  "_id": "Q0rRzB0zUWSPM3JC",
  "name": "Demon Resistances",
  "type": "feat",
  "img": "systems/pf1/icons/skills/violet_21.jpg",
  "system": {
    "description": {
      "value": "<p>At 3rd level, you gain resist electricity 5 and a +2 bonus on <em>saving throws</em> made against poison. At 9th level, your resistance to electricity increases to 10 and your bonus on poison <em>saving throws</em> increases to +4.</p>"
    },
    "actions": [
      {
        "_id": "3bh47il2qcgq3j5m",
        "name": "Use",
        "img": "systems/pf1/icons/skills/violet_21.jpg",
        "activation": {
          "type": "passive",
          "unchained": {
            "type": "passive"
          }
        },
        "actionType": ""
      }
    ],
    "tag": "classFeat_demonResistances",
    "useCustomTag": true,
    "subType": "classFeat",
    "associations": {
      "classes": ["Sorcerer"]
    },
    "abilityType": "ex"
  }
}
