{
  "_id": "4VkpjXCLOddH909P",
  "name": "Desert Mirage",
  "type": "feat",
  "img": "systems/pf1/icons/spells/light-royal-1.jpg",
  "system": {
    "description": {
      "value": "<p>Air and fire shroud you from your enemies’ vision and superheat your strikes in combat. You can surround yourself with heated air as a swift action, gaining concealment (as per the blur spell).</p>\n<p>At 7th level while you are using this ability, your melee attacks each deal an additional 2 points of fire damage. You can use this ability for 1 minute per oracle level per day; this duration does not need to be consecutive, but it must be spent in 1-minute increments.</p>\n<p>You must be at least 3rd level to select this revelation.</p>"
    },
    "actions": [
      {
        "_id": "237o92vafyhg6oju",
        "name": "Use",
        "img": "systems/pf1/icons/spells/light-royal-1.jpg",
        "activation": {
          "type": "swift",
          "unchained": {
            "type": "action"
          }
        },
        "duration": {
          "value": "1",
          "units": "minute"
        },
        "target": {
          "value": "self"
        },
        "range": {
          "units": "personal"
        },
        "actionType": ""
      }
    ],
    "uses": {
      "per": "day",
      "maxFormula": "@classes.oracle.level"
    },
    "tag": "classFeat_desertMirage",
    "useCustomTag": true,
    "subType": "classFeat",
    "associations": {
      "classes": ["Oracle"]
    },
    "abilityType": "su"
  }
}
