{
  "_id": "H13C5vWmFxF6NRdZ",
  "name": "Detect Thoughts",
  "type": "feat",
  "img": "systems/pf1/icons/skills/shadow_12.jpg",
  "system": {
    "description": {
      "value": "<p>At 2nd level, a psychic can use @Compendium[pf1.spells.xllxylvvqr82o2d5]{Detect Thoughts} as a spell-like ability once per day. She can also expend any unused spell slot of 1st level or higher to cast detect thoughts. If she does so, she uses the level of the spell slot expended to determine the Will save DC.</p>\n<p>When a psychic gains this ability, if she knows detect thoughts, she can learn a different 1st-level spell in place of detect thoughts, losing the old spell in exchange for the new one.</p>"
    },
    "actions": [
      {
        "_id": "hueojhl66s39zcsn",
        "name": "Use",
        "img": "systems/pf1/icons/skills/shadow_12.jpg",
        "activation": {
          "type": "standard",
          "unchained": {
            "cost": 2,
            "type": "action"
          }
        },
        "actionType": ""
      }
    ],
    "uses": {
      "per": "day",
      "maxFormula": "1"
    },
    "tag": "classFeat_detectThoughts",
    "useCustomTag": true,
    "subType": "classFeat",
    "associations": {
      "classes": ["Psychic"]
    },
    "abilityType": "sp"
  }
}
