{
  "_id": "0CMwbKoIdVcntP6D",
  "name": "Devotion (SPI)",
  "type": "feat",
  "img": "systems/pf1/icons/skills/blood_12.jpg",
  "system": {
    "description": {
      "value": "<p>The phantom gains a +4 morale bonus on Will saves against enchantment spells and effects.</p>"
    },
    "tag": "classFeat_devotionSpi",
    "useCustomTag": true,
    "subType": "classFeat",
    "associations": {
      "classes": ["Spiritualist", "Phantom"]
    },
    "abilityType": "ex"
  }
}
