{
  "_id": "xFaMmB1ECiygU9OO",
  "name": "Diamond Mind (UC)",
  "type": "feat",
  "img": "systems/pf1/icons/skills/fire_07.jpg",
  "system": {
    "description": {
      "value": "<p>By spending 1 point from his ki pool as a swift action, a monk with this power can suppress a fear effect affecting him as if using remove fear, using his monk level as his caster level. He can spend 2 ki points to activate this ability even when frightened or panicked.</p>\n<p>A monk must be at least 6th level before selecting this ki power.</p>"
    },
    "actions": [
      {
        "_id": "fgh2594eght2abcb",
        "name": "Use",
        "img": "systems/pf1/icons/skills/fire_07.jpg",
        "activation": {
          "type": "swift",
          "unchained": {
            "type": "action"
          }
        },
        "actionType": ""
      }
    ],
    "tag": "classFeat_diamondMindUc",
    "useCustomTag": true,
    "subType": "classFeat",
    "associations": {
      "classes": ["Monk (Unchained)"]
    },
    "abilityType": "su"
  }
}
