{
  "_id": "ctFPHquS2GydVoZV",
  "name": "Divination School",
  "type": "feat",
  "img": "systems/pf1/icons/spells/evil-eye-red-2.jpg",
  "system": {
    "description": {
      "value": "<p>Diviners are masters of remote viewing, prophecies, and using magic to explore the world.</p>"
    },
    "tag": "classFeat_divinationSchool",
    "useCustomTag": true,
    "subType": "classFeat",
    "associations": {
      "classes": ["Wizard"]
    }
  }
}
