{
  "_id": "MPu3HSO28JoRzlUX",
  "name": "Divine Challenge",
  "type": "feat",
  "img": "systems/pf1/icons/skills/light_05.jpg",
  "system": {
    "description": {
      "value": "<p>As a swift action, you can challenge a visible foe within 30 feet, gaining a +1 sacred bonus to your AC against that creature’s attacks and a bonus equal to 1/2 your cleric level on Bluff skill checks to feint against it. These bonuses last for a number of rounds equal to 1/2 your cleric level. You can use this ability a number of times per day equal to 3 + your Wisdom modifier.</p>\n<p>This power replaces the Battle Rage power of the War Domain.</p>"
    },
    "actions": [
      {
        "_id": "2vhralheuiozmr8c",
        "name": "Use",
        "img": "systems/pf1/icons/skills/light_05.jpg",
        "activation": {
          "type": "swift",
          "unchained": {
            "type": "action"
          }
        },
        "duration": {
          "value": "floor(@classes.cleric.level / 2)",
          "units": "round"
        },
        "target": {
          "value": "one creature"
        },
        "range": {
          "value": "30",
          "units": "ft"
        },
        "actionType": ""
      }
    ],
    "uses": {
      "per": "day",
      "maxFormula": "3 + @abilities.wis.mod"
    },
    "tag": "classFeat_divineChallenge",
    "useCustomTag": true,
    "subType": "classFeat",
    "associations": {
      "classes": ["Cleric"]
    },
    "abilityType": "su"
  }
}
