{
  "_id": "52a1zms2sSPXQsf9",
  "name": "Earth Climb",
  "type": "feat",
  "img": "systems/pf1/icons/spells/rock-sky-3.jpg",
  "system": {
    "description": {
      "value": "<p><b>Element</b> earth; <b>Type</b> utility (Su); <b>Level</b> 2; <b>Burn</b> 0</p>\n<p>You use your connection to earth to meld slightly into stone and earthen surfaces, granting you a climb speed equal to your base land speed when climbing such surfaces.</p>"
    },
    "tag": "classFeat_earthClimb",
    "useCustomTag": true,
    "subType": "classFeat",
    "associations": {
      "classes": ["Kineticist"]
    },
    "abilityType": "su"
  }
}
