{
  "_id": "hBjfCZYv4qwZr101",
  "name": "Elemental Bloodline",
  "type": "feat",
  "img": "systems/pf1/icons/spells/fireball-eerie-2.jpg",
  "system": {
    "description": {
      "value": "<p><em>The power of the elements resides in you, and at times you can hardly control its fury. This influence comes from an elemental outsider in your family history or a time when you or your relatives were exposed to a powerful elemental force.</em></p>\n<p><b>Class Skill:</b> <em>Knowledge</em> (planes).</p>\n<p><b>Bonus Spells:</b></p>\n<ul>\n<li>@Compendium[pf1.spells.lndeaqm2j2nvgm6p]{Burning Hands}* (3rd),</li>\n<li>@Compendium[pf1.spells.q4ixxjb4v281g2xv]{Scorching Ray}* (5th),</li>\n<li>@Compendium[pf1.spells.1vh2ewwvzvxunoxk]{Protection from Energy} (7th),</li>\n<li>@Compendium[pf1.spells.pawbnw1nm4f0b98e]{Elemental Body I} (9th),</li>\n<li>@Compendium[pf1.spells.yldjnorgbx4jsldz]{Elemental Body II} (11th),</li>\n<li>@Compendium[pf1.spells.hd32fuc6e7j4isbn]{Elemental Body III} (13th),</li>\n<li>@Compendium[pf1.spells.v42t5kpxc8mvd615]{Elemental Body IV} (15th),</li>\n<li>@Compendium[pf1.spells.j91n23p4tfjixp3s]{Summon Monster VIII} (elementals only) (17th),</li>\n<li>@Compendium[pf1.spells.pfy97qyneoa391ek]{Elemental Swarm} (19th).</li>\n</ul>\n<p>*These spells always deal a type of damage determined by your element. In addition, the subtype of these spells changes to match the energy type of your element.</p>\n<p><b>Bonus Feats:</b></p>\n<ul>\n<li>@Compendium[pf1.feats.JreaiTHdyWFNj3Tb]{Dodge},</li>\n<li>@Compendium[pf1.feats.77gXSucrxfrE9yWk]{Empower Spell},</li>\n<li>@Compendium[pf1.feats.fVRnBIHR4Jq6btvm]{Great Fortitude},</li>\n<li>@Compendium[pf1.feats.Uuiu3p982omhMEPj]{Improved Initiative},</li>\n<li>@Compendium[pf1.feats.0bZf3SDkvVOe2ujH]{Lightning Reflexes},</li>\n<li>@Compendium[pf1.feats.FUW5mIXHNBBIQ1Sq]{Power Attack},</li>\n<li>@Compendium[pf1.feats.7zJTztNW7hdaqjKc]{Skill Focus} (<em>Knowledge</em> [planes]),</li>\n<li>@Compendium[pf1.feats.vWiTqHC4Y3Xn1Pme]{Weapon Finesse}.</li>\n</ul>\n<p><b>Bloodline Arcana:</b> Whenever you cast a spell that deals energy damage, you can change the type of damage to match the type of your bloodline. This also changes the spell’s type to match the type of your bloodline.</p>"
    },
    "tag": "classFeat_elementalBloodline",
    "useCustomTag": true,
    "subType": "classFeat",
    "associations": {
      "classes": ["Sorcerer"]
    }
  }
}
