{
  "_id": "B1abP8HNMYf9SLdn",
  "name": "Energy Shield",
  "type": "feat",
  "img": "systems/pf1/icons/spells/runes-blue-2.jpg",
  "system": {
    "description": {
      "value": "<p>The arcanist can protect herself from energy damage as a standard action by expending 1 point from her arcane reservoir. She must pick one energy type and gains resistance 10 against that energy type for 1 minute per arcanist level. This protection increases by 5 for every 5 levels the arcanist possesses (up to a maximum of 30 at 20th level).</p>"
    },
    "tags": ["Arcanist Exploit"],
    "actions": [
      {
        "_id": "pgurvzdezwndyqg2",
        "name": "Use",
        "img": "systems/pf1/icons/spells/runes-blue-2.jpg",
        "activation": {
          "type": "standard",
          "unchained": {
            "cost": 2,
            "type": "action"
          }
        },
        "duration": {
          "value": "@classes.arcanist.level",
          "units": "minute"
        },
        "target": {
          "value": "self"
        },
        "range": {
          "units": "personal"
        },
        "actionType": ""
      }
    ],
    "tag": "classFeat_energyShield",
    "useCustomTag": true,
    "subType": "classFeat",
    "associations": {
      "classes": ["Arcanist"]
    },
    "abilityType": "su"
  }
}
