{
  "_id": "3B4AmNgKAFTs4aUq",
  "name": "Enhanced Cures (SHA)",
  "type": "feat",
  "img": "systems/pf1/icons/skills/green_03.jpg",
  "system": {
    "description": {
      "value": "<p>When the shaman casts a cure spell, the maximum number of hit points healed is based on her shaman level, not the limit imposed by the spell. For example an 11th-level shaman with this hex can cast cure light wounds to heal 1d8+11 hit points instead of the normal 1d8+5 maximum.</p>"
    },
    "tag": "classFeat_enhancedCuresSha",
    "useCustomTag": true,
    "subType": "classFeat",
    "associations": {
      "classes": ["Shaman"]
    },
    "abilityType": "su"
  }
}
