{
  "_id": "4puFBgiy3BBNYCys",
  "name": "Erosion Touch",
  "type": "feat",
  "img": "systems/pf1/icons/spells/light-royal-1.jpg",
  "system": {
    "description": {
      "value": "<p>As a melee touch attack, you can deal 1d6 points of damage per level to objects or constructs. If used against an object in another creature's possession, treat this attack as a sunder combat maneuver.</p>\n<p>You can use this ability once per day, plus one time per day for every three levels you possess.</p>"
    },
    "actions": [
      {
        "_id": "740y7s5f1q83r56d",
        "name": "Use",
        "img": "systems/pf1/icons/spells/light-royal-1.jpg",
        "activation": {
          "type": "standard",
          "unchained": {
            "cost": 2,
            "type": "action"
          }
        },
        "duration": {
          "units": "inst"
        },
        "target": {
          "value": "object touched"
        },
        "range": {
          "units": "touch"
        },
        "actionType": "msak",
        "damage": {
          "parts": [
            {
              "formula": "(@classes.oracle.level)d6",
              "type": {
                "values": ["untyped"],
                "custom": ""
              }
            }
          ]
        },
        "ability": {
          "attack": "dex"
        }
      }
    ],
    "uses": {
      "per": "day",
      "maxFormula": "1 + floor(@classes.oracle.level / 3)"
    },
    "tag": "classFeat_erosionTouch",
    "useCustomTag": true,
    "subType": "classFeat",
    "associations": {
      "classes": ["Oracle"]
    },
    "abilityType": "su"
  }
}
