{
  "_id": "qNd52dl8ibXPExvL",
  "name": "Eye of Somnus",
  "type": "feat",
  "img": "systems/pf1/icons/skills/emerald_11.jpg",
  "system": {
    "description": {
      "value": "<p>At 15th level, you can project your consciousness as if using @Compendium[pf1.spells.fmuea6pmgrylbux7]{Arcane Eye}. In addition, at any point you can cause the @Compendium[pf1.spells.fmuea6pmgrylbux7]{Arcane Eye} to become visible. The eye can no longer be moved, but it acts as a @Compendium[pf1.spells.0khn0u6nd4fat6wb]{Symbol of Sleep} to all who see it. You may use this power once per day.</p>"
    },
    "actions": [
      {
        "_id": "vqvlks603jrrj519",
        "name": "Use",
        "img": "systems/pf1/icons/skills/emerald_11.jpg",
        "activation": {
          "type": "standard",
          "unchained": {
            "cost": 2,
            "type": "action"
          }
        },
        "actionType": ""
      }
    ],
    "uses": {
      "per": "day",
      "maxFormula": "1"
    },
    "tag": "classFeat_eyeOfSomnus",
    "useCustomTag": true,
    "subType": "classFeat",
    "associations": {
      "classes": ["Sorcerer"]
    },
    "abilityType": "sp"
  }
}
