{
  "_id": "ia7FdrQcmfdmCwaZ",
  "name": "Feather Fall",
  "type": "feat",
  "img": "systems/pf1/icons/items/weapons/kunai.png",
  "system": {
    "description": {
      "value": "<p>As an immediate action, the ninja can slow her descent as if using feather fall. This ability uses her ninja level as the caster level. Each use of this ability uses up 1 ki point.</p>"
    },
    "tags": ["Ninja Trick"],
    "actions": [
      {
        "_id": "pk68adin3uimp4o2",
        "name": "Use",
        "img": "systems/pf1/icons/items/weapons/kunai.png",
        "activation": {
          "type": "immediate",
          "unchained": {
            "type": "reaction"
          }
        },
        "duration": {
          "value": "@classes.ninja.level",
          "units": "round"
        },
        "target": {
          "value": "self"
        },
        "range": {
          "units": "personal"
        },
        "actionType": ""
      }
    ],
    "tag": "classFeat_featherFall",
    "useCustomTag": true,
    "subType": "classFeat",
    "associations": {
      "classes": ["Ninja"]
    },
    "abilityType": "su"
  }
}
