{
  "_id": "dH8JZTff0XX6Tr72",
  "name": "Ferocious Charge",
  "type": "feat",
  "img": "systems/pf1/icons/items/inventory/banner-red.jpg",
  "system": {
    "description": {
      "value": "<p>At 15th level, the cavalier is the embodiment of nature’s fury. When the cavalier charges a creature, he can attempt an Intimidate check to demoralize his enemy as a free action. If he succeeds, the target is frightened.</p>"
    },
    "tag": "classFeat_ferociousCharge",
    "useCustomTag": true,
    "subType": "classFeat",
    "associations": {
      "classes": ["Cavalier"]
    },
    "abilityType": "ex"
  }
}
