{
  "_id": "GlyfgpdKFiBKUIV4",
  "name": "Final Rest Inquisition",
  "type": "feat",
  "img": "systems/pf1/icons/items/inventory/badge-cross.jpg",
  "system": {
    "description": {
      "value": "<p><b>Granted Powers:</b> The dead have paid their dues; there is no need, and no excuse, for them to walk. You protect their rest personally.</p>"
    },
    "tag": "classFeat_finalRestInquisition",
    "useCustomTag": true,
    "subType": "classFeat",
    "associations": {
      "classes": ["Inquisitor"]
    }
  }
}
