{
  "_id": "CB0KQ3IRRdeZAfcN",
  "name": "Fire Blessing: Fire Strike",
  "type": "feat",
  "img": "systems/pf1/icons/spells/fireball-red-2.jpg",
  "system": {
    "description": {
      "value": "<p>At 1st level, you can touch one weapon and enhance it with the grandeur of fire. For 1 minute, this weapon glows red-hot and deals an additional 1d4 points of fire damage with each hit.</p>\n<p>This additional damage doesn’t stack with the additional damage from the flaming or flaming burst weapon special abilities.</p>"
    },
    "actions": [
      {
        "_id": "18kuh5hezlskxktf",
        "name": "Use",
        "img": "systems/pf1/icons/spells/fireball-red-2.jpg",
        "activation": {
          "type": "standard",
          "unchained": {
            "cost": 2,
            "type": "action"
          }
        },
        "duration": {
          "value": "1",
          "units": "minute"
        },
        "target": {
          "value": "weapon touched"
        },
        "range": {
          "units": "touch"
        },
        "actionType": ""
      }
    ],
    "tag": "classFeat_fireBlessingFireStrike",
    "useCustomTag": true,
    "subType": "classFeat",
    "associations": {
      "classes": ["Warpriest"]
    }
  }
}
