{
  "_id": "IBlfY7mhFWlzB2km",
  "name": "Forced Reincarnation",
  "type": "feat",
  "img": "systems/pf1/icons/skills/violet_02.jpg",
  "system": {
    "description": {
      "value": "<p>The witch causes a creature within 30 feet to die and be immediately reincarnated into a new body. A Will save negates this effect. Those that fail are slain and immediately brought back to life with the spell @Compendium[pf1.spells.3w1ozzzf8hk0gdzm]{Reincarnate}.</p>\n<p>Whether or not the save is successful, a creature cannot be the target of this hex again for 1 day.</p>"
    },
    "tags": ["Hex", "Grand Hex"],
    "actions": [
      {
        "_id": "u21zwlanemnb826r",
        "name": "Use",
        "img": "systems/pf1/icons/skills/violet_02.jpg",
        "activation": {
          "type": "standard",
          "unchained": {
            "cost": 2,
            "type": "action"
          }
        },
        "duration": {
          "units": "inst"
        },
        "target": {
          "value": "one creature"
        },
        "range": {
          "value": "30",
          "units": "ft"
        },
        "actionType": "save",
        "save": {
          "dc": "10 + floor(@classes.witch.level / 2) + @abilities.int.mod",
          "type": "will",
          "description": "Will negates"
        }
      }
    ],
    "tag": "classFeat_forcedReincarnation",
    "useCustomTag": true,
    "subType": "classFeat",
    "associations": {
      "classes": ["Witch"]
    },
    "abilityType": "su"
  }
}
