{
  "_id": "D4oOgkYwd2ByvKFy",
  "name": "Forgotten Presence",
  "type": "feat",
  "img": "systems/pf1/icons/spells/light-royal-1.jpg",
  "system": {
    "description": {
      "value": "<p>Once per day as an immediate action, you can cause a creature to forget that you were present for the last minute per oracle level, including forgetting all actions you took during that time, unless it succeeds at a Will save (DC 10 + 1/2 your oracle level + your Charisma modifier). Effects such as modify memory can restore the lost memories.</p>\n<p>At 15th level, you can use this ability twice per day.</p>\n<p>You must be at least 7th level to select this revelation.</p>"
    },
    "actions": [
      {
        "_id": "vj0bh0t2khqnkmqu",
        "name": "Use",
        "img": "systems/pf1/icons/spells/light-royal-1.jpg",
        "activation": {
          "type": "immediate",
          "unchained": {
            "type": "reaction"
          }
        },
        "duration": {
          "units": "inst"
        },
        "target": {
          "value": "one creature"
        },
        "actionType": "save",
        "save": {
          "type": "will",
          "description": "Will negates"
        }
      }
    ],
    "uses": {
      "per": "day",
      "maxFormula": "@classes.oracle.level >= 15 ? 2 : 1"
    },
    "tag": "classFeat_forgottenPresence",
    "useCustomTag": true,
    "subType": "classFeat",
    "associations": {
      "classes": ["Oracle"]
    },
    "abilityType": "sp"
  }
}
