{
  "_id": "g3DptNZksB9HU80M",
  "name": "Fossil Form",
  "type": "feat",
  "img": "systems/pf1/icons/skills/yellow_29.jpg",
  "system": {
    "description": {
      "value": "<p>At the beginning of your turn as a swift action, you can infuse your flesh with minerals, granting you cumbersome security. Until the beginning of your next turn, you are staggered, gain hardness 2, and gain a +2 bonus on saving throws against petrification. This hardness increases by 2 and your saving throw bonus increases by 1 for every 4 cleric levels you have. You can use this ability a number of times per day equal to 3 + your Wisdom modifier.</p>\n<p>This power replaces the Acid Dart power of the Earth Domain.</p>"
    },
    "actions": [
      {
        "_id": "3ldl5i3vq0435pkc",
        "name": "Use",
        "img": "systems/pf1/icons/skills/yellow_29.jpg",
        "activation": {
          "type": "swift",
          "unchained": {
            "type": "action"
          }
        },
        "duration": {
          "value": "1",
          "units": "round"
        },
        "target": {
          "value": "self"
        },
        "range": {
          "units": "personal"
        },
        "actionType": ""
      }
    ],
    "uses": {
      "per": "day",
      "maxFormula": "3 + @abilities.wis.mod"
    },
    "tag": "classFeat_fossilForm",
    "useCustomTag": true,
    "subType": "classFeat",
    "associations": {
      "classes": ["Cleric"]
    },
    "abilityType": "su"
  }
}
