{
  "_id": "g8yaKYZWGBiMXrNC",
  "name": "Frost Bomb",
  "type": "feat",
  "img": "systems/pf1/icons/items/potions/unique-3.jpg",
  "system": {
    "description": {
      "value": "<p>When the alchemist creates a bomb, he can choose to have it inflict cold damage. Creatures that take a direct hit from a frost bomb are staggered on their next turn unless they succeed on a Fortitude save.</p>"
    },
    "tag": "classFeat_frostBomb",
    "useCustomTag": true,
    "subType": "classFeat",
    "associations": {
      "classes": ["Alchemist"]
    }
  }
}
