{
  "_id": "73pw91lOUnngHOSv",
  "name": "Glassfoot Bomb",
  "type": "feat",
  "img": "systems/pf1/icons/items/potions/unique-3.jpg",
  "system": {
    "description": {
      "value": "<p>When the alchemist creates a bomb, he can choose to have it cover the ground in volatile jagged crystals in addition to its normal effects. These crystals act like <a href=\"https://aonprd.com/EquipmentMiscDisplay.aspx?ItemName=Caltrops\">caltrops</a>, evaporating into a smelly but harmless gas in 2d6 rounds.</p>"
    },
    "tag": "classFeat_glassfootBomb",
    "useCustomTag": true,
    "subType": "classFeat",
    "associations": {
      "classes": ["Alchemist"]
    }
  }
}
