{
  "_id": "ZKWXWVMU0IwErGKf",
  "name": "Glory Blessing: Demoralizing Glory",
  "type": "feat",
  "img": "systems/pf1/icons/spells/air-burst-sky-3.jpg",
  "system": {
    "description": {
      "value": "<p>At 10th level, when you successfully damage an opponent with a melee attack or attack spell, as a swift action you can attempt to demoralize that opponent with the Intimidate skill using your ranks in Intimidate or your warpriest level, whichever is higher.</p>"
    },
    "actions": [
      {
        "_id": "51t2junxau8xh3wz",
        "name": "Use",
        "img": "systems/pf1/icons/spells/air-burst-sky-3.jpg",
        "activation": {
          "type": "swift",
          "unchained": {
            "type": "action"
          }
        },
        "duration": {
          "units": "inst"
        },
        "actionType": ""
      }
    ],
    "tag": "classFeat_gloryBlessingDemoralizingGlory",
    "useCustomTag": true,
    "subType": "classFeat",
    "associations": {
      "classes": ["Warpriest"]
    }
  }
}
