{
  "_id": "qv8UwukFYN6qTASb",
  "name": "Glutinous Gloom",
  "type": "feat",
  "img": "systems/pf1/icons/items/potions/unique-3.jpg",
  "system": {
    "description": {
      "value": "<p>The gloom creates an area in its splash radius that functions as @Compendium[pf1.spells.j9qpy0d585f8lpm4]{Web}. The webbing lasts for a number of rounds equal to 1/2 the alchemist’s level.</p>\n<p>An alchemist must be at least 6th level before selecting this discovery.</p>"
    },
    "tag": "classFeat_glutinousGloom",
    "useCustomTag": true,
    "subType": "classFeat",
    "associations": {
      "classes": ["Alchemist"]
    }
  }
}
