{
  "_id": "IMhG1JjaWP6p9ORe",
  "name": "Grand Hex",
  "type": "feat",
  "img": "systems/pf1/icons/skills/affliction_05.jpg",
  "system": {
    "description": {
      "value": "<p>Starting at 18th level, and every two levels thereafter, a witch can choose one of the following grand hexes whenever she could select a new hex.</p>"
    },
    "tags": ["Grand Hex"],
    "tag": "classFeat_grandHex",
    "useCustomTag": true,
    "subType": "classFeat",
    "associations": {
      "classes": ["Witch"]
    }
  }
}
