{
  "_id": "47alGtWM5SXiGVKt",
  "name": "Grand Inspiring Mutagen",
  "type": "feat",
  "img": "systems/pf1/icons/items/potions/unique-3.jpg",
  "system": {
    "description": {
      "value": "<p>The alchemist’s inspiring cognatogen now grants a +4 dodge bonus to AC and a +4 bonus to Reflex saving throws; a –6 penalty to Strength and Constitution; and the effects of having the <a href=\"https://aonprd.com/InvestigatorTalents.aspx?ItemName=\">item lore, tenacious inspiration, and underworld inspiration investigator talents</a>. An alchemist must be at least 16th level and have the greater inspiring cognatogen discovery to select this discovery.</p>"
    },
    "tag": "classFeat_grandInspiringMutagen",
    "useCustomTag": true,
    "subType": "classFeat",
    "associations": {
      "classes": ["Alchemist"]
    },
    "abilityType": "su"
  }
}
