{
  "_id": "5kEoK34AwLBxcN7Q",
  "name": "Gravity Control",
  "type": "feat",
  "img": "systems/pf1/icons/spells/rip-sky-1.jpg",
  "system": {
    "description": {
      "value": "<p><b>Element</b> void; <b>Type</b> utility (Sp); <b>Level</b> 3; <b>Burn</b> 0</p>\n<p>You use your gravitic abilities to move yourself, as per flame jet.</p>"
    },
    "actions": [
      {
        "_id": "n9j4ujm28lezg6sa",
        "name": "Use",
        "img": "systems/pf1/icons/spells/rip-sky-1.jpg",
        "activation": {
          "type": "standard",
          "unchained": {
            "cost": 2,
            "type": "action"
          }
        },
        "target": {
          "value": "self"
        },
        "range": {
          "units": "personal"
        },
        "actionType": ""
      }
    ],
    "tag": "classFeat_gravityControl",
    "useCustomTag": true,
    "subType": "classFeat",
    "associations": {
      "classes": ["Kineticist"]
    },
    "abilityType": "sp"
  }
}
