{
  "_id": "j6yaCl8dF0ePES1J",
  "name": "Greater Fey Mutagen",
  "type": "feat",
  "img": "systems/pf1/icons/items/potions/unique-3.jpg",
  "system": {
    "description": {
      "value": "<p>The alchemist’s fey mutagen now grants a +4 alchemical bonus to Dexterity and Charisma, a –2 penalty to his Strength, DR 5/ cold iron, and the <a href=\"https://aonprd.com/ClassDisplay.aspx?ItemName=Druid\">druid’s woodland stride class feature</a>.</p>\n<p>An alchemist must be at least 12th level and must have the fey mutagen discovery before selecting this discovery.</p>"
    },
    "tag": "classFeat_greaterFeyMutagen",
    "useCustomTag": true,
    "subType": "classFeat",
    "associations": {
      "classes": ["Alchemist"]
    },
    "abilityType": "su"
  }
}
