{
  "_id": "fkZVfqo0SOHAfJhh",
  "name": "Greater Empathic Link",
  "type": "feat",
  "img": "systems/pf1/icons/spells/link-spirit-3.jpg",
  "system": {
    "description": {
      "value": "<p>At 14th level, the range of the hunter’s empathic link with her animal companion increases to 10 miles. If the animal companion is within 1 mile, the hunter can communicate with it telepathically.</p>"
    },
    "tag": "classFeat_greaterEmpathicLink",
    "useCustomTag": true,
    "subType": "classFeat",
    "associations": {
      "classes": ["Hunter"]
    },
    "abilityType": "su"
  }
}
