{
  "_id": "2Wi8NyUPfUkeiSRV",
  "name": "Green Tongue",
  "type": "feat",
  "img": "systems/pf1/icons/items/weapons/dagger.PNG",
  "system": {
    "description": {
      "value": "<p>The rogue gains Aklo, Aquan, Auran, Giant, Ignan, Sylvan, or Terran as a bonus language. In addition, the rogue can attempt a DC 15 Linguistics check to communicate basic concepts with magical beasts and monstrous humanoids with which she does not share a common language.</p>"
    },
    "tag": "classFeat_greenTongue",
    "useCustomTag": true,
    "subType": "classFeat",
    "associations": {
      "classes": ["Rogue"]
    },
    "abilityType": "ex"
  }
}
