{
  "_id": "TW62Qgb1eg3Wa7KB",
  "name": "Greensight",
  "type": "feat",
  "img": "systems/pf1/icons/spells/vines-jade-3.jpg",
  "system": {
    "description": {
      "value": "<p><b>Element</b> wood; <b>Type</b> utility (Su); <b>Level</b> 4; <b>Burn</b> 0</p>\n<p>You can see through plant material as if you had greensight as per the universal monster rule with a range of 60 feet.</p>"
    },
    "tag": "classFeat_greensight",
    "useCustomTag": true,
    "subType": "classFeat",
    "associations": {
      "classes": ["Kineticist"]
    },
    "abilityType": "su"
  }
}
