{
  "_id": "Z0EXCnJBeBUdIb4H",
  "name": "Guarded Stance (UC)",
  "type": "feat",
  "img": "systems/pf1/icons/feats/deafening-critical.jpg",
  "system": {
    "description": {
      "value": "<p>The barbarian can take on a more defensive posture. This grants her a +1 dodge bonus to her Armor Class for the duration of her current rage. This bonus increases by 1 for every 4 levels the barbarian has.</p>\n<p>This is a stance rage power.</p>"
    },
    "actions": [
      {
        "_id": "ka6b5iocryndsvd3",
        "name": "Use",
        "img": "systems/pf1/icons/feats/deafening-critical.jpg",
        "activation": {
          "type": "move"
        },
        "uses": {
          "autoDeductChargesCost": "0"
        },
        "actionType": ""
      }
    ],
    "tag": "classFeat_guardedStanceUc",
    "useCustomTag": true,
    "subType": "classFeat",
    "associations": {
      "classes": ["Barbarian (Unchained)"]
    },
    "abilityType": "ex"
  }
}
