{
  "_id": "1VcnvSG8gegTdC6z",
  "name": "Hard to Fool",
  "type": "feat",
  "img": "systems/pf1/icons/items/weapons/dagger.PNG",
  "system": {
    "description": {
      "value": "<p>Once per day, a rogue with this talent can roll two dice while making a Sense Motive check, and take the better result. She must choose to use this talent before making the Sense Motive check. A rogue can use this ability one additional time per day for every 5 rogue levels she possesses.</p>"
    },
    "tag": "classFeat_hardToFool",
    "useCustomTag": true,
    "subType": "classFeat",
    "associations": {
      "classes": ["Rogue"]
    },
    "abilityType": "ex"
  }
}
