{
  "_id": "feDzVvn0bVTmU3EI",
  "name": "Healing Patron",
  "type": "feat",
  "img": "systems/pf1/icons/feats/improved-familiar.jpg",
  "system": {
    "description": {
      "value": "<ul>\n<li>2nd — @Compendium[pf1.spells.eu4u4mr1naoiqohz]{Remove Fear}</li>\n<li>4th — @Compendium[pf1.spells.fxz69pwpqt9b6uss]{Restoration, Lesser}</li>\n<li>6th — @Compendium[pf1.spells.ocbjt6z7amc3yn8w]{Remove Disease}</li>\n<li>8th — @Compendium[pf1.spells.anya5qwdjhdfyk8u]{Restoration}</li>\n<li>10th — @Compendium[pf1.spells.sbhij6pdo24wkm48]{Cleanse}</li>\n<li>12th — @Compendium[pf1.spells.i22bvq17g4r3bp4j]{Pillar Of Life}</li>\n<li>14th — @Compendium[pf1.spells.igmb8lisqcnsxd2d]{Restoration, Greater}</li>\n<li>16th — @Compendium[pf1.spells.6346rs0f4sra9gt4]{Cure Critical Wounds, Mass}</li>\n<li>18th — @Compendium[pf1.spells.mxqi375ya2rka7cp]{True Resurrection}</li>\n</ul>"
    },
    "tag": "classFeat_healingPatron",
    "useCustomTag": true,
    "subType": "classFeat",
    "associations": {
      "classes": ["Witch"]
    }
  }
}
