{
  "_id": "QDXZaSHgaJPulkpi",
  "name": "Hell's Corruption",
  "type": "feat",
  "img": "systems/pf1/icons/skills/violet_25.jpg",
  "system": {
    "description": {
      "value": "<p>You can cause a creature to become more susceptible to corruption as a melee touch attack. Creatures touched take a –2 penalty on all saving throws and must roll all opposed skill checks twice, taking the worse result. This effect lasts for a number of rounds equal to 1/2 your cleric level (minimum 1). You can use this ability for a number of times per day equal to 3 + your Wisdom modifier.</p>\n<p>This power replaces the Touch of Evil power of the Evil Domain.</p>"
    },
    "actions": [
      {
        "_id": "h2m1fxlnvliule19",
        "name": "Use",
        "img": "systems/pf1/icons/skills/violet_25.jpg",
        "activation": {
          "type": "standard",
          "unchained": {
            "cost": 2,
            "type": "action"
          }
        },
        "duration": {
          "value": "max(1, floor(@classes.cleric.level / 2))",
          "units": "round"
        },
        "target": {
          "value": "creature touched"
        },
        "range": {
          "units": "touch"
        },
        "actionType": ""
      }
    ],
    "uses": {
      "per": "day",
      "maxFormula": "3 + @abilities.wis.mod"
    },
    "tag": "classFeat_hellsCorruption",
    "useCustomTag": true,
    "subType": "classFeat",
    "associations": {
      "classes": ["Cleric"]
    },
    "abilityType": "su"
  }
}
