{
  "_id": "G0gbqLWLPw1bVavE",
  "name": "Hold Breath (UC)",
  "type": "feat",
  "img": "systems/pf1/icons/items/weapons/hunga-munga.PNG",
  "system": {
    "description": {
      "value": "<p>A rogue with this talent doubles the amount of time she can hold her breath.</p>"
    },
    "tag": "classFeat_holdBreathUc",
    "useCustomTag": true,
    "subType": "classFeat",
    "associations": {
      "classes": ["Rogue (Unchained)"]
    },
    "abilityType": "ex"
  }
}
