{
  "_id": "ClCqzXy1ry2eMCuf",
  "name": "Ice Path",
  "type": "feat",
  "img": "systems/pf1/icons/spells/ice-blue-2.jpg",
  "system": {
    "description": {
      "value": "<p><b>Element</b> water; <b>Type</b> utility (Su); <b>Level</b> 6; <b>Burn</b> 0<br><b>Prerequisite</b> icewalker</p>\n<p>You freeze water vapor in the air, allowing you to travel above the ground as @Compendium[pf1.spells.e4v1uv8hexeu9sxj]{Air Walk} by walking along the ice, and leaving a path of ice behind you that lasts for 1 round before it melts.</p>"
    },
    "tag": "classFeat_icePath",
    "useCustomTag": true,
    "subType": "classFeat",
    "associations": {
      "classes": ["Kineticist"]
    },
    "abilityType": "su"
  }
}
