{
  "_id": "R1JgCnq5qojorFlC",
  "name": "Inspirational Expertise",
  "type": "feat",
  "img": "systems/pf1/icons/items/weapons/sword-cane.png",
  "system": {
    "description": {
      "value": "<p>When an investigator succeeds at a Knowledge check to identify a monster’s special powers or vulnerabilities, he can expend one use of inspiration as a swift action to grant allies within 30 feet that can hear him a +4 insight bonus on attack rolls against that monster or type of monster for 1 round.</p>\n<p>An investigator must be at least 7th level to take this talent.</p>"
    },
    "actions": [
      {
        "_id": "qob4v33rgj642rd6",
        "name": "Use",
        "img": "systems/pf1/icons/items/weapons/sword-cane.png",
        "activation": {
          "type": "swift",
          "unchained": {
            "type": "action"
          }
        },
        "duration": {
          "value": "1",
          "units": "round"
        },
        "target": {
          "value": "allies"
        },
        "range": {
          "value": "30",
          "units": "ft"
        },
        "actionType": ""
      }
    ],
    "tag": "classFeat_inspirationalExpertise",
    "useCustomTag": true,
    "subType": "classFeat",
    "associations": {
      "classes": ["Investigator"]
    },
    "abilityType": "ex"
  }
}
