{
  "_id": "G7xqb0Ka8Bm9XAZz",
  "name": "Instant Alchemy",
  "type": "feat",
  "img": "systems/pf1/icons/skills/violet_04.jpg",
  "system": {
    "description": {
      "value": "<p>At 18th level, an alchemist can create alchemical items with almost supernatural speed. He can create any alchemical item as a full-round action if he succeeds at the Craft (alchemy) check and has the appropriate resources at hand to fund the creation. He can apply poison to a weapon as an immediate action.</p>"
    },
    "tag": "classFeat_instantAlchemy",
    "useCustomTag": true,
    "subType": "classFeat",
    "associations": {
      "classes": ["Alchemist"]
    },
    "abilityType": "ex"
  }
}
