{
  "_id": "QcPoX5rNUiRsoape",
  "name": "Invoke the Harrow",
  "type": "feat",
  "img": "systems/pf1/icons/skills/emerald_11.jpg",
  "system": {
    "description": {
      "value": "<p>At 9th level, you can draw a random harrow card from a complete harrow deck you own as a <em>standard action</em> and channel the aspects of the card into your body. You take on superficial traits featured on the card and gain a +4 <em>enhancement bonus</em> to the ability score associated with the card’s suit. You can invoke the harrow for a number of minutes per day equal to your <em>sorcerer</em> level; the duration need not be continuous, but it must be used in 1-minute increments.</p>"
    },
    "actions": [
      {
        "_id": "if20n11mbmsq9hwp",
        "name": "Use",
        "img": "systems/pf1/icons/skills/emerald_11.jpg",
        "activation": {
          "type": "standard",
          "unchained": {
            "cost": 2,
            "type": "action"
          }
        },
        "duration": {
          "value": "1",
          "units": "minute"
        },
        "target": {
          "value": "self"
        },
        "range": {
          "units": "personal"
        },
        "actionType": ""
      }
    ],
    "uses": {
      "per": "day",
      "maxFormula": "@classes.sorcerer.level"
    },
    "tag": "classFeat_invokeTheHarrow",
    "useCustomTag": true,
    "subType": "classFeat",
    "abilityType": "su"
  }
}
