{
  "_id": "qGU3E0mEMrtO599j",
  "name": "Kamikaze",
  "type": "feat",
  "img": "systems/pf1/icons/items/weapons/kunai.png",
  "system": {
    "description": {
      "value": "<p>A ninja with this ability strikes without concern for her own well-being. The ninja can spend 1 point from her ki pool to give her unarmed strikes and any weapons she wields the vicious weapon special ability for 1 round per level.</p>\n<p>The ninja can spend 1 ki point to dismiss this effect.</p>"
    },
    "actions": [
      {
        "_id": "2729kptvz4k16dje",
        "name": "Use",
        "img": "systems/pf1/icons/items/weapons/kunai.png",
        "activation": {
          "type": "free",
          "unchained": {
            "type": "free"
          }
        },
        "duration": {
          "value": "@classes.ninja.level",
          "units": "round"
        },
        "actionType": ""
      }
    ],
    "tag": "classFeat_kamikaze",
    "useCustomTag": true,
    "subType": "classFeat",
    "associations": {
      "classes": ["Ninja"]
    },
    "abilityType": "su"
  }
}
