{
  "_id": "rJBdkI8mlJBNWcU2",
  "name": "Keen Recollection",
  "type": "feat",
  "img": "systems/pf1/icons/skills/red_26.jpg",
  "system": {
    "description": {
      "value": "<p>At 3rd level, an investigator can attempt all Knowledge skill checks untrained.</p>"
    },
    "tag": "classFeat_keenRecollection",
    "useCustomTag": true,
    "subType": "classFeat",
    "associations": {
      "classes": ["Investigator"]
    }
  }
}
