{
  "_id": "LZZqBeONIEH86hLi",
  "name": "Last Ditch Effort",
  "type": "feat",
  "img": "systems/pf1/icons/items/weapons/dagger.PNG",
  "system": {
    "description": {
      "value": "<p>Once per day, a rogue with this ability who accidentally activates a trap while attempting to disarm it may immediately attempt another Disable Device check to disarm it, albeit at a –5 penalty. The result of the second check is taken even if the result is lower.</p>"
    },
    "tag": "classFeat_lastDitchEffort",
    "useCustomTag": true,
    "subType": "classFeat",
    "associations": {
      "classes": ["Rogue"]
    },
    "abilityType": "ex"
  }
}
