{
  "_id": "Chcpb0g6K7PsF2Xt",
  "name": "Lay to Rest",
  "type": "feat",
  "img": "systems/pf1/icons/skills/violet_02.jpg",
  "system": {
    "description": {
      "value": "<p>The witch may target a single undead creature with this hex as if with an @Compendium[pf1.spells.lllhr9py6w44cxjm]{Undeath to Death} spell. A Will save negates this effect.</p>\n<p>Whether or not the save is successful, a creature cannot be the target of this hex again for 1 day.</p>"
    },
    "tags": ["Hex", "Grand Hex"],
    "actions": [
      {
        "_id": "vbo5dgvtwaoaro6m",
        "name": "Use",
        "img": "systems/pf1/icons/skills/violet_02.jpg",
        "description": "<p>Slays [[/r (@classes.witch.level)d4]] HD undead creature.</p>",
        "activation": {
          "type": "standard",
          "unchained": {
            "cost": 2,
            "type": "action"
          }
        },
        "duration": {
          "units": "inst"
        },
        "target": {
          "value": "one undead creature"
        },
        "range": {
          "value": "30",
          "units": "ft"
        },
        "actionType": "save",
        "save": {
          "dc": "10 + floor(@classes.witch.level / 2) + @abilities.int.mod",
          "type": "will",
          "description": "Will negates"
        }
      }
    ],
    "tag": "classFeat_layToRest",
    "useCustomTag": true,
    "subType": "classFeat",
    "associations": {
      "classes": ["Witch"]
    },
    "abilityType": "sp"
  }
}
