{
  "_id": "ljuExbNJTbp8Ez83",
  "name": "Life Giver",
  "type": "feat",
  "img": "systems/pf1/icons/skills/violet_02.jpg",
  "system": {
    "description": {
      "value": "<p>Once per day the witch can, as a full round action, touch a dead creature and bring it back to life. This functions as @Compendium[pf1.spells.thh46ghi51lrl3cl]{Resurrection}, but it does not require a material component.</p>"
    },
    "tags": ["Hex", "Grand Hex"],
    "actions": [
      {
        "_id": "8pn4ganzjpwh1xgm",
        "name": "Use",
        "img": "systems/pf1/icons/skills/violet_02.jpg",
        "activation": {
          "type": "full",
          "unchained": {
            "cost": 3,
            "type": "action"
          }
        },
        "duration": {
          "units": "inst"
        },
        "target": {
          "value": "one dead creature"
        },
        "range": {
          "units": "touch"
        },
        "actionType": "",
        "touch": true
      }
    ],
    "tag": "classFeat_lifeGiver",
    "useCustomTag": true,
    "subType": "classFeat",
    "associations": {
      "classes": ["Witch"]
    },
    "abilityType": "su"
  }
}
