{
  "_id": "Ddr6NUX3H6huHlU3",
  "name": "Limbs (2 pts)",
  "type": "feat",
  "img": "systems/pf1/icons/skills/blue_26.jpg",
  "system": {
    "description": {
      "value": "<p>An eidolon grows an additional pair of limbs. These limbs can take one of two forms. They can be made into legs, complete with feet. Each pair of legs increases the eidolon's base speed by 10 feet. Alternatively, they can be made into arms, complete with hands. The eidolon does not gain any additional natural attacks for an additional pair of arms, but it can take other evolutions that add additional attacks (such as claws or a slam). Arms that have hands can be used to wield weapons, if the eidolon is proficient.</p>\n<p>This evolution can be selected more than once.</p>"
    },
    "tag": "classFeat_limbs2Pts",
    "useCustomTag": true,
    "subType": "classFeat",
    "associations": {
      "classes": ["Eidolon"]
    },
    "abilityType": "ex"
  }
}
