{
  "_id": "OdjyOoQ39ZHogGUH",
  "name": "Love Subdomain",
  "type": "feat",
  "img": "systems/pf1/icons/skills/red_15.jpg",
  "system": {
    "description": {
      "value": "<p><b>Replacement Domain Spells:</b></p>\n<ul>\n<li>2nd—@Compendium[pf1.spells.v3d3lnjj7ks0ztii]{Enthrall}</li>\n<li>8th—@Compendium[pf1.spells.xlzqpkl8fpm3sn4u]{Euphoric Tranquility}</li>\n</ul>"
    },
    "tag": "classFeat_loveSubdomain",
    "useCustomTag": true,
    "subType": "classFeat",
    "associations": {
      "classes": ["Cleric"]
    }
  }
}
