{
  "_id": "vrBRbL0zpUVLqBjF",
  "name": "Loyalty Subdomain",
  "type": "feat",
  "img": "systems/pf1/icons/skills/affliction_18.jpg",
  "system": {
    "description": {
      "value": "<p><b>Replacement Domain Spells:</b></p>\n<ul>\n<li>1st—@Compendium[pf1.spells.eu4u4mr1naoiqohz]{Remove Fear}</li>\n<li>5th—@Compendium[pf1.spells.l1zl69j95ad7l9dn]{Command, Greater}</li>\n</ul>"
    },
    "tag": "classFeat_loyaltySubdomain",
    "useCustomTag": true,
    "subType": "classFeat",
    "associations": {
      "classes": ["Cleric"]
    }
  }
}
