{
  "_id": "qQMqUdWYnnwvCym7",
  "name": "Luck Domain",
  "type": "feat",
  "img": "systems/pf1/icons/items/inventory/dice.jpg",
  "system": {
    "description": {
      "value": "<p><b>Granted Powers:</b> You are infused with luck, and your mere presence can spread good fortune.</p>\n<p><b>Domain Spells:</b></p>\n<ul>\n<li>1st—@Compendium[pf1.spells.xco22162bwgxn7pj]{True Strike}</li>\n<li>2nd—@Compendium[pf1.spells.ibk7jrc5rwubpia6]{Aid}</li>\n<li>3rd—@Compendium[pf1.spells.1vh2ewwvzvxunoxk]{Protection from Energy}</li>\n<li>4th—@Compendium[pf1.spells.lvzq2mwkqmozolpl]{Freedom of Movement}</li>\n<li>5th—@Compendium[pf1.spells.myg2b9ww43nnlbr2]{Break Enchantment}</li>\n<li>6th—@Compendium[pf1.spells.446vcsetq4ny904e]{Mislead}</li>\n<li>7th—@Compendium[pf1.spells.uyn64zazmaydnk7o]{Spell Turning}</li>\n<li>8th—@Compendium[pf1.spells.2vb5orfcy57lrfmc]{Moment of Prescience}</li>\n<li>9th—@Compendium[pf1.spells.suel7sgnztenv551]{Miracle}</li>\n</ul>"
    },
    "tag": "classFeat_luckDomain",
    "useCustomTag": true,
    "subType": "classFeat",
    "associations": {
      "classes": ["Cleric"]
    }
  }
}
