{
  "_id": "JnfEsvOMqPwdV9MG",
  "name": "Magic Attacks (SPI)",
  "type": "feat",
  "img": "systems/pf1/icons/skills/blood_12.jpg",
  "system": {
    "description": {
      "value": "<p>When the phantom manifests in ectoplasmic form, it treats its slam attacks as if they were magic for the purposes of overcoming damage reduction.</p>\n<p>If the spiritualist is 10th level or higher, all of the phantom’s weapons are treated as the alignment of the phantom for the purpose of overcoming damage reduction.</p>"
    },
    "tag": "classFeat_magicAttacksSpi",
    "useCustomTag": true,
    "subType": "classFeat",
    "associations": {
      "classes": ["Spiritualist", "Phantom"]
    },
    "abilityType": "su"
  }
}
