{
  "_id": "OSBiwh2FHF3SLlw0",
  "name": "Mesmerizing Elementalist",
  "type": "feat",
  "img": "systems/pf1/icons/spells/runes-blue-1.jpg",
  "system": {
    "description": {
      "value": "<p><b>Element</b> universal; <b>Type</b> utility (Su); <b>Level</b> 1; <b>Burn</b> 0<br><b>Prerequisite</b> <a href=\"https://aonprd.com/RacesDisplay.aspx?ItemName=Nagaji\">nagaji</a></p>\n<p>You gain the hypnotic gaze nagaji alternate racial trait. If you already have this trait, add +1 to the trait’s save DC instead. You can use the hypnotic gaze racial trait by accepting 1 point of burn, even if you have no daily uses of that racial trait remaining.</p>"
    },
    "tag": "classFeat_mesmerizingElementalist",
    "useCustomTag": true,
    "subType": "classFeat",
    "associations": {
      "classes": ["Kineticist"]
    },
    "abilityType": "su"
  }
}
