{
  "_id": "7sdhXA4FxTTyNnMu",
  "name": "Mien of Despair",
  "type": "feat",
  "img": "systems/pf1/icons/items/weapons/dagger.PNG",
  "system": {
    "description": {
      "value": "<p>When a rogue with this talent successfully demoralizes an opponent using the Intimidate skill or performs a successful feint against an opponent, the opponent loses any morale bonuses and cannot benefit from any morale bonuses for 1d4+1 rounds.</p>"
    },
    "tag": "classFeat_mienOfDespair",
    "useCustomTag": true,
    "subType": "classFeat",
    "associations": {
      "classes": ["Rogue"]
    },
    "abilityType": "su"
  }
}
