{
  "_id": "QHTHGbNTrJMY5iOE",
  "name": "Minor Magic",
  "type": "feat",
  "img": "systems/pf1/icons/items/weapons/dagger.PNG",
  "system": {
    "description": {
      "value": "<p>A rogue with this talent gains the ability to cast a 0-level spell from the sorcerer/wizard spell list. This spell can be cast three times a day as a spell-like ability. The caster level for this ability is equal to the rogue's level. The save DC for this spell is 10 + the rogue's Intelligence modifier. The rogue must have an Intelligence of at least 10 to select this talent.</p>"
    },
    "actions": [
      {
        "_id": "8bxk0t2frhgl4cpb",
        "name": "Use",
        "img": "systems/pf1/icons/items/weapons/dagger.PNG",
        "activation": {
          "type": "passive",
          "unchained": {
            "type": "passive"
          }
        },
        "actionType": ""
      }
    ],
    "uses": {
      "per": "day",
      "maxFormula": "3"
    },
    "tag": "classFeat_minorMagic",
    "useCustomTag": true,
    "subType": "classFeat",
    "associations": {
      "classes": ["Rogue"]
    },
    "abilityType": "sp"
  }
}
