{
  "_id": "rJFSTniHbaclYyAR",
  "name": "Nails",
  "type": "feat",
  "img": "systems/pf1/icons/skills/violet_02.jpg",
  "system": {
    "description": {
      "value": "<p>The witch's nails are long and sharp, and count as natural weapons that deal 1d3 points of damage (1d2 for a Small witch). These attacks are secondary attacks.</p>\n<p>If trimmed, the witch's nails regrow to their normal size in 1d4 days.</p>"
    },
    "tags": ["Hex"],
    "tag": "classFeat_nails",
    "useCustomTag": true,
    "subType": "classFeat",
    "associations": {
      "classes": ["Witch"]
    },
    "abilityType": "ex"
  }
}
