{
  "_id": "Q6D3haZ0mPRn5pR6",
  "name": "Offensive Defense",
  "type": "feat",
  "img": "systems/pf1/icons/items/weapons/dagger.PNG",
  "system": {
    "description": {
      "value": "<p>When a rogue with this talent hits a creature with a melee attack that deals sneak attack damage, the rogue gains a +1 dodge bonus to AC for each sneak attack die rolled for 1 round.</p>"
    },
    "tag": "classFeat_offensiveDefense",
    "useCustomTag": true,
    "subType": "classFeat",
    "associations": {
      "classes": ["Rogue"]
    },
    "abilityType": "ex"
  }
}
