{
  "_id": "QE5VbR4djXrT67lm",
  "name": "One with Nature",
  "type": "feat",
  "img": "systems/pf1/icons/skills/red_05.jpg",
  "system": {
    "description": {
      "value": "<p>At 16th level, creatures of the animal or plant types don’t attack you unless compelled to do so by magic or you attack them first. Three times per day, you can transport yourself from one tree to another tree, as @Compendium[pf1.spells.6x6epf4g5wgzl1gh]{Tree Stride} with half the transport range. Moving from one tree to another in this manner is a move action. You gain these abilities even while not bloodraging.</p>"
    },
    "actions": [
      {
        "_id": "90pufcg2llpst4dl",
        "name": "Use",
        "img": "systems/pf1/icons/skills/red_05.jpg",
        "activation": {
          "type": "standard",
          "unchained": {
            "cost": 2,
            "type": "action"
          }
        },
        "range": {
          "units": "spec"
        },
        "actionType": ""
      }
    ],
    "uses": {
      "per": "day",
      "maxFormula": "3"
    },
    "tag": "classFeat_oneWithNature",
    "useCustomTag": true,
    "subType": "classFeat",
    "associations": {
      "classes": ["Bloodrager"]
    },
    "abilityType": "su"
  }
}
