{
  "_id": "Jl1NOZFAUYJL9fWn",
  "name": "Oscillation (Stare)",
  "type": "feat",
  "img": "systems/pf1/icons/skills/emerald_11.jpg",
  "system": {
    "description": {
      "value": "<p>The target of the hypnotic stare treats all enemies beyond 30 feet (except the mesmerist) as having concealment (20% miss chance).</p>"
    },
    "tag": "classFeat_oscillationStare",
    "useCustomTag": true,
    "subType": "classFeat",
    "associations": {
      "classes": ["Mesmerist"]
    }
  }
}
