{
  "_id": "dtrEZzlSz9sHomYS",
  "name": "Possession Inquisition",
  "type": "feat",
  "img": "systems/pf1/icons/items/inventory/badge-cross.jpg",
  "system": {
    "description": {
      "value": "<p><b>Granted Powers:</b> You can invade the bodies of lesser beings and command them to bend to your will.</p>"
    },
    "tag": "classFeat_possessionInquisition",
    "useCustomTag": true,
    "subType": "classFeat",
    "associations": {
      "classes": ["Inquisitor"]
    }
  }
}
