{
  "_id": "ecRK9Ih2zHy3rPKB",
  "name": "Pounce (UC) (3 pts)",
  "type": "feat",
  "img": "systems/pf1/icons/skills/blue_26.jpg",
  "system": {
    "description": {
      "value": "<p><b>Requirements:</b> Summoner level 7th, quadruped base form.</p>\n<p>The eidolon gains quick reflexes, allowing it to make a full attack after a charge.</p>"
    },
    "tag": "classFeat_pounceUc3Pts",
    "useCustomTag": true,
    "subType": "classFeat",
    "associations": {
      "classes": ["Eidolon (Unchained)"]
    },
    "abilityType": "ex"
  }
}
