{
  "_id": "wzNzs5M71JUjktPz",
  "name": "Power of the Pit",
  "type": "feat",
  "img": "systems/pf1/icons/skills/yellow_14.jpg",
  "system": {
    "description": {
      "value": "<p>At 20th level, your form becomes infused with vile power. You gain immunity to fire and poison. You also gain resistance to acid 10 and cold 10, and the ability to see perfectly in darkness of any kind to a range of 60 feet.</p>"
    },
    "actions": [
      {
        "_id": "xxipa42ff5dlmcqb",
        "name": "Use",
        "img": "systems/pf1/icons/skills/yellow_14.jpg",
        "activation": {
          "type": "passive",
          "unchained": {
            "type": "passive"
          }
        },
        "actionType": ""
      }
    ],
    "tag": "classFeat_powerOfThePit",
    "useCustomTag": true,
    "subType": "classFeat",
    "associations": {
      "classes": ["Sorcerer"]
    },
    "abilityType": "su"
  }
}
