{
  "_id": "3hBUzYx78WwKJ0uA",
  "name": "Protoplasm",
  "type": "feat",
  "img": "systems/pf1/icons/skills/blue_36.jpg",
  "system": {
    "description": {
      "value": "<p>At 1st level, you can create a ball of entropic protoplasm and hurl it at targets within 30 feet. This protoplasm acts as a <em>tanglefoot bag</em> that also inflicts 1 point of acid damage per round to a creature <em>entangled</em> by it. The protoplasm dissolves within 1d3 rounds. You may use this ability a number of times per day equal to 3 + your <em>Charisma</em> modifier.</p>"
    },
    "actions": [
      {
        "_id": "1qpmigmqn07ccnzq",
        "name": "Use",
        "img": "systems/pf1/icons/skills/blue_36.jpg",
        "activation": {
          "type": "standard",
          "unchained": {
            "cost": 2,
            "type": "action"
          }
        },
        "duration": {
          "value": "1d3",
          "units": "round"
        },
        "target": {
          "value": "one creature"
        },
        "range": {
          "value": "30",
          "units": "spec"
        },
        "actionType": ""
      }
    ],
    "uses": {
      "per": "day",
      "maxFormula": "3 + @abilities.cha.mod"
    },
    "tag": "classFeat_protoplasm",
    "useCustomTag": true,
    "subType": "classFeat",
    "associations": {
      "classes": ["Sorcerer"]
    },
    "abilityType": "sp"
  }
}
