{
  "_id": "RtHPJ1YNm8YWIMVC",
  "name": "Psychic Inception (Stare)",
  "type": "feat",
  "img": "systems/pf1/icons/skills/emerald_11.jpg",
  "system": {
    "description": {
      "value": "<p>The hypnotic stare and its penalty can affect creatures that are mindless or immune to mind-affecting effects (such as an undead or vermin). The mesmerist can also partially affect such a creature with his mind-affecting spells and abilities if it’s under the effect of his hypnotic stare; it gains a +2 bonus on its saving throw (if any), and if affected, it still has a 50% chance each round of ignoring the effect. Ignoring the effect doesn’t end the effect, but does allow the creature to act normally for that round.</p>"
    },
    "tag": "classFeat_psychicInceptionStare",
    "useCustomTag": true,
    "subType": "classFeat",
    "associations": {
      "classes": ["Mesmerist"]
    }
  }
}
