{
  "_id": "rqzRkNGxW1BObVDS",
  "name": "Pushing Infusion",
  "type": "feat",
  "img": "systems/pf1/icons/spells/runes-blue-1.jpg",
  "system": {
    "description": {
      "value": "<p><b>Element</b> aether, air, earth, void, water, wood;</p>\n<p><b>Type</b> substance infusion; <b>Level</b> 1;<b> Burn</b> 1</p>\n<p><b>Associated Blasts</b> air, blizzard, charged water, earth, magma, metal, mud, sandstorm, steam, telekinetic, water</p>\n<p><b>Saving Throw</b> none</p>\n<p>The momentum of your kinetic blast knocks foes back. Attempt a bull rush combat maneuver check against each target damaged by your infused blast, using your Constitution modifier instead of your Strength modifier to determine your bonus. This infusion can push a foe back by a maximum of 5 feet. You can increase the burn cost of this infusion to increase the maximum distance pushed by 5 feet per additional point of burn accepted. You can’t use this infusion with a form infusion such as cloud that causes your kinetic blast to lack a clear direction to push.</p>"
    },
    "tag": "classFeat_pushingInfusion",
    "useCustomTag": true,
    "subType": "classFeat",
    "associations": {
      "classes": ["Kineticist"]
    }
  }
}
