{
  "_id": "jRPCwjOM9ALfqEPn",
  "name": "Quick Healing",
  "type": "feat",
  "img": "systems/pf1/icons/skills/violet_20.jpg",
  "system": {
    "description": {
      "value": "<p>The shaman calls upon her spirit to enhance the speed of her healing abilities. This ability allows her to channel positive energy or cast a cure spell as a swift action.</p>\n<p>The shaman can use this ability a number of times per day equal to her Charisma modifier.</p>"
    },
    "actions": [
      {
        "_id": "5htv332jouxq8qvh",
        "name": "Use",
        "img": "systems/pf1/icons/skills/violet_20.jpg",
        "activation": {
          "type": "special",
          "unchained": {
            "type": "special"
          }
        },
        "actionType": ""
      }
    ],
    "uses": {
      "per": "day",
      "maxFormula": "@abilities.cha.mod"
    },
    "tag": "classFeat_quickHealing",
    "useCustomTag": true,
    "subType": "classFeat",
    "associations": {
      "classes": ["Shaman"]
    },
    "abilityType": "su"
  }
}
