{
  "_id": "B7VI8rlrKjZSuxkF",
  "name": "Raging Leaper",
  "type": "feat",
  "img": "systems/pf1/icons/feats/deafening-critical.jpg",
  "system": {
    "description": {
      "value": "<p>When raging, the barbarian adds her level as an enhancement bonus on all Acrobatics skill checks made to jump. When making a jump in this way, the barbarian is always considered to have a running start.</p>"
    },
    "tag": "classFeat_ragingLeaper",
    "useCustomTag": true,
    "subType": "classFeat",
    "associations": {
      "classes": ["Barbarian", "Skald"]
    },
    "abilityType": "ex"
  }
}
