{
  "_id": "HFpGr3Sb1pb1zOBN",
  "name": "Raging Climber (UC)",
  "type": "feat",
  "img": "systems/pf1/icons/feats/deafening-critical.jpg",
  "system": {
    "description": {
      "value": "<p>The barbarian gains a climb speed equal to 1/2 her base land speed, taking into account her fast movement class feature. She can’t use this climb speed to climb any surface with a DC higher than 20. She also gains a +8 enhancement bonus on Climb checks.</p>"
    },
    "tag": "classFeat_ragingClimberUc",
    "useCustomTag": true,
    "subType": "classFeat",
    "associations": {
      "classes": ["Barbarian (Unchained)"]
    },
    "abilityType": "ex"
  }
}
