{
  "_id": "PvZ0zUindfVX4U6T",
  "name": "Reckless Abandon",
  "type": "feat",
  "img": "systems/pf1/icons/feats/deafening-critical.jpg",
  "system": {
    "description": {
      "value": "<p>While raging, the barbarian can take a –1 penalty to AC to gain a +1 bonus on attack rolls. The AC penalty increases by –1 and the attack roll bonus increases by +1 at 4th level and every four levels thereafter.</p>"
    },
    "tag": "classFeat_recklessAbandon",
    "useCustomTag": true,
    "subType": "classFeat",
    "associations": {
      "classes": ["Barbarian", "Skald"]
    },
    "abilityType": "ex"
  }
}
