{
  "_id": "ZmiX5kCD26MENk4p",
  "name": "Redeemer's Mercy",
  "type": "feat",
  "img": "systems/pf1/icons/items/inventory/badge-cross.jpg",
  "system": {
    "description": {
      "value": "<p>At 4th level, any weapon you wield gains the merciful magic weapon special ability. The weapon immediately reverts to its original abilities when you cease to wield it.</p>"
    },
    "actions": [
      {
        "_id": "yowxv0y7dco1av9a",
        "name": "Use",
        "img": "systems/pf1/icons/items/inventory/badge-cross.jpg",
        "activation": {
          "type": "passive",
          "unchained": {
            "type": "passive"
          }
        },
        "actionType": ""
      }
    ],
    "tag": "classFeat_redeemersMercy",
    "useCustomTag": true,
    "subType": "classFeat",
    "associations": {
      "classes": ["Inquisitor"]
    },
    "abilityType": "su"
  }
}
