{
  "_id": "y4nP7W9asEPjLxJP",
  "name": "Rune Shift",
  "type": "feat",
  "img": "systems/pf1/icons/spells/enchant-sky-1.jpg",
  "system": {
    "description": {
      "value": "<p>At 6th level, as a swift action, you can change the location of one of your blast runes. The rune must be within 30 feet. You can place the blast rune in any square adjacent to you, including one occupied by another creature.</p>\n<p>This power replaces the Spell Rune power of the Rune Domain.</p>"
    },
    "actions": [
      {
        "_id": "r52n31zcumbswzpx",
        "name": "Use",
        "img": "systems/pf1/icons/spells/enchant-sky-1.jpg",
        "activation": {
          "type": "swift",
          "unchained": {
            "type": "action"
          }
        },
        "actionType": ""
      }
    ],
    "tag": "classFeat_runeShift",
    "useCustomTag": true,
    "subType": "classFeat",
    "associations": {
      "classes": ["Cleric"]
    },
    "abilityType": "su"
  }
}
