{
  "_id": "rt3GJF0KGgQ4NgJU",
  "name": "Sabotage (Stare)",
  "type": "feat",
  "img": "systems/pf1/icons/skills/emerald_11.jpg",
  "system": {
    "description": {
      "value": "<p>The hypnotic stare penalty also applies to Diplomacy and Intimidate checks.</p>"
    },
    "tag": "classFeat_sabotageStare",
    "useCustomTag": true,
    "subType": "classFeat",
    "associations": {
      "classes": ["Mesmerist"]
    }
  }
}
