{
  "_id": "0lQssaLmEX0UgSda",
  "name": "Sacred Council",
  "type": "feat",
  "img": "systems/pf1/icons/spells/light-royal-1.jpg",
  "system": {
    "description": {
      "value": "<p>As a move action, you can call upon your ancestors to provide council. This advice grants you a +2 bonus on any one d20 roll. This effect lasts for 1 round. You can use this ability a number of times per day equal to your Charisma bonus.</p>"
    },
    "tags": ["Revelation", "Ancestor Mystery"],
    "actions": [
      {
        "_id": "z2b398m2zcj0w8s5",
        "name": "Use",
        "img": "systems/pf1/icons/spells/light-royal-1.jpg",
        "activation": {
          "type": "move"
        },
        "duration": {
          "value": "1",
          "units": "round"
        },
        "target": {
          "value": "self"
        },
        "range": {
          "units": "personal"
        },
        "actionType": ""
      }
    ],
    "uses": {
      "per": "day",
      "maxFormula": "@abilities.cha.mod"
    },
    "tag": "classFeat_sacredCouncil",
    "useCustomTag": true,
    "subType": "classFeat",
    "associations": {
      "classes": ["Oracle"]
    },
    "abilityType": "su"
  }
}
