{
  "_id": "Q29rN7LtWcTWgtuZ",
  "name": "Saurian Subdomain",
  "type": "feat",
  "img": "systems/pf1/icons/races/lizardfolk.png",
  "system": {
    "description": {
      "value": "<p><b>Replacement Domain Spells:</b></p>\n<ul>\n<li>4th—@Compendium[pf1.spells.choriern682hgptb]{Summon Nature's Ally IV} (deinonychus or pteranodon only),</li>\n<li>5th—@Compendium[pf1.spells.w88ddxpu89qcr5c0]{Beast Shape III}</li>\n<li>7th—@Compendium[pf1.spells.jjmoi5qbwkbguzbn]{Summon Nature's Ally VII} (brachiosaurus or tyrannosaurus only).</li>\n</ul>"
    },
    "tag": "classFeat_saurianSubdomain",
    "useCustomTag": true,
    "subType": "classFeat",
    "associations": {
      "classes": ["Cleric"]
    }
  }
}
