{
  "_id": "jraFSfIrYMzHY5oa",
  "name": "Scroll Mastery",
  "type": "feat",
  "img": "systems/pf1/icons/spells/enchant-red-3.jpg",
  "system": {
    "description": {
      "value": "<p>Whenever the magus uses a scroll, he may expend 1 point from his arcane pool to allow him to calculate the DC for any spell contained on the scroll using his Intelligence modifier, instead of the minimum modifier needed cast a spell of that level.</p>\n<p>The magus must be at least 6th level before selecting this arcana.</p>"
    },
    "tag": "classFeat_scrollMastery",
    "useCustomTag": true,
    "subType": "classFeat",
    "associations": {
      "classes": ["Magus"]
    },
    "abilityType": "su"
  }
}
