{
  "_id": "Owu0KhwUC4v9JUwB",
  "name": "Scryer Subschool",
  "type": "feat",
  "img": "systems/pf1/icons/spells/protect-blue-3.jpg",
  "system": {
    "description": {
      "value": "<p><b>Associated School:</b> <em>Divination</em>.</p>\n<p><b>Replacement Power:</b> This subschool replaces the diviner’s fortune power of the <em>divination</em> school.</p>"
    },
    "tag": "classFeat_scryerSubschool",
    "useCustomTag": true,
    "subType": "classFeat",
    "associations": {
      "classes": ["Wizard"]
    }
  }
}
