{
  "_id": "Ys80lz23xOhLTiax",
  "name": "See the Unseen",
  "type": "feat",
  "img": "systems/pf1/icons/items/weapons/kunai.png",
  "system": {
    "description": {
      "value": "<p>A ninja with this trick learns how to see that which cannot be seen. As a swift action, the ninja can cast @Compendium[pf1.spells.nokru6mxk9p3r513]{See Invisibility}, using her level as the caster level.</p>\n<p>Each use of this ability uses up 1 ki point.</p>"
    },
    "tags": ["Master Trick"],
    "actions": [
      {
        "_id": "fcnzb5ua062ewugj",
        "name": "Use",
        "img": "systems/pf1/icons/items/weapons/kunai.png",
        "activation": {
          "type": "swift",
          "unchained": {
            "type": "action"
          }
        },
        "duration": {
          "value": "10 * @classes.ninja.level",
          "units": "minute"
        },
        "target": {
          "value": "self"
        },
        "range": {
          "units": "personal"
        },
        "actionType": ""
      }
    ],
    "tag": "classFeat_seeTheUnseen",
    "useCustomTag": true,
    "subType": "classFeat",
    "associations": {
      "classes": ["Ninja"]
    },
    "abilityType": "su"
  }
}
