{
  "_id": "m8EVRMw5zntAIuqQ",
  "name": "Seismic Master",
  "type": "feat",
  "img": "systems/pf1/icons/spells/rock-sky-3.jpg",
  "system": {
    "description": {
      "value": "<p><b>Element</b> earth; <b>Type</b> utility (Sp); <b>Level</b> 9; <b>Burn</b> 0</p>\n<p>You can focus on your connection to earth and create a localized tremor, as the @Compendium[pf1.spells.a5gcbpwfhu4hh5ic]{Earthquake} spell.</p>"
    },
    "tag": "classFeat_seismicMaster",
    "useCustomTag": true,
    "subType": "classFeat",
    "associations": {
      "classes": ["Kineticist"]
    },
    "abilityType": "sp"
  }
}
