{
  "_id": "vX5XU5duSaFc9PfU",
  "name": "Servant of Winter",
  "type": "feat",
  "img": "systems/pf1/icons/spells/light-royal-1.jpg",
  "system": {
    "description": {
      "value": "<p>As a full-round action, you can summon a single ice elemental (Pathfinder RPG Bestiary 2 114) to serve you.</p>\n<p>At 7th level, you can summon a Medium ice elemental, as @Compendium[pf1.spells.aqri3zf6mzgd4di6]{Summon Monster IV}.</p>\n<p>At 11th level, you can summon a Huge ice elemental, as @Compendium[pf1.spells.mf6k8tg8xu0wedoz]{Summon Monster VI}.</p>\n<p>At 15th level, you can summon an elder ice elemental, as @Compendium[pf1.spells.j91n23p4tfjixp3s]{Summon Monster VIII}.</p>\n<p>You can use this ability once per day, plus one additional time per day at 15th level.</p>\n<p>You must be at least 7th level before selecting this revelation.</p>"
    },
    "actions": [
      {
        "_id": "lkqwcz9pezi0wnmb",
        "name": "Use",
        "img": "systems/pf1/icons/spells/light-royal-1.jpg",
        "activation": {
          "type": "full",
          "unchained": {
            "cost": 3,
            "type": "action"
          }
        },
        "duration": {
          "value": "@classes.oracle.level",
          "units": "round"
        },
        "actionType": ""
      }
    ],
    "uses": {
      "per": "day",
      "maxFormula": "@classes.oracle.level >= 15 ? 2 : 1"
    },
    "tag": "classFeat_servantOfWinter",
    "useCustomTag": true,
    "subType": "classFeat",
    "associations": {
      "classes": ["Oracle"]
    },
    "abilityType": "sp"
  }
}
