{
  "_id": "NzwoSidXhKfytzPu",
  "name": "Shape Mastery",
  "type": "feat",
  "img": "systems/pf1/icons/items/weapons/lantern-staff.png",
  "system": {
    "description": {
      "value": "<p>As part of casting an evocation spell with an area of effect, you can expend a number of points of mental focus up to your Intelligence modifier to exclude an equal number of squares from the area.</p>"
    },
    "tag": "classFeat_shapeMastery",
    "useCustomTag": true,
    "subType": "classFeat",
    "associations": {
      "classes": ["Occultist"]
    },
    "abilityType": "su"
  }
}
