{
  "_id": "AaZ3OdpKFsMC6dFg",
  "name": "Shield Ally",
  "type": "feat",
  "img": "systems/pf1/icons/spells/protect-blue-1.jpg",
  "system": {
    "description": {
      "value": "<p>At 4th level, whenever a summoner is within his eidolon’s reach, the summoner receives a +2 shield bonus to his Armor Class and a +2 circumstance bonus on his saving throws. This bonus does not apply if the eidolon is grappled, helpless, paralyzed, stunned, or unconscious.</p>"
    },
    "actions": [
      {
        "_id": "c41g74a1zwkwmf5o",
        "name": "Use",
        "img": "systems/pf1/icons/spells/protect-blue-1.jpg",
        "activation": {
          "type": "passive",
          "unchained": {
            "type": "passive"
          }
        },
        "actionType": ""
      }
    ],
    "tag": "classFeat_shieldAlly",
    "useCustomTag": true,
    "subType": "classFeat",
    "associations": {
      "classes": ["Summoner"]
    },
    "abilityType": "ex"
  }
}
