{
  "_id": "AHWkQTHrIg0BZ2HV",
  "name": "Shift Earth, Greater",
  "type": "feat",
  "img": "systems/pf1/icons/spells/rock-sky-3.jpg",
  "system": {
    "description": {
      "value": "<p><b>Element</b> earth; <b>Type</b> utility (Sp); <b>Level</b> 7; <b>Burn</b> 0<br><b>Prerequisite</b> kinetic cover, shift earth</p>\n<p>You can move greater quantities of earth, as the spell @Compendium[pf1.spells.ukuyfbufbglbzfco]{Move Earth}.</p>"
    },
    "actions": [
      {
        "_id": "zq0lm5nfl2rx454q",
        "name": "Use",
        "img": "systems/pf1/icons/spells/rock-sky-3.jpg",
        "activation": {
          "type": "standard",
          "unchained": {
            "cost": 2,
            "type": "action"
          }
        },
        "uses": {
          "autoDeductChargesCost": "0"
        },
        "actionType": ""
      }
    ],
    "tag": "classFeat_shiftEarthGreater",
    "useCustomTag": true,
    "subType": "classFeat",
    "associations": {
      "classes": ["Kineticist"]
    },
    "abilityType": "sp"
  }
}
