{
  "_id": "8Ond4JNuSk71RuHM",
  "name": "Sink",
  "type": "feat",
  "img": "systems/pf1/icons/skills/violet_02.jpg",
  "system": {
    "description": {
      "value": "<p>The witch can cause a creature in water to struggle, imposing a –4 penalty on its Swim checks and reducing its swim speed (if any) by 10 feet for 1 minute unless it succeeds at a Fortitude saving throw; on a successful save, the effect’s duration is reduced to 1 round.</p>\n<p>The duration of this hex can be extended with the cackle hex.</p>\n<p>This hex does not stack with itself.</p>"
    },
    "tags": ["Hex"],
    "actions": [
      {
        "_id": "cvq1vpe0ehsbdiqi",
        "name": "Use",
        "img": "systems/pf1/icons/skills/violet_02.jpg",
        "activation": {
          "type": "standard",
          "unchained": {
            "cost": 2,
            "type": "action"
          }
        },
        "duration": {
          "value": "1",
          "units": "minute"
        },
        "target": {
          "value": "one creature"
        },
        "range": {
          "value": "30",
          "units": "ft"
        },
        "actionType": "save",
        "save": {
          "dc": "10 + floor(@classes.witch.level / 2) + @abilities.int.mod",
          "type": "fort",
          "description": "Fortitude reduces duration to 1 round"
        }
      }
    ],
    "tag": "classFeat_sink",
    "useCustomTag": true,
    "subType": "classFeat",
    "associations": {
      "classes": ["Witch"]
    },
    "abilityType": "su"
  }
}
