{
  "_id": "bygMUy6D8xl98Bdj",
  "name": "Skilled (UC) (1 pt)",
  "type": "feat",
  "img": "systems/pf1/icons/skills/blue_26.jpg",
  "system": {
    "description": {
      "value": "<p>The eidolon becomes especially adept at a specific skill, gaining a +8 racial bonus on that skill.</p>\n<p>This evolution can be selected more than once. Its effects do not stack. Each time the eidolon selects this evolution, it applies to a different skill.</p>"
    },
    "tag": "classFeat_skilledUc1Pt",
    "useCustomTag": true,
    "subType": "classFeat",
    "associations": {
      "classes": ["Eidolon (Unchained)"]
    },
    "abilityType": "ex"
  }
}
