{
  "_id": "FXSiQ0ppo3K6Xsrg",
  "name": "Spirit Bonus",
  "type": "feat",
  "img": "systems/pf1/icons/skills/affliction_05.jpg",
  "system": {
    "description": {
      "value": "<p>When a medium channels a spirit, he gains a bonus on certain checks and to certain statistics, depending on the spirit. A 1st-level medium’s spirit bonus is +1; it increases by 1 at 4th level and every 4 levels thereafter.</p>"
    },
    "tag": "classFeat_spiritBonus",
    "useCustomTag": true,
    "subType": "classFeat",
    "associations": {
      "classes": ["Medium"]
    },
    "abilityType": "su"
  }
}
