{
  "_id": "VTSxRzsa79oMALLt",
  "name": "Stake",
  "type": "feat",
  "img": "systems/pf1/icons/items/weapons/kobold-tail-attachment.png",
  "system": {
    "description": {
      "value": "<p>At 4th level, any piercing weapon or sharp tool (such as a piton) a vampire hunter drives through a vampire’s heart is treated as a <em>wooden stake</em> for purposes of creatures who are vulnerable to them. If this improvised stake is removed, the vampire returns to life as normal.</p>"
    },
    "actions": [
      {
        "_id": "85g77jiad3imz3oi",
        "name": "Use",
        "img": "systems/pf1/icons/items/weapons/kobold-tail-attachment.png",
        "activation": {
          "type": "passive",
          "unchained": {
            "type": "passive"
          }
        },
        "actionType": ""
      }
    ],
    "tag": "classFeat_stake",
    "useCustomTag": true,
    "subType": "classFeat",
    "associations": {
      "classes": ["Vampire Hunter"]
    },
    "abilityType": "su"
  }
}
