{
  "_id": "mQHVX4j8EV41R6je",
  "name": "Stalker Sense",
  "type": "feat",
  "img": "systems/pf1/icons/feats/deceitful.jpg",
  "system": {
    "description": {
      "value": "<p>The vigilante has a sense for danger. He always acts on the surprise round.</p>\n<p>At 6th level, he gains uncanny dodge, and at 12th level, he gains improved uncanny dodge.</p>\n<p>Only a stalker can select this talent.</p>"
    },
    "tag": "classFeat_stalkerSense",
    "useCustomTag": true,
    "subType": "classFeat",
    "associations": {
      "classes": ["Vigilante"]
    },
    "abilityType": "ex"
  }
}
