{
  "_id": "ftbs2zmoNGadFMMw",
  "name": "Stealing Strike",
  "type": "feat",
  "img": "systems/pf1/icons/items/weapons/sword-cane.png",
  "system": {
    "description": {
      "value": "<p>When the investigator deals damage with studied strike, he can perform a steal combat maneuver as a free action against the creature damaged by studied strike. This steal does not provoke attacks of opportunity.</p>\n<p>An investigator must be at least 13th level to select this talent.</p>"
    },
    "actions": [
      {
        "_id": "m52w0jj71gkd8x42",
        "name": "Use",
        "img": "systems/pf1/icons/items/weapons/sword-cane.png",
        "activation": {
          "type": "free",
          "unchained": {
            "type": "free"
          }
        },
        "actionType": ""
      }
    ],
    "tag": "classFeat_stealingStrike",
    "useCustomTag": true,
    "subType": "classFeat",
    "associations": {
      "classes": ["Investigator"]
    },
    "abilityType": "ex"
  }
}
