{
  "_id": "iqNzKtzwCxJOCfIj",
  "name": "Steelbreaker Skin",
  "type": "feat",
  "img": "systems/pf1/icons/spells/light-royal-1.jpg",
  "system": {
    "description": {
      "value": "<p>As a standard action, you can harden your flesh so that weapons that strike you are damaged or destroyed. Anytime a melee or ranged weapon strikes you, the weapon takes an amount of damage equal to your oracle level. This ability does not prevent the weapon from harming you unless the damage destroys the weapon attacking you.</p>\n<p>You can use this ability once per day, but the duration is 1 minute/level.</p>\n<p>You must be at least 7th level to select this revelation.</p>\n<p>At 15th level, the damage from this ability ignores up to 10 points of hardness.</p>"
    },
    "actions": [
      {
        "_id": "e7ag8zbo1gvffz6p",
        "name": "Use",
        "img": "systems/pf1/icons/spells/light-royal-1.jpg",
        "activation": {
          "type": "standard",
          "unchained": {
            "cost": 2,
            "type": "action"
          }
        },
        "duration": {
          "value": "@classes.oracle.level",
          "units": "minute"
        },
        "target": {
          "value": "self"
        },
        "range": {
          "units": "personal"
        },
        "actionType": ""
      }
    ],
    "uses": {
      "per": "day",
      "maxFormula": "1"
    },
    "tag": "classFeat_steelbreakerSkin",
    "useCustomTag": true,
    "subType": "classFeat",
    "associations": {
      "classes": ["Oracle"]
    },
    "abilityType": "su"
  }
}
