{
  "_id": "0Re4yOFRYfwaOWu4",
  "name": "Sticky (1 pt)",
  "type": "feat",
  "img": "systems/pf1/icons/skills/blue_26.jpg",
  "system": {
    "description": {
      "value": "<p>The eidolon is especially sticky, whether from a coating of adhesive slime, partially congealed blood, or tiny barbed spines. The eidolon gains a +4 bonus on combat maneuver checks to initiate or maintain a grapple.</p>"
    },
    "tag": "classFeat_sticky1Pt",
    "useCustomTag": true,
    "subType": "classFeat",
    "associations": {
      "classes": ["Eidolon"]
    },
    "abilityType": "ex"
  }
}
