{
  "_id": "asX1tCPLkhm2UiwQ",
  "name": "Strength of the Abyss",
  "type": "feat",
  "img": "systems/pf1/icons/skills/yellow_14.jpg",
  "system": {
    "description": {
      "value": "<p>At 9th level, you gain a +2 inherent bonus to your <em>Strength</em>. This bonus increases to +4 at 13th level, and to +6 at 17th level.</p>"
    },
    "actions": [
      {
        "_id": "rfrrzw7jzloevw59",
        "name": "Use",
        "img": "systems/pf1/icons/skills/yellow_14.jpg",
        "activation": {
          "type": "passive",
          "unchained": {
            "type": "passive"
          }
        },
        "actionType": ""
      }
    ],
    "changes": [
      {
        "_id": "6wg7svns",
        "formula": "@classes.sorcerer.level >= 17 ? 6 : ((@classes.sorcerer.level > 12 && @classes.sorcerer.level < 17) ? 4 : 2)",
        "subTarget": "str",
        "modifier": "inherent"
      }
    ],
    "tag": "classFeat_strengthOfTheAbyss",
    "useCustomTag": true,
    "subType": "classFeat",
    "associations": {
      "classes": ["Sorcerer"]
    },
    "abilityType": "ex"
  }
}
