{
  "_id": "xWWRrTwWs6rOUeAN",
  "name": "Strike the Unseen",
  "type": "feat",
  "img": "systems/pf1/icons/feats/deceitful.jpg",
  "system": {
    "description": {
      "value": "<p>The vigilante gains Blind-Fight as a bonus feat. He can also deal hidden strike damage against targets with total concealment.</p>\n<p>At 10th level, he gains Improved Blind-Fight as a bonus feat and can deal all types of precision damage against targets with concealment or total concealment.</p>\n<p>At 16th level, he gains Greater Blind-Fight as a bonus feat.</p>\n<p>The vigilante does not have to meet the prerequisites for either Improved Blind-Fight or Greater Blind-Fight to gain these feats with this talent.</p>"
    },
    "tag": "classFeat_strikeTheUnseen",
    "useCustomTag": true,
    "subType": "classFeat",
    "associations": {
      "classes": ["Vigilante"]
    },
    "abilityType": "ex"
  }
}
