{
  "_id": "uswQ2zk1hUjmhMxH",
  "name": "Sudden Insight",
  "type": "feat",
  "img": "systems/pf1/icons/items/inventory/book-purple.jpg",
  "system": {
    "description": {
      "value": "<p>As a swift action, you can expend 1 point of mental focus to gain an insight into your immediate future. You can use this foreknowledge as a free action before you roll any ability check, attack roll, or skill check to gain an insight bonus on that roll equal to 1/2 your occultist level (minimum +1).</p>\n<p>You can use your foreknowledge only once per turn, and if it’s not used by the end of your turn, the insight fades and you gain no benefit.</p>"
    },
    "actions": [
      {
        "_id": "m7p1t3t9w6r97g2b",
        "name": "Use",
        "img": "systems/pf1/icons/items/inventory/book-purple.jpg",
        "activation": {
          "type": "swift",
          "unchained": {
            "type": "action"
          }
        },
        "actionType": ""
      }
    ],
    "tag": "classFeat_suddenInsight",
    "useCustomTag": true,
    "subType": "classFeat",
    "associations": {
      "classes": ["Occultist"]
    },
    "abilityType": "sp"
  }
}
