{
  "_id": "yT6HcNOL5GhlVCvB",
  "name": "Summer Patron",
  "type": "feat",
  "img": "systems/pf1/icons/feats/improved-familiar.jpg",
  "system": {
    "description": {
      "value": "<ul>\n<li>2nd — @Compendium[pf1.spells.k4whhwm1dsz2upkm]{Goodberry}</li>\n<li>4th — @Compendium[pf1.spells.lzos34s87qsc620l]{Flaming Sphere}</li>\n<li>6th — @Compendium[pf1.spells.7x2z0i8rcx7s81fk]{Daylight}</li>\n<li>8th — @Compendium[pf1.spells.ph3krpxerzptnwbl]{Flaming Sphere, Greater}</li>\n<li>10th — @Compendium[pf1.spells.92hth51cs9oi0nfe]{Wall Of Fire}</li>\n<li>12th — @Compendium[pf1.spells.nk37t5em8q4v1djs]{Sirocco}</li>\n<li>14th — @Compendium[pf1.spells.vax8ojz8g3oovwzu]{Sunbeam}</li>\n<li>16th — @Compendium[pf1.spells.j2mwv9wfxhqch10g]{Sunburst}</li>\n<li>18th — @Compendium[pf1.spells.qk3oeq4awbc1smjw]{Fiery Body}</li>\n</ul>"
    },
    "tag": "classFeat_summerPatron",
    "useCustomTag": true,
    "subType": "classFeat",
    "associations": {
      "classes": ["Witch"]
    }
  }
}
