{
  "_id": "sYLJPjJ0t5x0mrg2",
  "name": "Summon Nature's Spirits",
  "type": "feat",
  "img": "systems/pf1/icons/spells/light-royal-1.jpg",
  "system": {
    "description": {
      "value": "<p>Once per day, as a standard action, you may cast a summon monster spell of a level up to the highest level you can cast. You may only summon elementals in this manner, but are treated as having the @Compendium[pf1.feats.7bJjKqNRrvpXJ4L3]{Augment Summoning} feat when you do so.</p>\n<p>You must be at least 5th level to select this revelation.</p>"
    },
    "actions": [
      {
        "_id": "f42k5nfsqrbvy09j",
        "name": "Use",
        "img": "systems/pf1/icons/spells/light-royal-1.jpg",
        "activation": {
          "type": "standard",
          "unchained": {
            "cost": 2,
            "type": "action"
          }
        },
        "duration": {
          "value": "@classes.oracle.level",
          "units": "round"
        },
        "range": {
          "units": "close"
        },
        "actionType": ""
      }
    ],
    "uses": {
      "per": "day",
      "maxFormula": "1"
    },
    "tag": "classFeat_summonNaturesSpirits",
    "useCustomTag": true,
    "subType": "classFeat",
    "associations": {
      "classes": ["Oracle"]
    },
    "abilityType": "sp"
  }
}
