{
  "_id": "p2rH72Rek1VmtJ4X",
  "name": "Sun Totem, Lesser",
  "type": "feat",
  "img": "systems/pf1/icons/feats/deafening-critical.jpg",
  "system": {
    "description": {
      "value": "<p>The sun’s fire invigorates the barbarian. She is immune to environmental effects from heat and severe heat, and she gains a +2 bonus on Fortitude saves against the effects of extreme heat. In addition, the barbarian gains fire resistance 5 while raging.</p>"
    },
    "tag": "classFeat_sunTotemLesser",
    "useCustomTag": true,
    "subType": "classFeat",
    "associations": {
      "classes": ["Barbarian", "Skald"]
    },
    "abilityType": "su"
  }
}
