{
  "_id": "wdxsjPBwtuMHUJfi",
  "name": "Sure-Footed",
  "type": "feat",
  "img": "systems/pf1/icons/feats/deceitful.jpg",
  "system": {
    "description": {
      "value": "<p>The vigilante can move at full speed while using the Stealth and Acrobatics skills without penalty.</p>\n<p>At 8th level, he can move at full speed across difficult terrain.</p>"
    },
    "tag": "classFeat_surefooted",
    "useCustomTag": true,
    "subType": "classFeat",
    "associations": {
      "classes": ["Vigilante"]
    },
    "abilityType": "ex"
  }
}
