{
  "_id": "c5anvABG4nXco4pn",
  "name": "Swift Consume",
  "type": "feat",
  "img": "systems/pf1/icons/spells/runes-blue-2.jpg",
  "system": {
    "description": {
      "value": "<p>The arcanist can use the consume spells class feature or the consume magic items exploit as swift actions instead of as move actions.</p>"
    },
    "tags": ["Arcanist Exploit"],
    "tag": "classFeat_swiftConsume",
    "useCustomTag": true,
    "subType": "classFeat",
    "associations": {
      "classes": ["Arcanist"]
    },
    "abilityType": "ex"
  }
}
