{
  "_id": "G2Wg74l9PivwF7s6",
  "name": "Swine",
  "type": "feat",
  "img": "systems/pf1/icons/skills/violet_02.jpg",
  "system": {
    "description": {
      "value": "<p>The witch can partially transform an enemy into a pig. The effects of the transformation are mostly cosmetic and do not change the creature’s size category or overall shape, but the affected creature takes a –2 penalty on Will saving throws for a number of rounds equal to the witch’s Intelligence modifier (Will negates).</p>\n<p>At 8th level, the affected creature’s hands (or paws) turn into hooves, preventing it from using claw attacks or taking any action that would require the creature to use its fingers.</p>"
    },
    "tags": ["Hex"],
    "actions": [
      {
        "_id": "gk9hwsjpma8q5pec",
        "name": "Use",
        "img": "systems/pf1/icons/skills/violet_02.jpg",
        "activation": {
          "type": "standard",
          "unchained": {
            "cost": 2,
            "type": "action"
          }
        },
        "duration": {
          "value": "@classes.witch.level",
          "units": "round"
        },
        "target": {
          "value": "one creature"
        },
        "range": {
          "value": "30",
          "units": "ft"
        },
        "actionType": "save",
        "save": {
          "dc": "10 + floor(@classes.witch.level / 2) + @abilities.int.mod",
          "type": "will",
          "description": "Will negates"
        }
      }
    ],
    "tag": "classFeat_swine",
    "useCustomTag": true,
    "subType": "classFeat",
    "associations": {
      "classes": ["Witch"]
    },
    "abilityType": "su"
  }
}
