{
  "_id": "IlHsGNP2P7U035Hk",
  "name": "Thievery Subdomain",
  "type": "feat",
  "img": "systems/pf1/icons/skills/gray_05.jpg",
  "system": {
    "description": {
      "value": "<p><b>Replacement Domain Spells:</b></p>\n<ul>\n<li>3rd—@Compendium[pf1.spells.tcnirpnzjdaym1fd]{Locate Object}</li>\n<li>7th—@Compendium[pf1.spells.btccs4sjo2nog1a0]{Ethereal Jaunt}</li>\n</ul>"
    },
    "tag": "classFeat_thieverySubdomain",
    "useCustomTag": true,
    "subType": "classFeat",
    "associations": {
      "classes": ["Cleric"]
    }
  }
}
