{
  "_id": "1Pet36slFRkEoifJ",
  "name": "Torrent Infusion",
  "type": "feat",
  "img": "systems/pf1/icons/spells/ice-blue-2.jpg",
  "system": {
    "description": {
      "value": "<p><b>Element</b> air, fire, water; <b>Type</b> form infusion; <b>Level</b> 3; <b>Burn</b> 2<br><b>Associated Blasts</b> air, blizzard, blue flame, charged water, fire, magma, mud, plasma, sandstorm, steam, thunderstorm, water<br><b>Saving Throw</b> Reflex half</p>\n<p>A torrent of energy buffets or burns all foes in a 30-foot line, dealing half your normal amount of blast damage (or full damage for energy blasts). The saving throw DC is Dexterity-based.</p>"
    },
    "actions": [
      {
        "_id": "n85udxi957lv3kdv",
        "name": "Use",
        "img": "systems/pf1/icons/spells/ice-blue-2.jpg",
        "actionType": "save",
        "save": {
          "type": "ref",
          "description": "Reflex half"
        }
      }
    ],
    "tag": "classFeat_torrentInfusion",
    "useCustomTag": true,
    "subType": "classFeat",
    "associations": {
      "classes": ["Kineticist"]
    }
  }
}
