{
  "_id": "ntWxsD3IqoRfyB0r",
  "name": "Touch of Loyalty",
  "type": "feat",
  "img": "systems/pf1/icons/skills/yellow_08.jpg",
  "system": {
    "description": {
      "value": "<p>As a standard action, you can touch a willing creature, granting it a +4 sacred bonus on saving throws to resist charm, compulsion, and fear effects for 1 hour. You can use this ability a number of times per day equal to 3 + your Wisdom modifier.</p>\n<p>This replaces the Touch of Law power of the Law Domain.</p>"
    },
    "actions": [
      {
        "_id": "jouy906o7wc5etn6",
        "name": "Use",
        "img": "systems/pf1/icons/skills/yellow_08.jpg",
        "activation": {
          "type": "standard",
          "unchained": {
            "cost": 2,
            "type": "action"
          }
        },
        "duration": {
          "value": "1",
          "units": "hour"
        },
        "target": {
          "value": "creature touched"
        },
        "range": {
          "units": "touch"
        },
        "actionType": ""
      }
    ],
    "uses": {
      "per": "day",
      "maxFormula": "3 + @abilities.wis.mod"
    },
    "tag": "classFeat_touchOfLoyalty",
    "useCustomTag": true,
    "subType": "classFeat",
    "associations": {
      "classes": ["Cleric"]
    },
    "abilityType": "su"
  }
}
