{
  "_id": "JYrSnCCa1EunZ2pK",
  "name": "Touch of Acid",
  "type": "feat",
  "img": "systems/pf1/icons/spells/light-royal-1.jpg",
  "system": {
    "description": {
      "value": "<p>As a standard action, you can perform a melee touch attack that deals 1d6 points of acid damage +1 point for every two oracle levels you possess.</p>\n<p>You can use this ability a number of times per day equal to 3 + your Charisma modifier.</p>\n<p>At 11th level, any weapon that you wield deals +1d6 points of acid damage, similar to how a flaming weapon operates.</p>"
    },
    "actions": [
      {
        "_id": "t9vspwjlqblkd7b6",
        "name": "Use",
        "img": "systems/pf1/icons/spells/light-royal-1.jpg",
        "activation": {
          "type": "standard",
          "unchained": {
            "cost": 2,
            "type": "action"
          }
        },
        "duration": {
          "units": "inst"
        },
        "target": {
          "value": "creature touched"
        },
        "range": {
          "units": "touch"
        },
        "actionType": ""
      }
    ],
    "uses": {
      "per": "day",
      "maxFormula": "3 + @abilities.cha.mod"
    },
    "tag": "classFeat_touchOfAcid",
    "useCustomTag": true,
    "subType": "classFeat",
    "associations": {
      "classes": ["Oracle"]
    },
    "abilityType": "su"
  }
}
