{
  "_id": "pctNgVcWt0SJZcxz",
  "name": "Trapfinding (SLA)",
  "type": "feat",
  "img": "systems/pf1/icons/items/weapons/rhoka.PNG",
  "system": {
    "description": {
      "value": "<p>The slayer gains Disable Device as a class skill. The slayer also gains the @UUID[Compendium.pf1.class-abilities.pEODJDoTk7uhCZY7]{trapfinding} and @UUID[Compendium.pf1.class-abilities.BoEkMviJrW0PKmhj]{trap sense} rogue abilities, using his slayer level as his effective rogue level.</p>"
    },
    "changes": [
      {
        "_id": "dzjkz8b1",
        "formula": "max(1, floor(@classes.slayer.level / 2))",
        "subTarget": "skill.dev",
        "modifier": "untyped"
      }
    ],
    "contextNotes": [
      {
        "text": "+[[max(1, floor(@classes.slayer.level / 2))]] vs Traps",
        "target": "skill",
        "subTarget": "skill.per"
      }
    ],
    "tag": "classFeat_trapfindingSla",
    "useCustomTag": true,
    "subType": "classFeat",
    "associations": {
      "classes": ["Slayer"]
    },
    "abilityType": "ex",
    "classSkills": {
      "dev": true
    }
  }
}
