{
  "_id": "dUwaRTrCb11r1ir2",
  "name": "Turning Shield",
  "type": "feat",
  "img": "systems/pf1/icons/spells/shielding-spirit-2.jpg",
  "system": {
    "description": {
      "value": "<p>The psychic can turn her excess spell energy into a barrier that def lects weaker spells. She can spend a number of points from her phrenic pool equal to the linked spell’s level to gain the benefit of spell turning for 1 round per psychic level.</p>\n<p>The number of spell levels she can turn is equal to the level of the linked spell.</p>"
    },
    "actions": [
      {
        "_id": "61utfwb1j0ooqgr5",
        "name": "Use",
        "img": "systems/pf1/icons/spells/shielding-spirit-2.jpg",
        "activation": {
          "type": "free",
          "unchained": {
            "type": "free"
          }
        },
        "actionType": ""
      }
    ],
    "tag": "classFeat_turningShield",
    "useCustomTag": true,
    "subType": "classFeat",
    "associations": {
      "classes": ["Psychic"]
    },
    "abilityType": "su"
  }
}
