{
  "_id": "UpeasYXOlT5nWAHp",
  "name": "Vampiric Call",
  "type": "feat",
  "img": "systems/pf1/icons/skills/beast_02.jpg",
  "system": {
    "description": {
      "value": "<p>The vampire hunter summons base creatures of the night—bats, rats, insects, and the like—to swarm around him. These creatures provide a measure of defense against damage, granting the vampire hunter a number of <em>temporary hit points</em> equal to his level. At 8th level, he also gains a +2 <em>deflection bonus</em> to AC. At 16th level, the <em>deflection bonus</em> increases to +4.</p>"
    },
    "actions": [
      {
        "_id": "xfjrh6i14dgczv4p",
        "name": "Use",
        "img": "systems/pf1/icons/skills/beast_02.jpg",
        "activation": {
          "type": "passive",
          "unchained": {
            "type": "passive"
          }
        },
        "actionType": ""
      }
    ],
    "changes": [
      {
        "_id": "ltdmlj0m",
        "formula": "@classes.vampirehunter.level >= 16 ? 4 : ((@classes.vampirehunter.level < 16 && @classes.vampirehunter.level > 7) ? 2 : 0)",
        "subTarget": "ac",
        "modifier": "deflection"
      }
    ],
    "tag": "classFeat_vampiricCall",
    "useCustomTag": true,
    "subType": "classFeat",
    "associations": {
      "classes": ["Vampire Hunter"]
    },
    "abilityType": "su"
  }
}
