{
  "_id": "zJmfMLrARxxUrxcK",
  "name": "Venom Infusion, Greater",
  "type": "feat",
  "img": "systems/pf1/icons/spells/runes-blue-1.jpg",
  "system": {
    "description": {
      "value": "<p><b>Element</b> universal; <b>Type</b> substance infusion; <b>Level</b> 7; <b>Burn</b> 4<br><b>Prerequisite</b> venom speaker, venom infusion<br><b>Associated Blasts</b> any simple or composite<br><b>Saving Throw</b> Fortitude negates</p>\n<p>This talent functions as the <a href=\"https://aonprd.com/KineticistTalentsDisplay.aspx?ItemName=Greater%20Toxic%20Infusion\">greater toxic infusion</a> wild talent, except it affects any creature that takes any type of damage from the blast.</p>"
    },
    "actions": [
      {
        "_id": "bwtmscwat2cngtsf",
        "name": "Use",
        "img": "systems/pf1/icons/spells/runes-blue-1.jpg",
        "actionType": "save",
        "save": {
          "type": "fort",
          "description": "Fortitude negates"
        }
      }
    ],
    "tag": "classFeat_venomInfusionGreater",
    "useCustomTag": true,
    "subType": "classFeat",
    "associations": {
      "classes": ["Kineticist"]
    }
  }
}
