{
  "_id": "yzmKDxR63yS5fqlc",
  "name": "Venom Immunity",
  "type": "feat",
  "img": "systems/pf1/icons/skills/green_23.jpg",
  "system": {
    "description": {
      "value": "<p>At 9th level, a druid gains immunity to all poisons.</p>"
    },
    "actions": [
      {
        "_id": "3np3j6agku4kykg0",
        "name": "Use",
        "img": "systems/pf1/icons/skills/green_23.jpg",
        "activation": {
          "type": "passive",
          "unchained": {
            "type": "passive"
          }
        },
        "actionType": ""
      }
    ],
    "tag": "classFeat_venomImmunity",
    "useCustomTag": true,
    "subType": "classFeat",
    "associations": {
      "classes": ["Druid"]
    },
    "abilityType": "ex"
  }
}
