{
  "_id": "q6cUN7EJnzjUBgbA",
  "name": "Vestige Bloodrager Bloodline",
  "type": "feat",
  "img": "systems/pf1/icons/skills/red_13.jpg",
  "system": {
    "description": {
      "value": "<p><em>You are the descendant of great heroes from a lost civilization.</em><p><b>Bonus Feats:</b></p>\n<ul>\n<li>@Compendium[pf1.feats.u7rGDZUL296QIuA0]{Combat Casting}</li>\n<li>@Compendium[pf1.feats.BJBC4lbo7xGWPsKJ]{Exotic Weapon Proficiency}</li>\n<li>@Compendium[pf1.feats.IER2MzJrjSvxMlNS]{Greater Weapon Focus}*,</li>\n<li>@Compendium[pf1.feats.asmQDyDYTtuXg8b4]{Greater Weapon Specialization}*,</li>\n<li>@Compendium[pf1.feats.iAbIGhm7T2OK9Brt]{Iron Will}</li>\n<li>@Compendium[pf1.feats.n250dFlbykAIAg5Z]{Weapon Focus}</li>\n<li>@Compendium[pf1.feats.YLCvMNeAF9V31m1h]{Weapon Specialization}*.</li>\n</ul>\n<p>(The bloodrager counts his total bloodrager levels as fighter levels for the purpose of qualifying for any feats marked with an asterisk [*]. If he also has levels in fighter, these levels stack.)</p>\n<p><b>Bonus Spells:</b> </p>\n<ul>\n<li>@Compendium[pf1.spells.xco22162bwgxn7pj]{True Strike} (7th), </li>\n<li>@Compendium[pf1.spells.3ze0kso9hxff5u2f]{False Life} (10th), </li>\n<li>@Compendium[pf1.spells.zpwd0f19q1lm04p3]{Phantom Steed} (13th), </li>\n<li>@Compendium[pf1.spells.isfcr7k77gppxnwq]{Enlarge Person, Mass} (16th).</li>\n</ul>"
    },
    "tag": "classFeat_vestigeBloodragerBloodline",
    "useCustomTag": true,
    "subType": "classFeat",
    "associations": {
      "classes": ["Bloodrager"]
    }
  }
}
