{
  "_id": "RCXVxXeatBgxksD4",
  "name": "Vortex Spells",
  "type": "feat",
  "img": "systems/pf1/icons/spells/light-royal-1.jpg",
  "system": {
    "description": {
      "value": "<p>Whenever you score a critical hit against an opponent with an attack spell, the target is staggered for 1 round.</p>\n<p>At 11th level, the duration increases to 1d4 rounds.</p>"
    },
    "actions": [
      {
        "_id": "ru3vwcrfp266cr78",
        "name": "Use",
        "img": "systems/pf1/icons/spells/light-royal-1.jpg",
        "activation": {
          "type": "passive",
          "unchained": {
            "type": "passive"
          }
        },
        "actionType": ""
      }
    ],
    "tag": "classFeat_vortexSpells",
    "useCustomTag": true,
    "subType": "classFeat",
    "associations": {
      "classes": ["Oracle"]
    },
    "abilityType": "ex"
  }
}
