{
  "_id": "ZhGNyAcN949mzb3q",
  "name": "Ward of Stone",
  "type": "feat",
  "img": "systems/pf1/icons/skills/green_03.jpg",
  "system": {
    "description": {
      "value": "<p>The shaman touches a willing creature (including herself ) and grants a ward of stone. The next time the warded creature is struck with a melee attack, it is treated as if it has DR 5/adamantine. This ward lasts for 1 minute, after which it fades away if not already expended.</p>\n<p>At 8th and 16th levels, the ward lasts for one additional attack.</p>\n<p>A creature affected by this hex cannot be affected by it again for 24 hours.</p>"
    },
    "actions": [
      {
        "_id": "wrh29ng6e64gtl3s",
        "name": "Use",
        "img": "systems/pf1/icons/skills/green_03.jpg",
        "activation": {
          "type": "standard",
          "unchained": {
            "cost": 2,
            "type": "action"
          }
        },
        "duration": {
          "value": "1",
          "units": "minute"
        },
        "target": {
          "value": "willing creature touched"
        },
        "range": {
          "units": "touch"
        },
        "actionType": ""
      }
    ],
    "tag": "classFeat_wardOfStone",
    "useCustomTag": true,
    "subType": "classFeat",
    "associations": {
      "classes": ["Shaman"]
    },
    "abilityType": "su"
  }
}
