{
  "_id": "lwSkb8EAyKc03EC7",
  "name": "Warding Talisman",
  "type": "feat",
  "img": "systems/pf1/icons/items/armor/shield-heavy-metal.png",
  "system": {
    "description": {
      "value": "<p>The implement wards against adverse effects. Whoever wears (or holds, for bells) the implement gains a +1 resistance bonus on saving throws for every 2 points of mental focus invested in the implement, to a maximum bonus of 1 + 1 for every 4 occultist levels you possess.</p>"
    },
    "tag": "classFeat_wardingTalisman",
    "useCustomTag": true,
    "subType": "classFeat",
    "associations": {
      "classes": ["Occultist"]
    },
    "abilityType": "su"
  }
}
