{
  "_id": "nugmUICGM5mxJr3U",
  "name": "Weather Blessing: Storm Strike",
  "type": "feat",
  "img": "systems/pf1/icons/spells/lightning-blue-1.jpg",
  "system": {
    "description": {
      "value": "<p>At 1st level, you can touch one weapon and grant it a blessing of stormy weather. For 1 minute, this weapon glows with blue or yellow sparks and deals an additional 1d4 points of electricity damage with each hit.</p>\n<p>This additional damage doesn’t stack with the additional damage from the shock or shocking burst weapon special abilities.</p>"
    },
    "actions": [
      {
        "_id": "mwbsvz8wyffxwhpv",
        "name": "Use",
        "img": "systems/pf1/icons/spells/lightning-blue-1.jpg",
        "activation": {
          "type": "standard",
          "unchained": {
            "cost": 2,
            "type": "action"
          }
        },
        "duration": {
          "value": "1",
          "units": "minute"
        },
        "target": {
          "value": "weapon touched"
        },
        "range": {
          "units": "touch"
        },
        "actionType": ""
      }
    ],
    "tag": "classFeat_weatherBlessingStormStrike",
    "useCustomTag": true,
    "subType": "classFeat",
    "associations": {
      "classes": ["Warpriest"]
    }
  }
}
