{
  "_id": "6LV4SynpRfRXkpQh",
  "name": "Wind Sight",
  "type": "feat",
  "img": "systems/pf1/icons/spells/light-royal-1.jpg",
  "system": {
    "description": {
      "value": "<p>You ignore penalties on Perception checks based on wind and the first 100 feet of distance.</p>\n<p>At 7th level, as a standard action, you can see and hear into any area (as if using clairaudience and clairvoyance) within range as long as there is an unobstructed path for air to travel between you and the target area (this does not require line of effect, meaning the path can turn corners and go through spaces no smaller than 1 inch in diameter).</p>\n<p>You can use this ability a number of rounds per day equal to your oracle level, but these rounds do not need to be consecutive.</p>"
    },
    "actions": [
      {
        "_id": "8a8bbathta8wihwh",
        "name": "Use",
        "img": "systems/pf1/icons/spells/light-royal-1.jpg",
        "activation": {
          "type": "standard",
          "unchained": {
            "cost": 2,
            "type": "action"
          }
        },
        "duration": {
          "value": "1",
          "units": "round"
        },
        "target": {
          "value": "self"
        },
        "range": {
          "units": "personal"
        },
        "actionType": ""
      }
    ],
    "uses": {
      "per": "day",
      "maxFormula": "@classes.oracle.level"
    },
    "tag": "classFeat_windSight",
    "useCustomTag": true,
    "subType": "classFeat",
    "associations": {
      "classes": ["Oracle"]
    },
    "abilityType": "ex"
  }
}
