{
  "_id": "Jjo1BND4tvEJnO1I",
  "name": "Wind Subdomain",
  "type": "feat",
  "img": "systems/pf1/icons/spells/wind-sky-2.jpg",
  "system": {
    "description": {
      "value": "<p><b>Replacement Domain Spells:</b></p>\n<ul>\n<li>1st—@Compendium[pf1.spells.v8czhud6wpmc9esu]{Whispering Wind}</li>\n<li>6th—@Compendium[pf1.spells.1mkigzpu5hohovgw]{Wind Walk}</li>\n<li>9th—@Compendium[pf1.spells.lun2gymejsmkjg4g]{Winds of Vengeance}.</li>\n</ul>"
    },
    "tag": "classFeat_windSubdomain",
    "useCustomTag": true,
    "subType": "classFeat",
    "associations": {
      "classes": ["Cleric"]
    }
  }
}
