{
  "_id": "VoQct12izr8Pclyp",
  "name": "Windsight",
  "type": "feat",
  "img": "systems/pf1/icons/spells/wind-sky-3.jpg",
  "system": {
    "description": {
      "value": "<p><b>Element</b> air; <b>Type</b> utility (Su); <b>Level</b> 3; <b>Burn</b> —</p>\n<p>You can see through mist and fog (including fog cloud and similar magic). In areas of moderate or stronger wind, you can see and hear as if you were standing at both your own position and a position a number of feet in the wind’s direction equal to the wind’s speed in miles per hour, potentially allowing you to see around corners and other obstacles.</p>"
    },
    "tag": "classFeat_windsight",
    "useCustomTag": true,
    "subType": "classFeat",
    "associations": {
      "classes": ["Kineticist"]
    },
    "abilityType": "su"
  }
}
