{
  "_id": "EeqvtQ3P2kuIHmRm",
  "name": "Wings of Terror",
  "type": "feat",
  "img": "systems/pf1/icons/spells/light-royal-1.jpg",
  "system": {
    "description": {
      "value": "<p>You can manifest a pair of enormous, batlike demon wings that grant you a fly speed of 60 feet with average maneuverability and a +4 bonus on Intimidate checks.</p>\n<p>At 10th level, your speed increases to 90 feet, your maneuverability increases to good, and the bonus increases to +8 on Intimidate checks.</p>\n<p>You can use these wings for 1 minute per day per oracle level. This duration does not need to be consecutive, but it must be spent in 1-minute increments.</p>\n<p>You must be at least 7th level to select this revelation.</p>"
    },
    "actions": [
      {
        "_id": "z1amgwjxpohli41j",
        "name": "Use",
        "img": "systems/pf1/icons/spells/light-royal-1.jpg",
        "activation": {
          "type": "standard",
          "unchained": {
            "cost": 2,
            "type": "action"
          }
        },
        "duration": {
          "value": "1",
          "units": "minute"
        },
        "target": {
          "value": "self"
        },
        "range": {
          "units": "personal"
        },
        "actionType": ""
      }
    ],
    "uses": {
      "per": "day",
      "maxFormula": "@classes.oracle.level"
    },
    "tag": "classFeat_wingsOfTerror",
    "useCustomTag": true,
    "subType": "classFeat",
    "associations": {
      "classes": ["Oracle"]
    },
    "abilityType": "su"
  }
}
