{
  "_id": "5iXq1igb1Cq0qobT",
  "name": "Woodland Stride",
  "type": "feat",
  "img": "systems/pf1/icons/skills/green_16.jpg",
  "system": {
    "description": {
      "value": "<p>This character may move through any sort of undergrowth (such as natural thorns, briars, overgrown areas, and similar terrain) at her normal speed and without taking damage or suffering any other impairment. Thorns, briars, and overgrown areas that have been magically manipulated to impede motion, however, still affect her.</p>"
    },
    "actions": [
      {
        "_id": "949f3semr2zvcw5k",
        "name": "Use",
        "img": "systems/pf1/icons/skills/green_16.jpg",
        "activation": {
          "type": "passive",
          "unchained": {
            "type": "passive"
          }
        },
        "actionType": ""
      }
    ],
    "tag": "classFeat_woodlandStride",
    "useCustomTag": true,
    "subType": "classFeat",
    "associations": {
      "classes": ["Druid", "Sorcerer"]
    },
    "abilityType": "ex"
  }
}
