{
  "_id": "G4BKKuMT5Y8Vn13y",
  "name": "Woodland Step, Greater",
  "type": "feat",
  "img": "systems/pf1/icons/spells/vines-jade-3.jpg",
  "system": {
    "description": {
      "value": "<p><b>Element</b> wood; <b>Type</b> utility (Sp); <b>Level</b> 5; <b>Burn</b> 0<br><b>Prerequisite</b> woodland step</p>\n<p>The plants actively assist you and nearby allies. You and all allies within 30 feet benefit as per forest friend.</p>"
    },
    "tag": "classFeat_woodlandStepGreater",
    "useCustomTag": true,
    "subType": "classFeat",
    "associations": {
      "classes": ["Kineticist"]
    },
    "abilityType": "su"
  }
}
