{
  "_id": "V8cRFtOQA6ltklEl",
  "name": "Fighting Defensively",
  "type": "buff",
  "img": "icons/svg/combat.svg",
  "system": {
    "changes": [
      {
        "_id": "zmpj4gpd",
        "formula": "@skills.acr.rank>=3?3:2",
        "subTarget": "ac",
        "modifier": "dodge"
      },
      {
        "_id": "osyl628w",
        "formula": "-4",
        "subTarget": "attack",
        "modifier": "untyped"
      }
    ],
    "tag": "fightingDefensively",
    "level": "",
    "duration": {
      "value": "1",
      "units": "round"
    }
  }
}
