{
  "_id": "kaqoed3i78k02n6r",
  "name": "Aggressive Thundercloud, Greater",
  "type": "spell",
  "img": "systems/pf1/icons/misc/magic-swirl.png",
  "system": {
    "actions": [
      {
        "_id": "axefzza77jad5t8v",
        "name": "Use",
        "img": "systems/pf1/icons/misc/magic-swirl.png",
        "activation": {
          "type": "standard",
          "unchained": {
            "cost": 2,
            "type": "action"
          }
        },
        "duration": {
          "value": "1 round/level"
        },
        "range": {
          "units": "medium"
        },
        "actionType": "spellsave",
        "save": {
          "type": "ref",
          "description": "Reflex negates and Fortitude negates (see text)"
        },
        "spellEffect": "5-ft.-diameter sphere"
      }
    ],
    "learnedAt": {
      "class": {
        "sorcerer": 4,
        "wizard": 4,
        "druid": 4,
        "witch": 4,
        "magus": 4,
        "hunter": 4
      }
    },
    "level": 4,
    "school": "evo",
    "types": "electricity, sonic",
    "components": {
      "verbal": true,
      "somatic": true,
      "material": true,
      "divineFocus": 2
    },
    "materials": {
      "value": "a piece of a tree struck by lightning"
    },
    "spellbook": "",
    "shortDescription": "<p>This spell functions as @Compendium[pf1.spells.66pt5ntiacbzsuov]{aggressive thundercloud}, except it deals 6d6 points of electricity damage to any creature it strikes. The first creature damaged by the cloud is also stunned for 1 round (Fortitude negates); this is a sonic effect.</p>"
  }
}
