{
  "_id": "9imc15es7vbtqdqz",
  "name": "Air Walk, Communal",
  "type": "spell",
  "img": "systems/pf1/icons/misc/magic-swirl.png",
  "system": {
    "actions": [
      {
        "_id": "b0obykvp7aaew206",
        "name": "Use",
        "img": "systems/pf1/icons/misc/magic-swirl.png",
        "activation": {
          "type": "standard",
          "unchained": {
            "cost": 2,
            "type": "action"
          }
        },
        "duration": {
          "value": "10 min./level"
        },
        "target": {
          "value": "creatures touched"
        },
        "range": {
          "units": "touch"
        },
        "actionType": ""
      }
    ],
    "learnedAt": {
      "class": {
        "cleric": 5,
        "oracle": 5,
        "druid": 5,
        "alchemist": 5,
        "occultist": 5,
        "hunter": 5
      }
    },
    "level": 5,
    "school": "trs",
    "types": "air",
    "components": {
      "verbal": true,
      "somatic": true,
      "divineFocus": 1
    },
    "shortDescription": "<p>This spell functions like <i>air walk</i>, except divide the duration in 10-minute intervals among the creatures touched.</p>"
  }
}
