{
  "_id": "pybbmxfynjjzn6t1",
  "name": "Aldori Alacrity",
  "type": "spell",
  "img": "systems/pf1/icons/misc/magic-swirl.png",
  "system": {
    "actions": [
      {
        "_id": "97kci17z14gpsi93",
        "name": "Use",
        "img": "systems/pf1/icons/misc/magic-swirl.png",
        "activation": {
          "type": "standard",
          "unchained": {
            "cost": 2,
            "type": "action"
          }
        },
        "duration": {
          "value": "1 minute/level"
        },
        "target": {
          "value": "you"
        },
        "range": {
          "units": "personal"
        },
        "actionType": ""
      }
    ],
    "learnedAt": {
      "class": {
        "bard": 2,
        "alchemist": 2,
        "magus": 2
      }
    },
    "level": 2,
    "school": "trs",
    "components": {
      "verbal": true,
      "somatic": true,
      "material": true
    },
    "materials": {
      "value": "ginger root shavings"
    },
    "sr": false,
    "shortDescription": "<p>This spell's energy quickens your steps, allowing fancy footwork. You gain a +10-foot enhancement bonus to your speed and a +1 dodge bonus to your AC. These bonuses do not stack with those granted by <i>haste</i> or similar effects. While under the effects of <i>Aldori alacrity</i>, you can take 5-foot steps in difficult terrain.</p>"
  }
}
