{
  "_id": "rjflmqy4hyp6g061",
  "name": "Allfood",
  "type": "spell",
  "img": "systems/pf1/icons/misc/magic-swirl.png",
  "system": {
    "actions": [
      {
        "_id": "2h747ho4ycwwjtog",
        "name": "Use",
        "img": "systems/pf1/icons/misc/magic-swirl.png",
        "activation": {
          "type": "standard",
          "unchained": {
            "cost": 2,
            "type": "action"
          }
        },
        "duration": {
          "value": "instantaneous"
        },
        "target": {
          "value": "object touched, weighing up to 5 lbs./level"
        },
        "range": {
          "units": "touch"
        },
        "actionType": "spellsave",
        "save": {
          "type": "will",
          "description": "Will negates (object)"
        }
      }
    ],
    "learnedAt": {
      "class": {
        "ranger": 2,
        "hunter": 2
      }
    },
    "level": 2,
    "school": "trs",
    "components": {
      "verbal": true,
      "somatic": true,
      "material": true
    },
    "materials": {
      "value": "a pinch of salt and pepper"
    },
    "shortDescription": "<p>You can transform one object, weighing up to 5 lbs. per caster level, into an edible substance that any living creature can chew, swallow, and safely digest. This allfood always has a bland taste and slightly gooey consistency when chewed regardless of its original nature.</p><p>One pound of allfood provides enough sustenance to support a Medium creature for an entire day.</p><p>Objects of similar nature in close proximity, such as a pile of rocks, count as a single object for the purpose of this spell. You cannot use this spell to transform objects with magical or other exceptional qualities. An object's hardness is considered to be 0 for the purposes of eating it, but it retains its normal hardness for all other situations, and becomes no more vulnerable to sunder attacks, break attempts, or any other action typically directed against objects. Objects such as hot coals or a burning torch continue to produce energy even after you transform them into allfood and if a creature attempts to eat such an object, it takes damage accordingly.</p>"
  }
}
