{
  "_id": "zk8l7i27fhfic3c1",
  "name": "Astral Projection, Lesser",
  "type": "spell",
  "img": "systems/pf1/icons/misc/magic-swirl.png",
  "system": {
    "actions": [
      {
        "_id": "zwgniqlya1pdpdtz",
        "name": "Use",
        "img": "systems/pf1/icons/misc/magic-swirl.png",
        "activation": {
          "cost": 30,
          "type": "minute",
          "unchained": {
            "cost": 30,
            "type": "minute"
          }
        },
        "duration": {
          "value": "see text"
        },
        "target": {
          "value": "you plus one additional willing creature touched per two caster levels"
        },
        "range": {
          "units": "touch"
        },
        "actionType": ""
      }
    ],
    "learnedAt": {
      "class": {
        "sorcerer": 5,
        "wizard": 5,
        "cleric": 5,
        "oracle": 5,
        "psychic": 5
      }
    },
    "level": 5,
    "school": "nec",
    "components": {
      "verbal": true,
      "somatic": true,
      "material": true
    },
    "materials": {
      "value": "1,000 gp jacinth",
      "gpValue": 1000
    },
    "spellbook": "",
    "preparation": {
      "spontaneousPrepared": false
    },
    "shortDescription": "<p>This spell functions as <i>astral projection</i>, except you cannot leave the Astral Plane and explore other planes (though you can still return to the plane you were on when you cast this spell).</p>"
  }
}
