{
  "_id": "myg2b9ww43nnlbr2",
  "name": "Break Enchantment",
  "type": "spell",
  "img": "systems/pf1/icons/misc/magic-swirl.png",
  "system": {
    "actions": [
      {
        "_id": "kcm88cwzfrfd3opa",
        "name": "Use",
        "img": "systems/pf1/icons/misc/magic-swirl.png",
        "activation": {
          "type": "minute",
          "unchained": {
            "type": "minute"
          }
        },
        "duration": {
          "value": "instantaneous"
        },
        "target": {
          "value": "up to one creature per level, all within 30 ft. of each other"
        },
        "range": {
          "units": "close"
        },
        "actionType": "spellsave",
        "save": {
          "description": "see text"
        }
      }
    ],
    "learnedAt": {
      "class": {
        "sorcerer": 5,
        "wizard": 5,
        "cleric": 5,
        "oracle": 5,
        "bard": 4,
        "paladin": 4,
        "witch": 5,
        "inquisitor": 5,
        "adept": 5,
        "shaman": 5,
        "psychic": 4,
        "medium": 4,
        "mesmerist": 4,
        "occultist": 4,
        "spiritualist": 5
      },
      "domain": {
        "Liberation": 5,
        "Luck": 5
      },
      "subDomain": {
        "Restoration": 5
      },
      "bloodline": {
        "Destined": 5
      }
    },
    "level": 5,
    "school": "abj",
    "components": {
      "verbal": true,
      "somatic": true
    },
    "spellbook": "",
    "sr": false,
    "shortDescription": "<p>This spell frees victims from enchantments, transmutations, and curses. <i>Break enchantment</i> can reverse even an instantaneous effect. For each such effect, you make a caster level check (1d20 + caster level, maximum +15) against a DC of 11 + caster level of the effect. Success means that the creature is free of the spell, curse, or effect. For a cursed magic item, the DC is equal to the DC of the curse.</p><p>If the spell is one that cannot be dispelled by <i>dispel magic</i> or <i>stone to flesh</i>, <i>break enchantment</i> works only if that spell is 5th level or lower.</p><p>If the effect comes from a permanent magic item, <i>break enchantment</i> does not remove the curse from the item, but it does free the victim from the item's effects.</p>"
  }
}
