{
  "_id": "v2of5xrsir2c45at",
  "name": "Burdened Thoughts",
  "type": "spell",
  "img": "systems/pf1/icons/misc/magic-swirl.png",
  "system": {
    "actions": [
      {
        "_id": "7wfggnmxrcb6z6oy",
        "name": "Use",
        "img": "systems/pf1/icons/misc/magic-swirl.png",
        "activation": {
          "type": "standard",
          "unchained": {
            "cost": 2,
            "type": "action"
          }
        },
        "duration": {
          "value": "1 round/level"
        },
        "target": {
          "value": "one creature"
        },
        "range": {
          "units": "medium"
        },
        "actionType": "spellsave",
        "save": {
          "type": "will",
          "description": "Will negates"
        }
      }
    ],
    "learnedAt": {
      "class": {
        "sorcerer": 3,
        "wizard": 3,
        "druid": 2,
        "witch": 2,
        "shaman": 2,
        "hunter": 2
      }
    },
    "level": 3,
    "school": "enc",
    "subschool": "compulsion",
    "types": "mind-affecting",
    "components": {
      "verbal": true,
      "somatic": true,
      "material": true
    },
    "materials": {
      "value": "a lead bearing wrapped in clay"
    },
    "shortDescription": "<p>You fill a creature's mind with the realization of its earthly weight and responsibilities. Disheartened and wearied by these thoughts, the creature gains heavy encumbrance and is unable to fly (if already flying, it must land as soon as possible). If the creature is three or more size categories larger than you, it's also staggered.</p>"
  }
}
