{
  "_id": "wltdd4jmqepdy0qj",
  "name": "Burning Sands",
  "type": "spell",
  "img": "systems/pf1/icons/misc/magic-swirl.png",
  "system": {
    "actions": [
      {
        "_id": "jqvqcqgubvp6dh5p",
        "name": "Use",
        "img": "systems/pf1/icons/misc/magic-swirl.png",
        "activation": {
          "type": "standard",
          "unchained": {
            "cost": 2,
            "type": "action"
          }
        },
        "duration": {
          "value": "1 round/level"
        },
        "range": {
          "units": "medium"
        },
        "measureTemplate": {
          "type": "circle",
          "size": "20"
        },
        "actionType": "spellsave",
        "damage": {
          "parts": [
            {
              "formula": "1d4",
              "type": {
                "values": ["fire"],
                "custom": ""
              }
            }
          ]
        },
        "spellArea": "20-ft. radius"
      }
    ],
    "learnedAt": {
      "class": {
        "sorcerer": 1,
        "wizard": 1,
        "druid": 1,
        "ranger": 1,
        "witch": 1,
        "shaman": 1,
        "hunter": 1
      }
    },
    "school": "con",
    "subschool": "creation",
    "types": "earth, fire",
    "components": {
      "verbal": true,
      "somatic": true,
      "material": true
    },
    "materials": {
      "value": "a handful of sand"
    },
    "sr": false,
    "shortDescription": "<p>You cause sheets of hot sand to spread over the ground in the area of effect. This layer of sand is 1 foot deep and constantly shifts and churns, transforming the ground in the area into difficult terrain. The sand itself burns, and periodic flames rise from the grit. While these flames cannot ignite objects, they deal 1d4 points of fire damage to any creature that ends its turn in contact with the ground within the area of effect. At the end of the duration, the sand vanishes, leaving no aftereffects (other than damage dealt).</p>"
  }
}
