{
  "_id": "vycoymg42schzzxq",
  "name": "Burst of Speed",
  "type": "spell",
  "img": "systems/pf1/icons/misc/magic-swirl.png",
  "system": {
    "actions": [
      {
        "_id": "719w6k6rhd9m5h2h",
        "name": "Use",
        "img": "systems/pf1/icons/misc/magic-swirl.png",
        "activation": {
          "type": "swift",
          "unchained": {
            "type": "action"
          }
        },
        "duration": {
          "value": "see text"
        },
        "target": {
          "value": "you"
        },
        "range": {
          "units": "personal"
        },
        "actionType": ""
      }
    ],
    "learnedAt": {
      "class": {
        "ranger": 3,
        "paladin": 3,
        "alchemist": 3,
        "inquisitor": 3,
        "antipaladin": 3,
        "magus": 3,
        "bloodrager": 3,
        "psychic": 3,
        "medium": 3,
        "hunter": 3
      }
    },
    "level": 3,
    "school": "trs",
    "components": {
      "verbal": true
    },
    "sr": false,
    "shortDescription": "<p>Until the end of your turn, you gain a +20-foot bonus to speed (or +10-foot bonus if you are wearing Medium or Heavy armor), your movement does not provoke attacks of opportunity, and you can move through the space of creatures that are larger than you are, but you cannot end your movement this round in a space occupied by a creature.</p>"
  }
}
