{
  "_id": "0mcuy3vl4h0alub4",
  "name": "Caustic Safeguard",
  "type": "spell",
  "img": "systems/pf1/icons/misc/magic-swirl.png",
  "system": {
    "actions": [
      {
        "_id": "xk89ot6vttqyjrm3",
        "name": "Use",
        "img": "systems/pf1/icons/misc/magic-swirl.png",
        "activation": {
          "type": "round",
          "unchained": {
            "cost": 3,
            "type": "action"
          }
        },
        "duration": {
          "value": "1 hour/level (D)"
        },
        "target": {
          "value": "object touched"
        },
        "range": {
          "units": "touch"
        },
        "actionType": "spellsave",
        "save": {
          "type": "ref",
          "description": "Reflex half (see text)"
        }
      }
    ],
    "learnedAt": {
      "class": {
        "sorcerer": 4,
        "wizard": 4,
        "alchemist": 3,
        "magus": 3,
        "bloodrager": 3
      }
    },
    "level": 4,
    "school": "abj",
    "types": "acid",
    "components": {
      "verbal": true,
      "somatic": true,
      "material": true
    },
    "materials": {
      "value": "a thin metal wire and a vial of acid"
    },
    "sr": false,
    "shortDescription": "<p>You imbue a single object with an acidic protective ward. Any creature other than you that touches the object takes 1d6 points of acid damage per 2 caster levels (maximum 10d6; Reflex half). Each time the spell discharges, the number of damage dice it deals is halved (rounded down); when the spell's damage dice reach 0, the spell ends. While casting this spell, you can touch up to one creature per 4 caster levels, which allows them to handle the warded object without triggering this spell.</p>"
  }
}
