{
  "_id": "sbp5rh42pqlsmzxn",
  "name": "Controlled Fireball",
  "type": "spell",
  "img": "systems/pf1/icons/misc/magic-swirl.png",
  "system": {
    "actions": [
      {
        "_id": "tsych5dmp4k9xf9o",
        "name": "Use",
        "img": "systems/pf1/icons/misc/magic-swirl.png",
        "activation": {
          "type": "standard",
          "unchained": {
            "cost": 2,
            "type": "action"
          }
        },
        "duration": {
          "value": "instantaneous"
        },
        "range": {
          "units": "long"
        },
        "measureTemplate": {
          "type": "circle",
          "size": "20"
        },
        "actionType": "spellsave",
        "damage": {
          "parts": [
            {
              "formula": "(min(10, @cl))d6",
              "type": {
                "values": ["fire"],
                "custom": ""
              }
            }
          ]
        },
        "save": {
          "type": "ref",
          "description": "Reflex half"
        },
        "effectNotes": ["[[min(10, @cl)]] Minimum Damage"],
        "spellArea": "20-foot-radius spread"
      }
    ],
    "learnedAt": {
      "class": {
        "sorcerer": 4,
        "wizard": 4,
        "magus": 4,
        "bloodrager": 4,
        "occultist": 4
      }
    },
    "level": 4,
    "school": "evo",
    "types": "fire, ruse",
    "components": {
      "verbal": true,
      "somatic": true,
      "material": true
    },
    "materials": {
      "value": "a ball of bat guano and sulfur"
    },
    "shortDescription": "<p>This spell functions as <em>fireball</em> except you can cause the bead of fire to originate from anywhere you can see within range. You can choose a number of squares within the area up to your Intelligence bonus (for magi, occultists, or wizards) or Charisma bonus (for bloodragers or sorcerers) to be struck by weaker flames; the controlled <em>fireball</em> deals minimum damage in those squares. Attempts to identify controlled <em>fireball</em> with a skill check incorrectly identify it as <em>fireball</em> (see the ruse descriptor on page 192).</p>"
  }
}
