{
  "_id": "b5i4dm8hv3is2bky",
  "name": "Conversing Wind",
  "type": "spell",
  "img": "systems/pf1/icons/misc/magic-swirl.png",
  "system": {
    "actions": [
      {
        "_id": "950owe85kqpkncz1",
        "name": "Use",
        "img": "systems/pf1/icons/misc/magic-swirl.png",
        "activation": {
          "type": "standard",
          "unchained": {
            "cost": 2,
            "type": "action"
          }
        },
        "duration": {
          "value": "1 hour/level (D)"
        },
        "range": {
          "value": "1",
          "units": "mi"
        },
        "actionType": "",
        "spellArea": "10-ft.-radius spread"
      }
    ],
    "learnedAt": {
      "class": {
        "sorcerer": 4,
        "wizard": 4,
        "bard": 4
      }
    },
    "level": 4,
    "school": "trs",
    "types": "air",
    "components": {
      "verbal": true,
      "somatic": true
    },
    "sr": false,
    "shortDescription": "<p>This spell functions as <i>whispering wind</i>, except it can carry responses and doesn't end after delivering its first message. After the wind completes its initial message, it waits for 1 round, then copies what it hear, and returns at the same speed and by the same route. It delivers what it heard to the location where the spell was originally cast. The wind continues back and forth in this way until the duration ends or the spell is dismissed.</p>"
  }
}
