{
  "_id": "34hsni5inji07r01",
  "name": "Crusader's Edge",
  "type": "spell",
  "img": "systems/pf1/icons/misc/magic-swirl.png",
  "system": {
    "actions": [
      {
        "_id": "v5gdufyetukgafxa",
        "name": "Use",
        "img": "systems/pf1/icons/misc/magic-swirl.png",
        "activation": {
          "type": "standard",
          "unchained": {
            "cost": 2,
            "type": "action"
          }
        },
        "duration": {
          "value": "1 minute/level"
        },
        "target": {
          "value": "melee weapon touched"
        },
        "range": {
          "units": "touch"
        },
        "actionType": "spellsave",
        "save": {
          "type": "fort",
          "description": "Fortitude negates"
        }
      }
    ],
    "learnedAt": {
      "class": {
        "cleric": 4,
        "oracle": 4,
        "paladin": 4,
        "inquisitor": 4
      }
    },
    "level": 4,
    "school": "trs",
    "types": "good",
    "components": {
      "verbal": true,
      "somatic": true,
      "material": true
    },
    "materials": {
      "value": "dried blood from an evil outsider, sprinkled on the weapon"
    },
    "sr": false,
    "shortDescription": "<p>This spell was created by the paladins of the Mendevian Crusades, and co-opted by inquisitors and rangers dedicated to tracking and fighting demons, devils, and other evil extraplanar creatures.</p><p>When you cast this spell on a melee weapon you imbue it with a powerful <i>holy</i> energy, granting the weapon the <i>bane</i> weapon quality against evil outsiders. Furthermore, whenever you score a successful critical hit against an outsider with the evil subtype, you not only deal normal critical damage with the weapon but also nauseate the outsider for 1d3 rounds-the outsider can reduce this nauseated condition to sickened for 1 round with a successful Fortitude save.</p>"
  }
}
