{
  "_id": "sq5lzym6a8mmfl7l",
  "name": "Defoliate",
  "type": "spell",
  "img": "systems/pf1/icons/misc/magic-swirl.png",
  "system": {
    "actions": [
      {
        "_id": "o3v3wsgjbto8ci7w",
        "name": "Use",
        "img": "systems/pf1/icons/misc/magic-swirl.png",
        "activation": {
          "type": "standard",
          "unchained": {
            "cost": 2,
            "type": "action"
          }
        },
        "duration": {
          "value": "instantaneous"
        },
        "target": {
          "value": "see text"
        },
        "range": {
          "units": "close"
        },
        "actionType": "",
        "spellArea": "see text"
      }
    ],
    "learnedAt": {
      "class": {
        "sorcerer": 2,
        "wizard": 2,
        "druid": 2,
        "ranger": 1,
        "hunter": 1
      },
      "subDomain": {
        "Radiation": 8
      }
    },
    "level": 2,
    "school": "nec",
    "components": {
      "verbal": true,
      "somatic": true,
      "material": true
    },
    "materials": {
      "value": "a locust"
    },
    "shortDescription": "<p>You hurl a tiny ball of negative energy, destroying plant life either in a line 60 feet long or a 10-foot-radius spread. This effect removes the cover and concealment provided by trees and undergrowth, eliminates the movement penalties associated with undergrowth, and so forth.</p><p>You may also target a single plant creature with this spell.</p><p>You must succeed on a ranged touch attack to hit your target.</p><p>An affected plant creature takes 2d8 points of damage.</p>"
  }
}
