{
  "_id": "yuoyi2vdi8c7zfz5",
  "name": "Detect Aberration",
  "type": "spell",
  "img": "systems/pf1/icons/misc/magic-swirl.png",
  "system": {
    "actions": [
      {
        "_id": "apvqkp58azq39cw8",
        "name": "Use",
        "img": "systems/pf1/icons/misc/magic-swirl.png",
        "activation": {
          "type": "standard",
          "unchained": {
            "cost": 2,
            "type": "action"
          }
        },
        "duration": {
          "value": "concentration, up to 10 minutes/level (D)"
        },
        "range": {
          "units": "long"
        },
        "actionType": "",
        "spellArea": "cone-shaped emanation"
      }
    ],
    "learnedAt": {
      "class": {
        "druid": 1,
        "ranger": 1,
        "psychic": 1,
        "hunter": 1
      }
    },
    "school": "div",
    "components": {
      "verbal": true,
      "somatic": true
    },
    "sr": false,
    "shortDescription": "<p>This spell functions like <i>detect animals or plants</i>, except it detects creatures of the aberration type.</p>"
  }
}
