{
  "_id": "ech2cibcsmsms9s7",
  "name": "Dust of Twilight",
  "type": "spell",
  "img": "systems/pf1/icons/misc/magic-swirl.png",
  "system": {
    "actions": [
      {
        "_id": "4e6yrtw517cff98w",
        "name": "Use",
        "img": "systems/pf1/icons/misc/magic-swirl.png",
        "activation": {
          "type": "standard",
          "unchained": {
            "cost": 2,
            "type": "action"
          }
        },
        "duration": {
          "value": "instantaneous"
        },
        "target": {
          "value": "creatures and objects in a 10-ft. spread"
        },
        "range": {
          "units": "medium"
        },
        "actionType": "spellsave",
        "save": {
          "type": "fort",
          "description": "Fortitude negates (fatigue only)"
        }
      }
    ],
    "learnedAt": {
      "class": {
        "sorcerer": 2,
        "wizard": 2,
        "bard": 2,
        "bloodrager": 2
      }
    },
    "level": 2,
    "school": "con",
    "types": "darkness",
    "components": {
      "verbal": true,
      "somatic": true,
      "material": true
    },
    "materials": {
      "value": "coal dust"
    },
    "sr": false,
    "shortDescription": "<p>A shower of iridescent black particles clings to and extinguishes torches, lanterns, sunrods, and similar mundane light sources and <i>dispel</i>s any spell of 2nd level or lower with the light descriptor (as <i>dispel</i> magic). Creatures in the area must make a Fortitude save or become fatigued.</p>"
  }
}
