{
  "_id": "pawbnw1nm4f0b98e",
  "name": "Elemental Body I",
  "type": "spell",
  "img": "systems/pf1/icons/misc/magic-swirl.png",
  "system": {
    "actions": [
      {
        "_id": "zaqarqv23b90ifcu",
        "name": "Use",
        "img": "systems/pf1/icons/misc/magic-swirl.png",
        "activation": {
          "type": "standard",
          "unchained": {
            "cost": 2,
            "type": "action"
          }
        },
        "duration": {
          "value": "1 min./level"
        },
        "target": {
          "value": "you"
        },
        "range": {
          "units": "personal"
        },
        "actionType": ""
      }
    ],
    "learnedAt": {
      "class": {
        "sorcerer": 4,
        "wizard": 4,
        "alchemist": 4,
        "magus": 4,
        "bloodrager": 4
      },
      "bloodline": {
        "Elemental": 4
      }
    },
    "level": 4,
    "school": "trs",
    "subschool": "polymorph",
    "components": {
      "verbal": true,
      "somatic": true,
      "material": true
    },
    "materials": {
      "value": "the element you plan to assume"
    },
    "sr": false,
    "shortDescription": "<p>When you cast this spell, you can assume the form of a Small air, earth, fire, or water elemental. The abilities you gain depend upon the type of elemental into which you change. Elemental abilities based on size, such as burn, vortex, and whirlwind, use the size of the elemental you transform into to determine their effect.</p><p><i>Air elemental</i>: If the form you take is that of a Small air elemental, you gain a +2 size bonus to your Dexterity and a +2 natural armor bonus. You also gain fly 60 feet (perfect), darkvision 60 feet, and the ability to create a whirlwind.</p><p><i>Earth elemental</i>: If the form you take is that of a Small earth elemental, you gain a +2 size bonus to your Strength and a +4 natural armor bonus. You also gain darkvision 60 feet, the push ability, and the ability to earth glide.</p><p><i>Fire elemental</i>: If the form you take is that of a Small fire elemental, you gain a +2 size bonus to your Dexterity and a +2 natural armor bonus. You gain darkvision 60 feet, resist fire 20, vulnerability to cold, and the burn ability.</p><p><i>Water elemental</i>: If the form you take is that of a Small water elemental, you gain a +2 size bonus to your Constitution and a +4 natural armor bonus. You also gain swim 60 feet, darkvision 60 feet, the ability to create a vortex, and the ability to breathe water.</p>"
  }
}
