{
  "_id": "ltzae264e8fr3582",
  "name": "Elude Time",
  "type": "spell",
  "img": "systems/pf1/icons/misc/magic-swirl.png",
  "system": {
    "actions": [
      {
        "_id": "rgzazvetlp6aztno",
        "name": "Use",
        "img": "systems/pf1/icons/misc/magic-swirl.png",
        "activation": {
          "type": "standard",
          "unchained": {
            "cost": 2,
            "type": "action"
          }
        },
        "duration": {
          "value": "up to 1 minute/level; see text"
        },
        "target": {
          "value": "you"
        },
        "range": {
          "units": "personal"
        },
        "actionType": ""
      }
    ],
    "learnedAt": {
      "class": {
        "alchemist": 5,
        "psychic": 7
      }
    },
    "level": 5,
    "school": "trs",
    "components": {
      "verbal": true,
      "somatic": true,
      "material": true
    },
    "materials": {
      "value": "powdered diamond, emerald, ruby, and sapphire dust worth 500 gp",
      "gpValue": 500
    },
    "spellbook": "",
    "preparation": {
      "spontaneousPrepared": false
    },
    "sr": false,
    "shortDescription": "<p>You place yourself in a state of suspended animation, similar to <i>temporal stasis</i>. At the time of casting, you choose when the stasis will expire, up to the maximum duration of the spell.</p><p>Until the duration ends, time ceases to flow for you, and all bodily functions cease. No force or effect can harm you until the spell expires or is removed, such as by a successful <i>dispel magic</i> spell.</p>"
  }
}
