{
  "_id": "4322oipgd4hjkuj4",
  "name": "Enlarge Tail",
  "type": "spell",
  "img": "systems/pf1/icons/misc/magic-swirl.png",
  "system": {
    "actions": [
      {
        "_id": "ht2r8ngeul1xj8d6",
        "name": "Use",
        "img": "systems/pf1/icons/misc/magic-swirl.png",
        "activation": {
          "type": "standard",
          "unchained": {
            "cost": 2,
            "type": "action"
          }
        },
        "duration": {
          "value": "1 hour/level"
        },
        "target": {
          "value": "your tail"
        },
        "range": {
          "units": "personal"
        },
        "actionType": ""
      }
    ],
    "learnedAt": {
      "class": {
        "sorcerer": 1,
        "wizard": 1,
        "druid": 1,
        "alchemist": 1,
        "summoner": 1,
        "witch": 1,
        "antipaladin": 1,
        "magus": 1,
        "hunter": 1,
        "unchained Summoner": 1
      }
    },
    "school": "trs",
    "components": {
      "verbal": true,
      "somatic": true
    },
    "sr": false,
    "shortDescription": "<p>When attacking with your tail or tail weapons, you gain 5 feet of reach, a +1 bonus on attack rolls, and a +2 bonus on damage rolls.</p>"
  }
}
