{
  "_id": "qvpzcjm5lmtn389j",
  "name": "Erase",
  "type": "spell",
  "img": "systems/pf1/icons/misc/magic-swirl.png",
  "system": {
    "actions": [
      {
        "_id": "thttho7k5x90ewd9",
        "name": "Use",
        "img": "systems/pf1/icons/misc/magic-swirl.png",
        "activation": {
          "type": "standard",
          "unchained": {
            "cost": 2,
            "type": "action"
          }
        },
        "duration": {
          "value": "instantaneous"
        },
        "target": {
          "value": "one scroll or two pages"
        },
        "range": {
          "units": "close"
        },
        "actionType": "spellsave",
        "save": {
          "description": "see text"
        }
      }
    ],
    "learnedAt": {
      "class": {
        "sorcerer": 1,
        "wizard": 1,
        "bard": 1,
        "psychic": 1,
        "occultist": 1
      },
      "domain": {
        "Rune": 1
      }
    },
    "school": "trs",
    "components": {
      "verbal": true,
      "somatic": true
    },
    "sr": false,
    "shortDescription": "<p><i>Erase</i> removes writings of either magical or mundane nature from a scroll or from one or two pages of paper, parchment, or similar surfaces. With this spell, you can remove <i><i>explosive runes</i>,</i> a <i><i>Glyph of Warding</i>, a <i>sepia snake sigil</i>,</i> or an <i>arcane mark</i>, but not <i>illusory script</i> or a <i>symbol</i> spell. Nonmagical writing is automatically erased if you touch it and no one else is holding it. Otherwise, the chance of erasing nonmagical writing is 90%. Magic writing must be touched to be erased, and you also must succeed on a caster level check (1d20 + caster level) against DC 15. A natural 1 is always a failure on this check. If you fail to erase <i><i>explosive runes</i>,</i> a <i>Glyph of Warding</i>, or a <i>sepia snake sigil</i>, you accidentally activate that writing instead.</p>"
  }
}
