{
  "_id": "21afuykelojyguty",
  "name": "Firebelly",
  "type": "spell",
  "img": "systems/pf1/icons/misc/magic-swirl.png",
  "system": {
    "actions": [
      {
        "_id": "9l0pfzv50rvr607b",
        "name": "Use",
        "img": "systems/pf1/icons/misc/magic-swirl.png",
        "activation": {
          "type": "standard",
          "unchained": {
            "cost": 2,
            "type": "action"
          }
        },
        "duration": {
          "value": "1 minute/level"
        },
        "target": {
          "value": "you"
        },
        "range": {
          "units": "personal"
        },
        "actionType": "spellsave",
        "save": {
          "type": "ref",
          "description": "Reflex half; see text"
        }
      }
    ],
    "learnedAt": {
      "class": {
        "cleric": 1,
        "oracle": 1,
        "druid": 1,
        "paladin": 1,
        "alchemist": 1,
        "hunter": 1
      }
    },
    "school": "abj",
    "components": {
      "verbal": true,
      "somatic": true,
      "divineFocus": 1
    },
    "shortDescription": "<p>A magical fire warms your belly, granting fire resistance 5 and making your gut hot to the touch (but not enough to damage you or anything else). As a standard action, you can breathe a 15-foot cone of flame that deals 1d4 points of fire damage (Reflex half, SR applies). Each time you use this breath weapon, reduce the remaining duration of the spell by 1 minute.</p>"
  }
}
