{
  "_id": "gmugktarbieojt59",
  "name": "Flame Strike",
  "type": "spell",
  "img": "systems/pf1/icons/spells/beam-red-2.jpg",
  "system": {
    "actions": [
      {
        "_id": "a4lm1hzga8e2wad2",
        "name": "Use",
        "img": "systems/pf1/icons/spells/beam-red-2.jpg",
        "activation": {
          "type": "standard",
          "unchained": {
            "cost": 2,
            "type": "action"
          }
        },
        "duration": {
          "value": "instantaneous"
        },
        "range": {
          "units": "medium"
        },
        "measureTemplate": {
          "type": "circle",
          "size": "10"
        },
        "actionType": "spellsave",
        "damage": {
          "parts": [
            {
              "formula": "(min(15, @cl))d6",
              "type": {
                "values": ["fire"],
                "custom": ""
              }
            }
          ]
        },
        "save": {
          "type": "ref",
          "description": "Reflex half"
        },
        "spellArea": "cylinder (10-ft. radius, 40-ft. high)"
      }
    ],
    "learnedAt": {
      "class": {
        "cleric": 5,
        "oracle": 5,
        "druid": 4,
        "inquisitor": 5,
        "shaman": 5,
        "hunter": 4
      },
      "domain": {
        "Sun": 5,
        "War": 5
      },
      "subDomain": {
        "Arson": 5
      },
      "bloodline": {
        "Celestial": 5
      }
    },
    "level": 5,
    "school": "evo",
    "types": "fire",
    "components": {
      "verbal": true,
      "somatic": true,
      "divineFocus": 1
    },
    "spellbook": "",
    "shortDescription": "<p>A <i>flame strike</i> evokes a vertical column of divine fire. The spell deals 1d6 points of damage per caster level (maximum 15d6). Half the damage is fire damage, but the other half results directly from divine power and is therefore not subject to being reduced by resistance to fire-based attacks.</p>"
  }
}
