{
  "_id": "82z60xtalr9fzkwb",
  "name": "Foe to Friend",
  "type": "spell",
  "img": "systems/pf1/icons/misc/magic-swirl.png",
  "system": {
    "actions": [
      {
        "_id": "xuy7dwdg2zh9od63",
        "name": "Use",
        "img": "systems/pf1/icons/misc/magic-swirl.png",
        "activation": {
          "type": "immediate",
          "unchained": {
            "type": "reaction"
          }
        },
        "duration": {
          "value": "1 round"
        },
        "target": {
          "value": "one living creature"
        },
        "range": {
          "units": "medium"
        },
        "actionType": "spellsave",
        "save": {
          "type": "will",
          "description": "Will negates"
        }
      }
    ],
    "learnedAt": {
      "class": {
        "bard": 5,
        "psychic": 7,
        "mesmerist": 5
      }
    },
    "level": 5,
    "school": "enc",
    "subschool": "compulsion",
    "types": "mind-affecting",
    "components": {
      "verbal": true,
      "somatic": true
    },
    "shortDescription": "<p>Cast this spell when an enemy is about to make an attack against an ally. The creature makes the attack against a valid target of your choice instead or the attack is negated.</p><p>In addition, the target is considered an ally for determining flanking for 1 round.</p>"
  }
}
