{
  "_id": "ww7clmxes9m1t3w9",
  "name": "Forest Friend",
  "type": "spell",
  "img": "systems/pf1/icons/misc/magic-swirl.png",
  "system": {
    "actions": [
      {
        "_id": "tqw92fzwczpezyp3",
        "name": "Use",
        "img": "systems/pf1/icons/misc/magic-swirl.png",
        "activation": {
          "type": "round",
          "unchained": {
            "cost": 3,
            "type": "action"
          }
        },
        "duration": {
          "value": "1 minute/level"
        },
        "target": {
          "value": "one willing living creature per three levels, no two of which may be more than 30 ft. apart."
        },
        "range": {
          "units": "close"
        },
        "actionType": ""
      }
    ],
    "learnedAt": {
      "class": {
        "druid": 2,
        "ranger": 2,
        "hunter": 2
      }
    },
    "level": 2,
    "school": "abj",
    "components": {
      "verbal": true,
      "somatic": true,
      "material": true
    },
    "materials": {
      "value": "a pinch of manure"
    },
    "sr": false,
    "shortDescription": "<p>While subject to this spell, the targets find that forested areas become helpful instead of hindering. The targets suffer no hindrances to movement and suffer no penalties on Acrobatics and Stealth checks from undergrowth in forested terrain. Furthermore, forested overgrowth imposes a miss chance 10% lower than normal.  When moving in and among trees, those subject to the spell gain a +5 circumstance bonus on Acrobatics checks and Climb checks. <b>Range</b>rs in their favored terrain can also add their favored terrain bonus on such Acrobatics and Climb checks.</p>"
  }
}
