{
  "_id": "qpy604flzqos7w9z",
  "name": "Freedom's Toast",
  "type": "spell",
  "img": "systems/pf1/icons/misc/magic-swirl.png",
  "system": {
    "actions": [
      {
        "_id": "yk23fb63tli9oujr",
        "name": "Use",
        "img": "systems/pf1/icons/misc/magic-swirl.png",
        "activation": {
          "type": "standard",
          "unchained": {
            "cost": 2,
            "type": "action"
          }
        },
        "duration": {
          "value": "instantaneous"
        },
        "target": {
          "value": "one creature"
        },
        "range": {
          "units": "close"
        },
        "actionType": "spellsave",
        "save": {
          "type": "will",
          "description": "Will negates (harmless)"
        }
      }
    ],
    "learnedAt": {
      "class": {
        "sorcerer": 4,
        "wizard": 4,
        "cleric": 5,
        "oracle": 5,
        "bard": 5,
        "inquisitor": 5
      }
    },
    "level": 4,
    "school": "con",
    "subschool": "teleportation",
    "components": {
      "verbal": true,
      "somatic": true,
      "material": true,
      "divineFocus": 2
    },
    "materials": {
      "value": "a small amount of ale in a flagon"
    },
    "shortDescription": "<p>When the caster hoists a flagon and delivers a toast to freedom, the target is transported up to 15 feet from its position to a space of your choice, though that space must be within your line of sight. If the target was prone at the time of casting, you can choose for the target to be standing upon reaching the destination. Furthermore, if the target was bound with nonmagical ropes, manacles, or other restraints, those restraints are not transported with the target, effectively freeing the target from those restraints. If the target is bound by magical restraints, you can bar those restraints from being transported with the target with a successful caster level check against a DC based on the restraints' caster level (DC = 11 + the restraining magic item's or spell's caster level).</p>"
  }
}
