{
  "_id": "GX0BBBs6HMCZxOWU",
  "name": "Hallucinatory Decor",
  "type": "spell",
  "img": "icons/magic/perception/orb-crystal-ball-scrying.webp",
  "system": {
    "actions": [
      {
        "_id": "u39zpdhepiwcxi7r",
        "name": "Use",
        "img": "systems/pf1/icons/misc/magic-swirl.png",
        "activation": {
          "type": "standard",
          "unchained": {
            "cost": 2,
            "type": "action"
          }
        },
        "duration": {
          "value": "1 hour/level (D)"
        },
        "range": {
          "units": "medium"
        },
        "actionType": "spellsave",
        "save": {
          "type": "will",
          "description": "Will negates (harmless, object)"
        },
        "spellArea": "one 10-ft. cube/level (S)"
      }
    ],
    "learnedAt": {
      "class": {
        "arcanist": 3,
        "bard": 3,
        "mesmerist": 3,
        "psychic": 3,
        "skald": 3,
        "sorcerer": 3,
        "wizard": 3
      }
    },
    "level": 3,
    "school": "ill",
    "subschool": "glamer",
    "components": {
      "verbal": true,
      "somatic": true
    },
    "spellbook": "",
    "sr": false,
    "shortDescription": "<p>You transform the decor of a courtyard, structure, or other edifice to meet your highest standards and personal tastes. Objects and architectural elements remain in the same configuration — a chair remains a chair — but can look, sound, and smell like a different physical material and artistic style. You cannot change the appearance of natural terrain, but landscaped areas such as a garden or orchard can be affected. This spell functions in all other ways as @Compendium[pf1.spells.a2y1yf0a4jy3610w]{Hallucinatory Terrain}.</p>\n<p>Members of the Prophet of Kalistrade prestige class can cast this spell, even though it is not a divination or enchantment.</p>"
  }
}
