{
  "_id": "vct8uncenmmkf0up",
  "name": "Hellmouth Lash",
  "type": "spell",
  "img": "systems/pf1/icons/misc/magic-swirl.png",
  "system": {
    "actions": [
      {
        "_id": "sjukyt2lrxtdkblt",
        "name": "Use",
        "img": "systems/pf1/icons/misc/magic-swirl.png",
        "activation": {
          "type": "standard",
          "unchained": {
            "cost": 2,
            "type": "action"
          }
        },
        "duration": {
          "value": "1 round/level (D)"
        },
        "target": {
          "value": "you"
        },
        "range": {
          "units": "personal"
        },
        "actionType": ""
      }
    ],
    "learnedAt": {
      "class": {
        "sorcerer": 4,
        "wizard": 4,
        "witch": 4,
        "bloodrager": 4
      }
    },
    "level": 4,
    "school": "trs",
    "types": "acid, electricity, or fire",
    "components": {
      "verbal": true,
      "somatic": true
    },
    "sr": false,
    "shortDescription": "<p>Upon casting this spell, your tongue transforms into an energy whip weapon that can deal acid, electricity, or fire damage. You choose what type of energy damage the spell deals when you cast it. You attack with your tongue as if it were a whip, except you make touch attacks with it and it can harm creatures with armor or natural armor bonuses. You are considered proficient with this weapon. A successful touch attack with the tongue deals 1d8 points of energy damage per two caster levels (maximum of 5d8 points of damage at 10th level).  While the spell is in effect, you cannot speak, cast spells requiring verbal components, or activate items requiring command words.  The spell has the acid, electricity, or fire descriptor, depending on what type of energy damage you chose when you cast it.</p>"
  }
}
