{
  "_id": "op40qjf9oohlx5nu",
  "name": "Heroes' Feast",
  "type": "spell",
  "img": "systems/pf1/icons/misc/magic-swirl.png",
  "system": {
    "actions": [
      {
        "_id": "kv12cgzwf4mdljxa",
        "name": "Use",
        "img": "systems/pf1/icons/misc/magic-swirl.png",
        "activation": {
          "cost": 10,
          "type": "minute",
          "unchained": {
            "cost": 10,
            "type": "minute"
          }
        },
        "duration": {
          "value": "1 hour plus 12 hours; see text"
        },
        "range": {
          "units": "close"
        },
        "actionType": "other",
        "spellEffect": "feast for one creature/level"
      }
    ],
    "learnedAt": {
      "class": {
        "cleric": 6,
        "oracle": 6,
        "bard": 6,
        "inquisitor": 6
      },
      "domain": {
        "Community": 6
      },
      "subDomain": {
        "Resolve": 6,
        "Revelry": 6
      }
    },
    "level": 6,
    "school": "con",
    "subschool": "creation",
    "components": {
      "verbal": true,
      "somatic": true,
      "divineFocus": 1
    },
    "sr": false,
    "shortDescription": "<p>You bring forth a great feast, including a magnificent table, chairs, service, and food and drink. The feast takes 1 hour to consume, and the beneficial effects do not set in until this hour is over. Every creature partaking of the feast is cured of all sickness and nausea, receives the benefits of both neutralize poison and remove disease, and gains 1d8 temporary hit points + 1 point per two caster levels (maximum +10) after imbibing the nectar-like beverage that is part of the feast. The ambrosial food grants each creature that partakes a +1 morale bonus on attack rolls and Will saves and a +4 morale bonus on saving throws against poison and fear effects for 12 hours.</p><p>If the feast is interrupted for any reason, the spell is ruined and all effects of the spell are negated.</p>"
  }
}
