{
  "_id": "uv3bvuerhe0furhu",
  "name": "Hollow Heroism",
  "type": "spell",
  "img": "systems/pf1/icons/misc/magic-swirl.png",
  "system": {
    "actions": [
      {
        "_id": "qkjvv9qddz9m0yyx",
        "name": "Use",
        "img": "systems/pf1/icons/misc/magic-swirl.png",
        "activation": {
          "type": "standard",
          "unchained": {
            "cost": 2,
            "type": "action"
          }
        },
        "duration": {
          "value": "10 minutes/level (D)"
        },
        "target": {
          "value": "creature touched"
        },
        "range": {
          "units": "touch"
        },
        "actionType": "spellsave",
        "save": {
          "type": "will",
          "description": "Will negates (harmless)"
        }
      }
    ],
    "learnedAt": {
      "class": {
        "sorcerer": 4,
        "wizard": 4,
        "bard": 3,
        "summoner": 4,
        "witch": 4,
        "inquisitor": 4,
        "bloodrager": 4,
        "psychic": 4,
        "medium": 3,
        "spiritualist": 4,
        "unchained Summoner": 4
      }
    },
    "level": 4,
    "school": "enc",
    "subschool": "compulsion",
    "types": "mind-affecting, ruse",
    "components": {
      "verbal": true,
      "somatic": true
    },
    "spellbook": "",
    "shortDescription": "<p>This spell functions as @Compendium[pf1.spells.vqfrp8t0c1lw1jna]{Heroism}, except that you can reverse the spell by issuing a special command as a standard action if you are within medium range (100 feet + 10 feet per caster level) of the target. The target loses the bonuses and instead takes a -2 penalty on attack rolls, saving throws, and skill checks until the spell's duration ends (no save). Attempts to identify hollow <em>heroism</em> with a skill check incorrectly identify it as <em>heroism</em> (see the ruse descriptor on page 192).</p>"
  }
}
