{
  "_id": "4dczr3vd96vbcirc",
  "name": "Hunter's Howl",
  "type": "spell",
  "img": "systems/pf1/icons/misc/magic-swirl.png",
  "system": {
    "actions": [
      {
        "_id": "x1ttvdwu5jmi7ftg",
        "name": "Use",
        "img": "systems/pf1/icons/misc/magic-swirl.png",
        "activation": {
          "type": "standard",
          "unchained": {
            "cost": 2,
            "type": "action"
          }
        },
        "duration": {
          "value": "1 round/level"
        },
        "range": {
          "value": "20",
          "units": "ft"
        },
        "actionType": "spellsave",
        "save": {
          "type": "will",
          "description": "Will negates"
        },
        "spellArea": "20-ft.-radius burst"
      }
    ],
    "learnedAt": {
      "class": {
        "ranger": 1,
        "hunter": 1
      }
    },
    "school": "nec",
    "types": "fear, mind-affecting, emotion",
    "components": {
      "verbal": true,
      "somatic": true
    },
    "sr": false,
    "shortDescription": "<p>With a single primal howl, you strike fear in your opponents.</p><p>Until the end of the spell's duration, you treat those affected by it as if they were your favored enemy, gaining a +2 bonus on weapon attack and damage rolls against them, and a +2 bonus on Bluff, Knowledge, Perception, Sense Motive, and Survival checks against them. If an affected creature is already one of your favored enemies, it is shaken instead. This is a mindaffecting fear effect.</p>"
  }
}
