{
  "_id": "7d4hy2wjuonwjbv0",
  "name": "Hypnotism, Greater",
  "type": "spell",
  "img": "systems/pf1/icons/misc/magic-swirl.png",
  "system": {
    "actions": [
      {
        "_id": "98wostgq87f6iv03",
        "name": "Use",
        "img": "systems/pf1/icons/misc/magic-swirl.png",
        "activation": {
          "type": "round",
          "unchained": {
            "cost": 3,
            "type": "action"
          }
        },
        "duration": {
          "value": "10 minutes/level (D)"
        },
        "range": {
          "units": "close"
        },
        "actionType": "spellsave",
        "save": {
          "type": "will",
          "description": "Will negates"
        },
        "spellArea": "several living creatures, no two of which may be more than 30 ft. apart"
      }
    ],
    "learnedAt": {
      "class": {
        "sorcerer": 4,
        "wizard": 4,
        "bard": 4,
        "witch": 4,
        "psychic": 4,
        "mesmerist": 4,
        "occultist": 4
      }
    },
    "level": 4,
    "school": "enc",
    "subschool": "compulsion",
    "types": "mind-affecting",
    "components": {
      "verbal": true,
      "somatic": true
    },
    "spellbook": "",
    "shortDescription": "<p>This functions as @Compendium[pf1.spells.3ntxp3zun1j9mf0m]{Hypnotism}, except it affects 2 Hit Die of creatures per caster level you have. You can make up to five requests (instead of a single request) to each creature affected by the spell, and the requests can be as long and as complicated as you desire (though they still must be reasonable).</p>"
  }
}
