{
  "_id": "qooag8g9dxck4lik",
  "name": "Inflict Light Wounds",
  "type": "spell",
  "img": "systems/pf1/icons/misc/magic-swirl.png",
  "system": {
    "actions": [
      {
        "_id": "k0cho4hgenwelfnk",
        "name": "Use",
        "img": "systems/pf1/icons/misc/magic-swirl.png",
        "activation": {
          "type": "standard",
          "unchained": {
            "cost": 2,
            "type": "action"
          }
        },
        "duration": {
          "value": "instantaneous"
        },
        "target": {
          "value": "creature touched"
        },
        "range": {
          "units": "touch"
        },
        "actionType": "spellsave",
        "damage": {
          "parts": [
            {
              "formula": "1d8 + min(@cl, 5)",
              "type": {
                "values": ["negative"],
                "custom": ""
              }
            }
          ]
        },
        "save": {
          "type": "will",
          "description": "Will half"
        }
      }
    ],
    "learnedAt": {
      "class": {
        "cleric": 1,
        "oracle": 1,
        "witch": 1,
        "inquisitor": 1,
        "antipaladin": 1,
        "shaman": 1,
        "occultist": 1,
        "spiritualist": 1
      }
    },
    "school": "nec",
    "components": {
      "verbal": true,
      "somatic": true
    },
    "spellbook": "",
    "shortDescription": "<p>When laying your hand upon a creature, you channel negative energy that deals 1d8 points of damage + 1 point per caster level (maximum +5).</p><p>Since undead are powered by negative energy, this spell cures such a creature of a like amount of damage, rather than harming it.</p>"
  }
}
