{
  "_id": "twthnjx7cnvfzez2",
  "name": "Intellect Fortress I",
  "type": "spell",
  "img": "systems/pf1/icons/misc/magic-swirl.png",
  "system": {
    "actions": [
      {
        "_id": "dz29bpcqpb5r4un1",
        "name": "Use",
        "img": "systems/pf1/icons/misc/magic-swirl.png",
        "activation": {
          "type": "immediate",
          "unchained": {
            "type": "reaction"
          }
        },
        "duration": {
          "value": "1 round"
        },
        "range": {
          "value": "20",
          "units": "ft"
        },
        "actionType": "",
        "spellArea": "20-ft.-radius emanation centered on you"
      }
    ],
    "learnedAt": {
      "class": {
        "psychic": 4
      },
      "bloodline": {
        "Psychic": 4
      }
    },
    "level": 4,
    "school": "abj",
    "components": {
      "verbal": true
    },
    "shortDescription": "<p>Using the power of pure logic, you disrupt mental attacks. <i>Intellect fortress I</i> suppresses all effects with the emotion and fear descriptors for its duration.</p>"
  }
}
