{
  "_id": "h0ml4rwhpim9ey28",
  "name": "Knock, Mass",
  "type": "spell",
  "img": "systems/pf1/icons/misc/magic-swirl.png",
  "system": {
    "actions": [
      {
        "_id": "ljz7ulvwt1kpqhy2",
        "name": "Use",
        "img": "systems/pf1/icons/misc/magic-swirl.png",
        "activation": {
          "type": "standard",
          "unchained": {
            "cost": 2,
            "type": "action"
          }
        },
        "duration": {
          "value": "instantaneous"
        },
        "target": {
          "value": "one means of closure/level, no two of which can be more than 30 feet apart"
        },
        "range": {
          "units": "close"
        },
        "actionType": ""
      }
    ],
    "learnedAt": {
      "class": {
        "sorcerer": 6,
        "wizard": 6,
        "cleric": 6,
        "oracle": 6,
        "inquisitor": 6,
        "psychic": 6,
        "mesmerist": 6,
        "occultist": 6
      }
    },
    "level": 6,
    "school": "trs",
    "components": {
      "verbal": true
    },
    "sr": false,
    "shortDescription": "<p>Also known as \"unshackle,\" this spell functions as <i>knock</i>, but works on multiple means of closure at once.</p>"
  }
}
