{
  "_id": "b5mz8voksps5g4yq",
  "name": "Legend Lore",
  "type": "spell",
  "img": "systems/pf1/icons/misc/magic-swirl.png",
  "system": {
    "actions": [
      {
        "_id": "X6hEtKplCyeDEGhP",
        "name": "Use",
        "img": "systems/pf1/icons/misc/magic-swirl.png",
        "activation": {
          "type": "standard"
        }
      }
    ],
    "learnedAt": {
      "class": {
        "sorcerer": 6,
        "wizard": 6,
        "bard": 4,
        "witch": 6,
        "inquisitor": 6,
        "psychic": 6,
        "medium": 4,
        "occultist": 6,
        "spiritualist": 6
      },
      "domain": {
        "Knowledge": 7
      },
      "bloodline": {
        "Harrow": 6
      }
    },
    "level": 6,
    "school": "div",
    "components": {
      "verbal": true,
      "somatic": true,
      "material": true,
      "focus": true
    },
    "materials": {
      "value": "incense worth 250 gp",
      "focus": "four pieces of ivory worth 50 gp each",
      "gpValue": 250
    },
    "spellbook": "",
    "preparation": {
      "spontaneousPrepared": false
    },
    "sr": false,
    "shortDescription": "<p><i>Legend lore</i> brings to your mind legends about an important person, place, or thing. If the person or thing is at hand, or if you are in the place in question, the casting time is only 1d4 x 10 minutes. If you have only detailed information on the person, place, or thing, the casting time is 1d10 days, and the resulting lore is less complete and specific (though it often provides enough information to help you find the person, place, or thing, thus allowing a better <i>legend lore</i> result next time). If you know only rumors, the casting time is 2d6 weeks, and the resulting lore is vague and incomplete (though it often directs you to more detailed information, thus allowing a better <i>legend lore</i> result next time).</p><p>During the casting, you cannot engage in other than routine activities: eating, sleeping, and so forth. When completed, the divination brings legends (if any) about the person, place, or things to your mind. These may be legends that are still current, legends that have been forgotten, or even information that has never been generally known. If the person, place, or thing is not of legendary importance, you gain no information. As a rule of thumb, characters who are 11th level and higher are \"legendary,\" as are the sorts of creatures they contend with, the major magic items they wield, and the places where they perform their key deeds.</p>"
  }
}
