{
  "_id": "vrqe9j01339xr4fb",
  "name": "Locksight",
  "type": "spell",
  "img": "systems/pf1/icons/misc/magic-swirl.png",
  "system": {
    "actions": [
      {
        "_id": "nesigkjpyivjs00q",
        "name": "Use",
        "img": "systems/pf1/icons/misc/magic-swirl.png",
        "activation": {
          "type": "standard",
          "unchained": {
            "cost": 2,
            "type": "action"
          }
        },
        "duration": {
          "value": "1 hour/level"
        },
        "target": {
          "value": "one creature"
        },
        "range": {
          "units": "touch"
        },
        "actionType": "spellsave",
        "save": {
          "type": "will",
          "description": "Will negates (harmless)"
        }
      }
    ],
    "learnedAt": {
      "class": {
        "sorcerer": 1,
        "wizard": 1,
        "bard": 1,
        "alchemist": 1,
        "inquisitor": 1,
        "antipaladin": 1
      }
    },
    "school": "div",
    "components": {
      "verbal": true,
      "somatic": true,
      "material": true,
      "divineFocus": 2
    },
    "materials": {
      "value": "a small key"
    },
    "shortDescription": "<p>The target can observe for 1 full round a lock that he is aware of (or object that includes a lock, such as a chest or door) that is within 60 feet to automatically determine whether it is open, closed, or jammed. If the target creature is trained in Disable Device, by concentrating on a lock for 3 rounds, he can also determine the quality of the lock (simple, average, good, or superior). This spell does not enable the target to see hidden locks, such as those on secret doors.</p>"
  }
}
