{
  "_id": "1gm2ngzes1xi3zuu",
  "name": "Lost Passage",
  "type": "spell",
  "img": "systems/pf1/icons/misc/magic-swirl.png",
  "system": {
    "actions": [
      {
        "_id": "o1qsuf77y0oggnvc",
        "name": "Use",
        "img": "systems/pf1/icons/misc/magic-swirl.png",
        "activation": {
          "type": "standard",
          "unchained": {
            "cost": 2,
            "type": "action"
          }
        },
        "duration": {
          "value": "2 hours/level (D)"
        },
        "range": {
          "units": "long"
        },
        "actionType": "spellsave",
        "save": {
          "type": "will",
          "description": "Will partial"
        },
        "spellArea": "one 30-ft. cube/level (S)"
      }
    ],
    "learnedAt": {
      "class": {
        "sorcerer": 4,
        "wizard": 4,
        "bard": 4,
        "psychic": 4,
        "mesmerist": 3
      }
    },
    "level": 4,
    "school": "enc",
    "subschool": "compulsion",
    "types": "mind-affecting",
    "components": {
      "verbal": true,
      "somatic": true
    },
    "shortDescription": "<p>Creatures in the area of this spell are subject to a subtle enchantment that confounds their senses of direction, interferes with recognizing landmarks, and causes them to misjudge distances and angles. Creatures that enter the area must succeed at a new Survival check to avoid becoming lost immediately, whether or not they succeed at their saving throws. Those that fail the save take a penalty on such Survival checks equal to double your caster level, treat all squares they enter as difficult terrain for as long as they are in the area and for 1 hour per caster level thereafter, lose the benefit of all effects that allow them to ignore difficult terrain, and take a -4 penalty to Dexterity. <i>Lost passage</i> can be made permanent with <i>permanency</i> at a cost of 10,000 gp.</p>"
  }
}
