{
  "_id": "8rf2ucrtzmxooyw6",
  "name": "Lunar Veil",
  "type": "spell",
  "img": "systems/pf1/icons/misc/magic-swirl.png",
  "system": {
    "actions": [
      {
        "_id": "ki0gd99exj6ys6td",
        "name": "Use",
        "img": "systems/pf1/icons/misc/magic-swirl.png",
        "activation": {
          "type": "standard",
          "unchained": {
            "cost": 2,
            "type": "action"
          }
        },
        "duration": {
          "value": "10 minute/level"
        },
        "range": {
          "units": "long"
        },
        "actionType": "spellsave",
        "save": {
          "type": "will",
          "description": "Will negates, see text"
        },
        "spellArea": "120-ft.-radius emanation"
      }
    ],
    "learnedAt": {
      "class": {
        "sorcerer": 7,
        "wizard": 7,
        "cleric": 7,
        "oracle": 7,
        "witch": 7,
        "psychic": 7
      }
    },
    "level": 7,
    "school": "ill",
    "subschool": "shadow",
    "types": "darkness, shadow",
    "components": {
      "verbal": true,
      "somatic": true
    },
    "sr": false,
    "shortDescription": "<p>You conjure a tremendous area of shadow to obscure moonlight within the area, creating something akin to a lunar eclipse. The light level is lowered by two steps (though unlike <i>deeper darkness</i>, areas of normal light or dimmer become normal darkness rather than supernaturally dark).</p><p>Lycanthropes in the area must make a Will save every round or revert to their humanoid forms. In addition, lycanthropes attempting to assume animal or hybrid form within the affected area take a -5 penalty on Constitution checks to do so.</p>"
  }
}
