{
  "_id": "9v2s3xjlakjm1eq1",
  "name": "Mage's Private Sanctum",
  "type": "spell",
  "img": "systems/pf1/icons/misc/magic-swirl.png",
  "system": {
    "actions": [
      {
        "_id": "4ar4e7pnpdfdlsro",
        "name": "Use",
        "img": "systems/pf1/icons/misc/magic-swirl.png",
        "activation": {
          "cost": 10,
          "type": "minute",
          "unchained": {
            "cost": 10,
            "type": "minute"
          }
        },
        "duration": {
          "value": "24 hours"
        },
        "range": {
          "units": "close"
        },
        "actionType": "",
        "spellArea": "30-ft. cube/level"
      }
    ],
    "learnedAt": {
      "class": {
        "sorcerer": 5,
        "wizard": 5,
        "psychic": 5,
        "medium": 4,
        "mesmerist": 5,
        "spiritualist": 5
      }
    },
    "level": 5,
    "school": "abj",
    "components": {
      "verbal": true,
      "somatic": true,
      "material": true
    },
    "materials": {
      "value": "a sheet of lead, a piece of glass, a wad of cotton, and powdered chrysolite"
    },
    "sr": false,
    "shortDescription": "<p>This spell ensures privacy. Anyone looking into the area from outside sees only a dark, foggy mass. Darkvision cannot penetrate it. No sounds, no matter how loud, can escape the area, so nobody can eavesdrop from outside. Those inside can see out normally.</p><p>Divination (scrying) spells cannot perceive anything within the area, and those within are immune to <i>detect thoughts</i>. The ward prevents speech between those inside and those outside (because it blocks sound), but it does not prevent other communication, such as a <i>sending</i> or <i>message</i> spell, or telepathic communication, such as that between a wizard and her familiar.</p><p>The spell does not prevent creatures or objects from moving into and out of the area.</p><p>Mage's private sanctum can be made permanent with a <i>permanency</i> spell.</p>"
  }
}
