{
  "_id": "zth9v0zt54r6yad4",
  "name": "Magic Boulder",
  "type": "spell",
  "img": "systems/pf1/icons/misc/magic-swirl.png",
  "system": {
    "actions": [
      {
        "_id": "cwgxjnpbb489odux",
        "name": "Use",
        "img": "systems/pf1/icons/misc/magic-swirl.png",
        "activation": {
          "type": "standard",
          "unchained": {
            "cost": 2,
            "type": "action"
          }
        },
        "duration": {
          "value": "30 minutes or until discharged"
        },
        "target": {
          "value": "up to three boulders touched"
        },
        "range": {
          "units": "touch"
        },
        "actionType": "spellsave",
        "save": {
          "type": "will",
          "description": "Will negates (harmless, object)"
        }
      }
    ],
    "learnedAt": {
      "class": {
        "cleric": 2,
        "oracle": 2,
        "druid": 2,
        "hunter": 2
      }
    },
    "level": 2,
    "school": "trs",
    "types": "earth",
    "components": {
      "verbal": true,
      "somatic": true,
      "divineFocus": 1
    },
    "shortDescription": "<p>This spell works like <i>magic stone</i>, except you transmute as many as three boulders (rocks up to two size categories smaller than yourself) to use with the rock throwing ability or as siege engine ammunition. The boulder's damage increases by one step, and the boulder gains a +1 enhancement bonus on attack and damage rolls.</p>"
  }
}
