{
  "_id": "i929fpupr0ekvf1o",
  "name": "Mental Barrier I",
  "type": "spell",
  "img": "systems/pf1/icons/misc/magic-swirl.png",
  "system": {
    "actions": [
      {
        "_id": "71f6kv14sra8k02h",
        "name": "Use",
        "img": "systems/pf1/icons/misc/magic-swirl.png",
        "activation": {
          "type": "immediate",
          "unchained": {
            "type": "reaction"
          }
        },
        "duration": {
          "value": "1 round"
        },
        "target": {
          "value": "you"
        },
        "range": {
          "units": "personal"
        },
        "actionType": ""
      }
    ],
    "learnedAt": {
      "class": {
        "psychic": 2
      }
    },
    "level": 2,
    "school": "abj",
    "components": {
      "verbal": true
    },
    "sr": false,
    "shortDescription": "<p>You put a barrier of mental energy that protects you from harm. This barrier grants you a +4 shield bonus to AC. In addition, you take half damage from <i>mind thrust I</i> and <i>II</i> (reduced to one-quarter on a successful Will save).</p>"
  }
}
