{
  "_id": "9hnhezzzzrn985o7",
  "name": "Natural Rhythm",
  "type": "spell",
  "img": "systems/pf1/icons/misc/magic-swirl.png",
  "system": {
    "actions": [
      {
        "_id": "ixwzmxtvltyh6yzy",
        "name": "Use",
        "img": "systems/pf1/icons/misc/magic-swirl.png",
        "activation": {
          "type": "standard",
          "unchained": {
            "cost": 2,
            "type": "action"
          }
        },
        "duration": {
          "value": "1 round/level"
        },
        "target": {
          "value": "creature touched"
        },
        "range": {
          "units": "touch"
        },
        "actionType": "spellsave",
        "save": {
          "type": "will",
          "description": "Will negates (harmless)"
        }
      }
    ],
    "learnedAt": {
      "class": {
        "druid": 2,
        "hunter": 2
      }
    },
    "level": 2,
    "school": "trs",
    "components": {
      "verbal": true,
      "somatic": true,
      "material": true
    },
    "materials": {
      "value": "a handful of pebbles dropped one by one onto the ground"
    },
    "shortDescription": "<p>You enhance a creature's ability to harm an opponent based on the number of times it has already injured that opponent with a natural attack. Each time the creature successfully strikes an opponent with a natural attack, the subject gains a cumulative +1 bonus on damage rolls made against that opponent when making natural attacks (maximum +5 bonus). If an attack misses, the bonus to damage for all attacks resets to +0.</p>"
  }
}
