{
  "_id": "ch6iof333ghti2tj",
  "name": "Negate Aroma",
  "type": "spell",
  "img": "systems/pf1/icons/misc/magic-swirl.png",
  "system": {
    "actions": [
      {
        "_id": "1s1m1z2gnky4igu3",
        "name": "Use",
        "img": "systems/pf1/icons/misc/magic-swirl.png",
        "activation": {
          "type": "standard",
          "unchained": {
            "cost": 2,
            "type": "action"
          }
        },
        "duration": {
          "value": "1 hour/level (D)"
        },
        "target": {
          "value": "one creature or object/level touched"
        },
        "range": {
          "units": "close"
        },
        "actionType": "spellsave",
        "save": {
          "type": "fort",
          "description": "Fortitude negates"
        }
      }
    ],
    "learnedAt": {
      "class": {
        "druid": 1,
        "ranger": 1,
        "alchemist": 1,
        "occultist": 1,
        "hunter": 1
      }
    },
    "school": "trs",
    "components": {
      "verbal": true,
      "somatic": true,
      "material": true,
      "divineFocus": 2
    },
    "materials": {
      "value": "a pinch of alum"
    },
    "shortDescription": "<p>With a gesture, this spell allows you to dismiss even the foulest or most distinctive scents. When cast, the targeted creatures or objects lose all natural and unnatural odors. A creature under the effect of <i>negate aroma</i> cannot be tracked, located, or pinpointed by the scent special quality. In addition, this spell prevents the target creature from using the stench special ability and similar odor-based abilities (such as those possessed by troglodytes).</p><p><i>Negate aroma</i> does not prevent the target from acquiring outside smells or odors. Dowsing the creature with a pungent substance effectively negates the benefits of the spell until the substance is neutralized or washed away.</p>"
  }
}
