{
  "_id": "x5hunybxpzhd3gcm",
  "name": "Obscure Object",
  "type": "spell",
  "img": "systems/pf1/icons/misc/magic-swirl.png",
  "system": {
    "actions": [
      {
        "_id": "pwqneskm45sqgpqy",
        "name": "Use",
        "img": "systems/pf1/icons/misc/magic-swirl.png",
        "activation": {
          "type": "standard",
          "unchained": {
            "cost": 2,
            "type": "action"
          }
        },
        "duration": {
          "value": "8 hours"
        },
        "target": {
          "value": "one object touched of up to 100 lbs./level"
        },
        "range": {
          "units": "touch"
        },
        "actionType": "spellsave",
        "save": {
          "type": "will",
          "description": "Will negates (object)"
        }
      }
    ],
    "learnedAt": {
      "class": {
        "sorcerer": 2,
        "wizard": 2,
        "cleric": 3,
        "oracle": 3,
        "bard": 1,
        "inquisitor": 3,
        "psychic": 2,
        "mesmerist": 1,
        "occultist": 2,
        "spiritualist": 3
      }
    },
    "level": 2,
    "school": "abj",
    "components": {
      "verbal": true,
      "somatic": true,
      "material": true,
      "divineFocus": 2
    },
    "materials": {
      "value": "chameleon skin"
    },
    "shortDescription": "<p>This spell hides an object from location by divination (<i>scrying</i>) effects, such as the <i>scrying</i> spell or a <i>crystal ball</i>. Such an attempt automatically fails (if the divination is targeted on the object) or fails to perceive the object (if the divination is targeted on a nearby location, object, or person).</p>"
  }
}
