{
  "_id": "y1mplbqkgu5v11xg",
  "name": "Old Salt's Curse",
  "type": "spell",
  "img": "systems/pf1/icons/misc/magic-swirl.png",
  "system": {
    "actions": [
      {
        "_id": "esoy26mg4gk4i2rc",
        "name": "Use",
        "img": "systems/pf1/icons/misc/magic-swirl.png",
        "activation": {
          "type": "standard",
          "unchained": {
            "cost": 2,
            "type": "action"
          }
        },
        "duration": {
          "value": "permanent"
        },
        "target": {
          "value": "one creature"
        },
        "range": {
          "units": "touch"
        },
        "actionType": "spellsave",
        "save": {
          "type": "will",
          "description": "Will negates"
        }
      }
    ],
    "learnedAt": {
      "class": {
        "druid": 5,
        "witch": 5,
        "mesmerist": 4,
        "hunter": 5
      }
    },
    "level": 5,
    "school": "nec",
    "types": "curse",
    "components": {
      "verbal": true,
      "somatic": true,
      "material": true
    },
    "materials": {
      "value": "a flask of seawater"
    },
    "shortDescription": "<p>You inflict a curse of the roiling sea upon the target, making it permanently sickened. Anytime the target is on or in the water more than a mile from shore, it also becomes staggered with seasickness. This curse cannot be dispelled, though <i>remove curse</i> or <i>break enchantment</i> can negate it.</p>"
  }
}
