{
  "_id": "4d9r5y2sktoz0ktf",
  "name": "Outbreak",
  "type": "spell",
  "img": "systems/pf1/icons/misc/magic-swirl.png",
  "system": {
    "actions": [
      {
        "_id": "1a3chd4scik3aeop",
        "name": "Use",
        "img": "systems/pf1/icons/misc/magic-swirl.png",
        "activation": {
          "type": "standard",
          "unchained": {
            "cost": 2,
            "type": "action"
          }
        },
        "duration": {
          "value": "instantaneous"
        },
        "range": {
          "units": "close"
        },
        "actionType": "spellsave",
        "save": {
          "type": "fort",
          "description": "Fortitude partial"
        },
        "spellArea": "20-ft. burst"
      }
    ],
    "learnedAt": {
      "class": {
        "sorcerer": 3,
        "wizard": 3,
        "cleric": 2,
        "oracle": 2,
        "druid": 2,
        "antipaladin": 2,
        "bloodrager": 3,
        "hunter": 2
      }
    },
    "level": 3,
    "school": "nec",
    "components": {
      "verbal": true,
      "somatic": true
    },
    "shortDescription": "<p>You cause any diseased creatures in the area to become extremely contagious. Any affected creature is overcome by a fit of wracking coughs, causing it to become fatigued and exposing any creatures within 10 feet of the diseased creature to the diseases it carries. On a successful save, a creature is fatigued for 1 round and doesn't have a chance to infect nearby creatures.</p>"
  }
}
