{
  "_id": "np203icv5b3gr1s9",
  "name": "Phantom Trap",
  "type": "spell",
  "img": "systems/pf1/icons/misc/magic-swirl.png",
  "system": {
    "actions": [
      {
        "_id": "wzsbfb8z5jpsdg27",
        "name": "Use",
        "img": "systems/pf1/icons/misc/magic-swirl.png",
        "activation": {
          "type": "standard",
          "unchained": {
            "cost": 2,
            "type": "action"
          }
        },
        "duration": {
          "value": "permanent"
        },
        "target": {
          "value": "object touched"
        },
        "range": {
          "units": "touch"
        },
        "actionType": ""
      }
    ],
    "learnedAt": {
      "class": {
        "sorcerer": 2,
        "wizard": 2,
        "psychic": 2,
        "mesmerist": 2,
        "occultist": 2,
        "spiritualist": 2
      }
    },
    "level": 2,
    "school": "ill",
    "subschool": "glamer",
    "components": {
      "verbal": true,
      "somatic": true,
      "material": true
    },
    "materials": {
      "value": "special dust worth 50 gp",
      "gpValue": 50
    },
    "spellbook": "",
    "preparation": {
      "spontaneousPrepared": false
    },
    "sr": false,
    "shortDescription": "<p>This spell makes a lock or other small mechanism seem to be trapped to anyone who can detect traps. You place the spell upon any small mechanism or device, such as a lock, hinge, hasp, cork, cap, or ratchet. Any character able to detect traps, or who uses any spell or device enabling trap detection, is certain a real trap exists.</p><p>Of course, the effect is illusory and nothing happens if the trap is \"sprung\"; its primary purpose is to frighten away thieves or make them waste precious time.</p><p>If another <i>phantom trap</i> is active within 50 feet when the spell is cast, the casting fails.</p>"
  }
}
