{
  "_id": "f5trhl5spjh02e0p",
  "name": "Play Instrument",
  "type": "spell",
  "img": "systems/pf1/icons/misc/magic-swirl.png",
  "system": {
    "actions": [
      {
        "_id": "36i6ipzkdw3xh4xf",
        "name": "Use",
        "img": "systems/pf1/icons/misc/magic-swirl.png",
        "activation": {
          "type": "standard",
          "unchained": {
            "cost": 2,
            "type": "action"
          }
        },
        "duration": {
          "value": "10 minute/level"
        },
        "target": {
          "value": "you"
        },
        "range": {
          "units": "personal"
        },
        "actionType": ""
      }
    ],
    "learnedAt": {
      "class": {
        "bard": 1
      }
    },
    "school": "div",
    "components": {
      "verbal": true,
      "somatic": true
    },
    "sr": false,
    "shortDescription": "<p>You may play one instrument of your choice as if you had 1 rank in the appropriate Perform skill. Instead of a conventional instrument, you may use an object as an improvised instrument, such as using a barrel as a drum or a bow as a harp, playing it as if it were crafted to make music.</p>"
  }
}
