{
  "_id": "barb21n7r3wx8cql",
  "name": "Raise Animal Companion",
  "type": "spell",
  "img": "systems/pf1/icons/misc/magic-swirl.png",
  "system": {
    "actions": [
      {
        "_id": "vjbghuug511ukqj9",
        "name": "Use",
        "img": "systems/pf1/icons/misc/magic-swirl.png",
        "activation": {
          "type": "minute",
          "unchained": {
            "type": "minute"
          }
        },
        "duration": {
          "value": "instantaneous"
        },
        "target": {
          "value": "dead animal companion or bonded mount"
        },
        "range": {
          "units": "touch"
        },
        "actionType": "heal",
        "save": {
          "description": "none, see text"
        }
      }
    ],
    "learnedAt": {
      "class": {
        "druid": 5,
        "ranger": 4,
        "paladin": 4,
        "hunter": 4
      }
    },
    "level": 5,
    "school": "con",
    "subschool": "healing",
    "components": {
      "verbal": true,
      "somatic": true,
      "material": true
    },
    "materials": {
      "value": "a diamond worth 1,000 gp",
      "gpValue": 1000
    },
    "spellbook": "",
    "preparation": {
      "spontaneousPrepared": false
    },
    "shortDescription": "<p>This spell functions as <i>raise dead</i>, but it only affects an animal companion, familiar, or paladin's bonded mount.</p>"
  }
}
