{
  "_id": "1rs0oxaaovfz8etv",
  "name": "Reckless Infatuation",
  "type": "spell",
  "img": "systems/pf1/icons/misc/magic-swirl.png",
  "system": {
    "actions": [
      {
        "_id": "e79j333gksl5505n",
        "name": "Use",
        "img": "systems/pf1/icons/misc/magic-swirl.png",
        "activation": {
          "type": "standard",
          "unchained": {
            "cost": 2,
            "type": "action"
          }
        },
        "duration": {
          "value": "1 day/level"
        },
        "target": {
          "value": "one creature"
        },
        "range": {
          "units": "close"
        },
        "actionType": "spellsave",
        "save": {
          "type": "will",
          "description": "Will negates"
        }
      }
    ],
    "learnedAt": {
      "class": {
        "sorcerer": 3,
        "wizard": 3,
        "bard": 2,
        "witch": 3,
        "psychic": 3,
        "mesmerist": 2
      }
    },
    "level": 3,
    "school": "enc",
    "subschool": "compulsion",
    "types": "emotion, mind-affecting",
    "components": {
      "verbal": true,
      "somatic": true
    },
    "shortDescription": "<p>You fill your target with feelings of intense infatuation for a specific individual known to the target. At the time of the casting, you designate a single creature as the focus of the target's desire.</p><p>Thereafter, the target does all it can to remain within 30 feet of the object of its desire. If the target moves outside this range, it gains the staggered condition until it is again near the focus of its desire. If remaining within 30 feet of the focus of its affection would place the target in obvious physical danger, the target can attempt a second save to break the spell's effect.</p><p><i>Reckless infatuation</i> counters <i>unadulterated loathing</i>.</p>"
  }
}
