{
  "_id": "f4v928e4ebt7h0hz",
  "name": "Reduce Person, Mass",
  "type": "spell",
  "img": "systems/pf1/icons/misc/magic-swirl.png",
  "system": {
    "actions": [
      {
        "_id": "sfke5ih9zwgi846i",
        "name": "Use",
        "img": "systems/pf1/icons/misc/magic-swirl.png",
        "activation": {
          "type": "round",
          "unchained": {
            "cost": 3,
            "type": "action"
          }
        },
        "duration": {
          "value": "1 min./level"
        },
        "target": {
          "value": "one humanoid creature/level, no two of which can be more than 30 ft. apart"
        },
        "range": {
          "units": "close"
        },
        "actionType": "spellsave",
        "save": {
          "type": "fort",
          "description": "Fortitude negates"
        }
      }
    ],
    "learnedAt": {
      "class": {
        "sorcerer": 4,
        "wizard": 4,
        "summoner": 3,
        "bloodrager": 4,
        "psychic": 4,
        "unchained Summoner": 4
      }
    },
    "level": 4,
    "school": "trs",
    "components": {
      "verbal": true,
      "somatic": true,
      "material": true
    },
    "materials": {
      "value": "a pinch of powdered iron"
    },
    "shortDescription": "<p>This spell functions like <i>reduce person</i>, except that it affects multiple creatures.</p>"
  }
}
