{
  "_id": "hcht5qnm4v65avhg",
  "name": "Rejuvenate Eidolon",
  "type": "spell",
  "img": "systems/pf1/icons/spells/heal-royal-2.jpg",
  "system": {
    "actions": [
      {
        "_id": "huxyihgntdiqby0p",
        "name": "Use",
        "img": "systems/pf1/icons/spells/heal-royal-2.jpg",
        "activation": {
          "type": "standard",
          "unchained": {
            "cost": 2,
            "type": "action"
          }
        },
        "duration": {
          "value": "instantaneous"
        },
        "target": {
          "value": "eidolon touched"
        },
        "range": {
          "units": "touch"
        },
        "actionType": "heal",
        "damage": {
          "parts": [
            {
              "formula": "3d10 + min(@cl, 10)",
              "type": {
                "values": ["untyped"],
                "custom": ""
              }
            }
          ]
        }
      }
    ],
    "learnedAt": {
      "class": {
        "summoner": 3,
        "unchained Summoner": 3
      }
    },
    "level": 3,
    "school": "con",
    "subschool": "healing",
    "components": {
      "verbal": true,
      "somatic": true,
      "material": true
    },
    "materials": {
      "value": "a drop of your blood"
    },
    "spellbook": "",
    "sr": false,
    "shortDescription": "<p>This spell functions as <i>lesser rejuvenate eidolon</i>, except that it cures 3d10 points of damage +1 point per caster level (maximum +10).</p>"
  }
}
