{
  "_id": "sy3twpjgb5sp0jww",
  "name": "Scrivener's Chant",
  "type": "spell",
  "img": "systems/pf1/icons/misc/magic-swirl.png",
  "system": {
    "actions": [
      {
        "_id": "pz7j4qkv848ba4to",
        "name": "Use",
        "img": "systems/pf1/icons/misc/magic-swirl.png",
        "activation": {
          "type": "standard",
          "unchained": {
            "cost": 2,
            "type": "action"
          }
        },
        "duration": {
          "value": "concentration, up to 1 minute/level"
        },
        "target": {
          "value": "one or more written objects"
        },
        "range": {
          "value": "5",
          "units": "ft"
        },
        "actionType": "spellsave",
        "save": {
          "type": "will",
          "description": "Will (harmless, object)"
        }
      }
    ],
    "uses": {
      "autoDeductChargesCost": "0"
    },
    "learnedAt": {
      "class": {
        "sorcerer": 0,
        "wizard": 0,
        "cleric": 0,
        "oracle": 0,
        "bard": 0
      }
    },
    "level": 0,
    "school": "trs",
    "components": {
      "verbal": true,
      "somatic": true,
      "material": true
    },
    "materials": {
      "value": "fine sand and a vial of ink"
    },
    "shortDescription": "<p>This spell imbues a quill with animate energy and rapidly transcribes words from one page to another. The quill copies a written work at the rate of one normal-sized page per minute.</p><p>The Linguistics skill can be used to make a convincing copy, but otherwise the reproduction is written in the hand of the caster.</p><p>You must concentrate upon the material being duplicated for the spell's duration and provide new blank pages as required.</p><p>The <i>scrivener's chant</i> requires blank paper and a quill or other writing materials, in addition to the material components.</p><p>This spell cannot duplicate magical writing (including spells and magical scrolls), though it can duplicate non-magical writing from a magical source.</p>"
  }
}
