{
  "_id": "s7fu6mwik67l33hf",
  "name": "Shapechanger's Gift, Greater",
  "type": "spell",
  "img": "systems/pf1/icons/misc/magic-swirl.png",
  "system": {
    "actions": [
      {
        "_id": "uliiqsbsogspqmsc",
        "name": "Use",
        "img": "systems/pf1/icons/misc/magic-swirl.png",
        "activation": {
          "type": "standard",
          "unchained": {
            "cost": 2,
            "type": "action"
          }
        },
        "duration": {
          "value": "1 hour/level"
        },
        "target": {
          "value": "willing living creature touched"
        },
        "range": {
          "units": "touch"
        },
        "actionType": "spellsave",
        "save": {
          "type": "fort",
          "description": "Fortitude negates (harmless)"
        }
      }
    ],
    "learnedAt": {
      "class": {
        "sorcerer": 7,
        "wizard": 7
      }
    },
    "level": 7,
    "school": "trs",
    "subschool": "polymorph",
    "components": {
      "verbal": true,
      "somatic": true,
      "material": true
    },
    "materials": {
      "value": "a piece of the creature whose form you plan to grant"
    },
    "shortDescription": "<p>This spell functions as <i>shapechanger's gift</i> except the chosen form can be an animal (as per <i>beast shape</i> I), elemental (as per <i>elemental body</i> I), fey (as per <i>fey form I</i>*), humanoid (as per <i>alter</i> self), monstrous humanoid (as per <i>monstrous physique</i> IUM), or vermin (as per <i>vermin shape</i> IUM) and the chosen form can have a fly speed.</p>"
  }
}
