{
  "_id": "so9c3vk1spf4qm8k",
  "name": "Sheet Lightning",
  "type": "spell",
  "img": "systems/pf1/icons/misc/magic-swirl.png",
  "system": {
    "actions": [
      {
        "_id": "4oudsi4zpf3u1fvg",
        "name": "Use",
        "img": "systems/pf1/icons/misc/magic-swirl.png",
        "activation": {
          "type": "standard",
          "unchained": {
            "cost": 2,
            "type": "action"
          }
        },
        "duration": {
          "value": "instantaneous"
        },
        "target": {
          "value": "20-ft.-radius spread"
        },
        "range": {
          "units": "medium"
        },
        "actionType": "spellsave",
        "save": {
          "type": "fort",
          "description": "Fortitude partial"
        }
      }
    ],
    "learnedAt": {
      "class": {
        "sorcerer": 3,
        "wizard": 3,
        "druid": 3,
        "hunter": 3
      }
    },
    "level": 3,
    "school": "evo",
    "types": "electricity",
    "components": {
      "verbal": true,
      "somatic": true
    },
    "shortDescription": "<p>You create a dazzling flash of electricity that fills the target area. Sheet lightning inflicts 1 point of electricity damage to all creatures within the area of effect (no save). The true power of the spell, though, lies not in the damage it inflicts but in the overwhelming pain the lightning creates. The sudden flash and jolt dazes living creatures for 1 round if they fail a saving throw. Creatures that save are instead dazzled for 1 round. Any creature wearing metal armor takes a -2 penalty to its saving throw against this spell.</p>"
  }
}
