{
  "_id": "tvv8fqfi8i2zwbll",
  "name": "Shield the Banner",
  "type": "spell",
  "img": "systems/pf1/icons/misc/magic-swirl.png",
  "system": {
    "actions": [
      {
        "_id": "lsgq952dmzprbo7u",
        "name": "Use",
        "img": "systems/pf1/icons/misc/magic-swirl.png",
        "activation": {
          "type": "standard",
          "unchained": {
            "cost": 2,
            "type": "action"
          }
        },
        "duration": {
          "value": "1 minute/level"
        },
        "target": {
          "value": "standard touched"
        },
        "range": {
          "units": "touch"
        },
        "actionType": "spellsave",
        "save": {
          "type": "will",
          "description": "Will negates"
        }
      }
    ],
    "learnedAt": {
      "class": {
        "cleric": 1,
        "oracle": 1
      }
    },
    "school": "abj",
    "components": {
      "verbal": true,
      "somatic": true,
      "divineFocus": 1
    },
    "sr": false,
    "shortDescription": "<p>This spell is used to protect one of a tribe's most valuable possessions: its tribal banner. Any creature (other than a member of the tribe which the standard represents) attempting to directly attack or touch the standard must make a Will save. This spell functions as sanctuary, but only protects a standard or banner. In addition, the spell grants a +2 bonus to the standard's hardness, and +10 to the standard's hit points for the duration of the spell.</p>"
  }
}
