{
  "_id": "ztg59cklsxxtuodl",
  "name": "Shroud of Innocuity",
  "type": "spell",
  "img": "systems/pf1/icons/misc/magic-swirl.png",
  "system": {
    "actions": [
      {
        "_id": "bxr8y2iiu6o9d9fb",
        "name": "Use",
        "img": "systems/pf1/icons/misc/magic-swirl.png",
        "activation": {
          "type": "minute",
          "unchained": {
            "type": "minute"
          }
        },
        "duration": {
          "value": "1 hour/level (D)"
        },
        "target": {
          "value": "one willing creature plus one/2 caster levels, no two of which can be more than 30 ft. apart"
        },
        "range": {
          "units": "close"
        },
        "actionType": "spellsave",
        "save": {
          "description": "none (harmless); see text"
        }
      }
    ],
    "learnedAt": {
      "class": {
        "sorcerer": 3,
        "wizard": 3,
        "bard": 3,
        "witch": 3,
        "shaman": 3,
        "psychic": 3,
        "medium": 3,
        "mesmerist": 3
      }
    },
    "level": 3,
    "school": "ill",
    "subschool": "glamer",
    "components": {
      "verbal": true,
      "somatic": true
    },
    "sr": false,
    "shortDescription": "<p>All affected creatures are veiled with a commonplace appearance. This appearance varies based on the viewer, but is always an ordinary member of that viewer's race, ethnicity, or nationality. This familiarity grants a +2 bonus on Diplomacy checks attempted by affected targets against those not affected by the spell.  Creatures with an attitude of unfriendly or hostile toward an affected target can attempt a Will save to disbelieve the effect the first time they encounter that target.</p>"
  }
}
