{
  "_id": "kq916lznxo0ig68v",
  "name": "Silent Image",
  "type": "spell",
  "img": "systems/pf1/icons/misc/magic-swirl.png",
  "system": {
    "actions": [
      {
        "_id": "qv1z8j2o8v7bu76j",
        "name": "Use",
        "img": "systems/pf1/icons/misc/magic-swirl.png",
        "activation": {
          "type": "standard",
          "unchained": {
            "cost": 2,
            "type": "action"
          }
        },
        "duration": {
          "value": "concentration"
        },
        "range": {
          "units": "long"
        },
        "actionType": "spellsave",
        "save": {
          "type": "will",
          "description": "Will disbelief (if interacted with)"
        },
        "spellEffect": "visual figment that cannot extend beyond four 10-ft. Cubes + one 10-ft. cube/level (S)"
      }
    ],
    "learnedAt": {
      "class": {
        "sorcerer": 1,
        "wizard": 1,
        "bard": 1,
        "magus": 1,
        "psychic": 1,
        "medium": 1,
        "mesmerist": 1,
        "occultist": 1
      },
      "subDomain": {
        "Imagination": 1
      }
    },
    "school": "ill",
    "subschool": "figment",
    "components": {
      "verbal": true,
      "somatic": true,
      "focus": true
    },
    "materials": {
      "focus": "a bit of fleece"
    },
    "sr": false,
    "shortDescription": "<p>This spell creates the visual illusion of an object, creature, or force, as visualized by you. The illusion does not create sound, smell, texture, or temperature. You can move the image within the limits of the size of the effect.</p>"
  }
}
