{
  "name": "Slick Walls",
  "type": "spell",
  "img": "icons/commodities/stone/masonry-block-cube-grey-teal.webp",
  "system": {
    "actions": [
      {
        "_id": "MAFPNmu9hWJgCqGs",
        "name": "Use",
        "img": "icons/commodities/stone/masonry-block-cube-grey-teal.webp",
        "activation": {
          "type": "standard",
          "unchained": {
            "cost": 2,
            "type": "action"
          }
        },
        "duration": {
          "value": "1 minute/level (D)"
        },
        "range": {
          "units": "close"
        },
        "measureTemplate": {
          "type": "circle",
          "size": "30"
        },
        "actionType": "",
        "spellArea": "30-ft.-radius emanation centered on a point in space"
      }
    ],
    "uses": {
      "autoDeductChargesCost": ""
    },
    "learnedAt": {
      "class": {
        "arcanist": 2,
        "bard": 2,
        "magus": 2,
        "skald": 2,
        "sorcerer": 2,
        "summoner": 2,
        "summoner (unchained)": 2,
        "wizard": 2
      }
    },
    "level": 2,
    "school": "con",
    "subschool": "creation",
    "components": {
      "verbal": true,
      "somatic": true,
      "material": true
    },
    "materials": {
      "value": "drop of oil"
    },
    "spellbook": "",
    "sr": false,
    "shortDescription": "<p>You coat all walls and ceilings within the spell’s area with a slick substance. The DC of all @UUID[Compendium.pf1.pf1e-rules.x175kVqUfLGPt8tC.JournalEntryPage.ZAwjVOTwsBpZRgw4]{Climb} checks for the affected surfaces increases by twice your caster level (maximum +20). Creatures cannot take 10 on Climb checks while scaling the affected surfaces, even if they have a climb speed or other ability that would normally allow taking 10. This spell has no effect on magical walls or surfaces, such as the sides of a hole created with @Compendium[pf1.spells.8w67l6dzzsi6oz5f]{create pit}.</p>"
  },
  "_id": "wfO1Le5vpgGPBdmI"
}
