{
  "_id": "wzv7btl0r3l2nzmm",
  "name": "Spider Climb, Communal",
  "type": "spell",
  "img": "systems/pf1/icons/misc/magic-swirl.png",
  "system": {
    "actions": [
      {
        "_id": "p4qxr9bx5tu9admx",
        "name": "Use",
        "img": "systems/pf1/icons/misc/magic-swirl.png",
        "activation": {
          "type": "standard",
          "unchained": {
            "cost": 2,
            "type": "action"
          }
        },
        "duration": {
          "value": "10 min./level"
        },
        "target": {
          "value": "creatures touched"
        },
        "range": {
          "units": "touch"
        },
        "actionType": "spellsave",
        "save": {
          "type": "will",
          "description": "Will negates (harmless)"
        }
      }
    ],
    "learnedAt": {
      "class": {
        "sorcerer": 3,
        "wizard": 3,
        "druid": 3,
        "alchemist": 3,
        "summoner": 3,
        "psychic": 3,
        "occultist": 3,
        "hunter": 3,
        "unchained Summoner": 3
      }
    },
    "level": 3,
    "school": "trs",
    "components": {
      "verbal": true,
      "somatic": true,
      "material": true
    },
    "materials": {
      "value": "a live spider"
    },
    "shortDescription": "<p>This spell functions like <i>spider climb</i>, except you divide the duration in 10-minute intervals among the creatures touched.</p>"
  }
}
