{
  "_id": "lej06zubdbxi3s8f",
  "name": "Sundered Serpent Coil",
  "type": "spell",
  "img": "systems/pf1/icons/misc/magic-swirl.png",
  "system": {
    "actions": [
      {
        "_id": "obsrahnm5hvsibac",
        "name": "Use",
        "img": "systems/pf1/icons/misc/magic-swirl.png",
        "activation": {
          "type": "standard",
          "unchained": {
            "cost": 2,
            "type": "action"
          }
        },
        "duration": {
          "value": "1 round/level (D)"
        },
        "range": {
          "units": "medium"
        },
        "actionType": "",
        "spellArea": "one 5-foot square"
      }
    ],
    "learnedAt": {
      "class": {
        "sorcerer": 3,
        "wizard": 3,
        "summoner": 3,
        "witch": 3,
        "magus": 3,
        "unchained Summoner": 3
      }
    },
    "level": 3,
    "school": "con",
    "subschool": "creation",
    "components": {
      "verbal": true,
      "somatic": true,
      "material": true
    },
    "materials": {
      "value": "a snake scale"
    },
    "sr": false,
    "shortDescription": "<p>This spell functions like <i>black tentacles</i>, except it creates a Large decapitated snake, which erupts from the ground and grapples a creature you specify within its 5-foot reach. As a standard action, you can command the snake to release its grappled target and direct it to attack a different creature.</p>"
  }
}
