{
  "_id": "8ru8b4ze5yt7eyuo",
  "name": "Surefoot Boots",
  "type": "spell",
  "img": "systems/pf1/icons/misc/magic-swirl.png",
  "system": {
    "actions": [
      {
        "_id": "vet6lvwwfueh3l1m",
        "name": "Use",
        "img": "systems/pf1/icons/misc/magic-swirl.png",
        "activation": {
          "type": "standard",
          "unchained": {
            "cost": 2,
            "type": "action"
          }
        },
        "duration": {
          "value": "1 round/level"
        },
        "target": {
          "value": "you"
        },
        "range": {
          "units": "personal"
        },
        "actionType": ""
      }
    ],
    "learnedAt": {
      "class": {
        "druid": 2,
        "ranger": 2,
        "shaman": 2,
        "occultist": 2,
        "hunter": 2
      }
    },
    "level": 2,
    "school": "trs",
    "components": {
      "verbal": true,
      "somatic": true,
      "focus": true
    },
    "materials": {
      "focus": "footwear"
    },
    "sr": false,
    "shortDescription": "<p>You touch your boots, shoes, or other footwear and imbue them with the ability to find purchase on even the most treacherous ground. While the spell is in effect, the footwear's wearer treats any Acrobatics skill check to balance as though the wearer had rolled a 20.</p>"
  }
}
