{
  "_id": "xrolhxi6j3oksz0s",
  "name": "Symbol of Debauchery",
  "type": "spell",
  "img": "systems/pf1/icons/misc/magic-swirl.png",
  "system": {
    "actions": [
      {
        "_id": "12q6u28u0j8ct09h",
        "name": "Use",
        "img": "systems/pf1/icons/misc/magic-swirl.png",
        "activation": {
          "cost": 10,
          "type": "minute",
          "unchained": {
            "cost": 10,
            "type": "minute"
          }
        },
        "duration": {
          "value": "see text"
        },
        "range": {
          "value": "0",
          "units": "ft"
        },
        "actionType": "spellsave",
        "save": {
          "type": "will",
          "description": "Will negates"
        },
        "spellEffect": "one symbol"
      }
    ],
    "learnedAt": {
      "class": {
        "sorcerer": 8,
        "wizard": 8,
        "cleric": 8,
        "oracle": 8,
        "bard": 6,
        "witch": 8
      }
    },
    "level": 8,
    "school": "enc",
    "subschool": "compulsion",
    "types": "emotion, mind-affecting",
    "components": {
      "verbal": true,
      "somatic": true,
      "material": true
    },
    "materials": {
      "value": "a set of bull genitals and powdered ruby worth 5,000 gp",
      "gpValue": 5000
    },
    "spellbook": "",
    "preparation": {
      "spontaneousPrepared": false
    },
    "shortDescription": "<p>You conjure a sizable symbol into being, a rune suggestive of bloated bodies, flung food, and flowing wine. This spell functions as <i>symbol of death</i>, except that all creatures within 60 feet of the <i>Symbol of Debauchery</i> are instead filled with lust for the nearest conscious creature. This effect lasts for 1 round per caster level, even after creatures leave the symbol's area of effect. Affected creatures are compelled to rush to the nearest creature in order to caress and kiss it, and may take no other actions. Each creature receives a single Will save when the <i>Symbol of Debauchery</i> is triggered to negate the effect. If no other creatures are visible, an affected creature may act normally.</p>"
  }
}
