{
  "_id": "k6nfhf1wvik082wu",
  "name": "Symbol of Pain",
  "type": "spell",
  "img": "systems/pf1/icons/misc/magic-swirl.png",
  "system": {
    "actions": [
      {
        "_id": "zdiomramsgcpu7fd",
        "name": "Use",
        "img": "systems/pf1/icons/misc/magic-swirl.png",
        "activation": {
          "cost": 10,
          "type": "minute",
          "unchained": {
            "cost": 10,
            "type": "minute"
          }
        },
        "duration": {
          "value": "see text"
        },
        "range": {
          "value": "0",
          "units": "ft"
        },
        "actionType": "spellsave",
        "save": {
          "type": "fort",
          "description": "Fortitude negates"
        },
        "spellEffect": "one symbol"
      }
    ],
    "learnedAt": {
      "class": {
        "sorcerer": 5,
        "wizard": 5,
        "cleric": 5,
        "oracle": 5,
        "witch": 5,
        "mesmerist": 5,
        "occultist": 4
      },
      "subDomain": {
        "Torture": 5,
        "Kyton": 5
      }
    },
    "level": 5,
    "school": "nec",
    "types": "evil, pain",
    "components": {
      "verbal": true,
      "somatic": true,
      "material": true
    },
    "materials": {
      "value": "mercury and phosphorus, plus powdered diamond and opal worth a total of 1,000 gp",
      "gpValue": 1000
    },
    "spellbook": "",
    "preparation": {
      "spontaneousPrepared": false
    },
    "shortDescription": "<p>This spell functions like <i><i>symbol of</i> death</i>, except that each creature within the radius of a <i><i>symbol of</i> <i>pain</i></i> instead suffers wracking <i>pain</i>s that impose a -4 penalty on attack rolls, skill checks, and ability checks. These effects last for 1 hour after the creature moves farther than 60 feet from the symbol.</p><p>Unlike <i><i>symbol of</i> death</i>, <i><i>symbol of</i> <i>pain</i></i> has no hit point limit; once triggered, a <i><i>symbol of</i> <i>pain</i></i> simply remains active for 10 minutes per caster level.</p><p><i>Note:</i> Magic traps such as <i><i>symbol of</i> <i>pain</i></i> are hard to detect and disable. A rogue (only) can use the Perception skill to find a <i><i>symbol of</i> <i>pain</i></i> and Disable Device to thwart it. The DC in each case is 25 + spell level, or 30 for <i><i>symbol of</i> <i>pain</i></i>.</p>"
  }
}
