{
  "_id": "ylewzn5nlzy7ugdm",
  "name": "Symbol of Weakness",
  "type": "spell",
  "img": "systems/pf1/icons/misc/magic-swirl.png",
  "system": {
    "actions": [
      {
        "_id": "1ya5clmsapzh2i19",
        "name": "Use",
        "img": "systems/pf1/icons/misc/magic-swirl.png",
        "activation": {
          "cost": 10,
          "type": "minute",
          "unchained": {
            "cost": 10,
            "type": "minute"
          }
        },
        "duration": {
          "value": "see text"
        },
        "range": {
          "value": "0",
          "units": "ft"
        },
        "actionType": "spellsave",
        "save": {
          "type": "fort",
          "description": "Fortitude negates"
        },
        "spellEffect": "one symbol"
      }
    ],
    "learnedAt": {
      "class": {
        "sorcerer": 7,
        "wizard": 7,
        "cleric": 7,
        "oracle": 7,
        "witch": 7,
        "occultist": 5
      }
    },
    "level": 7,
    "school": "nec",
    "components": {
      "verbal": true,
      "somatic": true,
      "material": true
    },
    "materials": {
      "value": "mercury and phosphorus, plus powdered diamond and opal worth a total of 5,000 gp",
      "gpValue": 5000
    },
    "spellbook": "",
    "preparation": {
      "spontaneousPrepared": false
    },
    "shortDescription": "<p>This spell functions like <i>symbol of death</i>, except that every creature within 60 feet of a <i>Symbol of Weakness</i> instead suffers crippling weakness that deals 3d6 points of Strength damage.</p><p>Unlike <i>symbol of death</i>, <i>Symbol of Weakness</i> has no hit point limit; once triggered, a <i>Symbol of Weakness</i> simply remains active for 10 minutes per caster level. A creature can only be affected by this symbol once.</p><p><i>Note</i>: Magic traps such as <i>Symbol of Weakness</i> are hard to detect and disable. While any character can use Perception to find a symbol, only a character with the trapfinding class feature can use Disable Device to disarm it. The DC in each case is 25 + spell level, or 32 for <i>Symbol of Weakness</i>.</p>"
  }
}
