{
  "_id": "4jddpsd5pkky0qjg",
  "name": "Synapse Overload",
  "type": "spell",
  "img": "systems/pf1/icons/misc/magic-swirl.png",
  "system": {
    "actions": [
      {
        "_id": "3v52acem6a4tgj7s",
        "name": "Use",
        "img": "systems/pf1/icons/misc/magic-swirl.png",
        "activation": {
          "type": "standard",
          "unchained": {
            "cost": 2,
            "type": "action"
          }
        },
        "duration": {
          "value": "instantaneous"
        },
        "target": {
          "value": "living creature touched"
        },
        "range": {
          "units": "touch"
        },
        "actionType": "spellsave",
        "save": {
          "type": "fort",
          "description": "Fortitude partial (see text)"
        }
      }
    ],
    "learnedAt": {
      "class": {
        "psychic": 5,
        "mesmerist": 4
      }
    },
    "level": 5,
    "school": "div",
    "types": "mind-affecting",
    "components": {
      "verbal": true
    },
    "shortDescription": "<p>You cause the target's mind to unleash a vast overflowing torrent of information throughout the target's body, causing the target's synapses to violently trigger. The target takes 1d6 points of electrical damage per caster level (maximum 15d6) and is staggered for 1 minute. A successful Fortitude saving throw doesn't reduce the damage, but it negates the staggered effect.</p>"
  }
}
