{
  "_id": "gzgg3o1y238crj50",
  "name": "Thought Shield I",
  "type": "spell",
  "img": "systems/pf1/icons/misc/magic-swirl.png",
  "system": {
    "actions": [
      {
        "_id": "pu2bp4fqqf9ybwim",
        "name": "Use",
        "img": "systems/pf1/icons/misc/magic-swirl.png",
        "activation": {
          "type": "immediate",
          "unchained": {
            "type": "reaction"
          }
        },
        "duration": {
          "value": "1 round"
        },
        "target": {
          "value": "you"
        },
        "range": {
          "units": "personal"
        },
        "actionType": ""
      }
    ],
    "learnedAt": {
      "class": {
        "psychic": 2
      }
    },
    "level": 2,
    "school": "abj",
    "components": {
      "verbal": true
    },
    "sr": false,
    "shortDescription": "<p>Sensing an intrusion, you throw up a defense to protect your mind from attack or analysis. This grants you a +4 circumstance bonus on Will saving throws against mind-affecting effects. As long as this spell lasts, spells and effects that allow a creature to read your thoughts receive no information from you.</p>"
  }
}
