{
  "_id": "nwjbdtmh29l85oqb",
  "name": "Transfer Regeneration",
  "type": "spell",
  "img": "systems/pf1/icons/misc/magic-swirl.png",
  "system": {
    "actions": [
      {
        "_id": "leu43a4pl4pikzx8",
        "name": "Use",
        "img": "systems/pf1/icons/misc/magic-swirl.png",
        "activation": {
          "type": "standard",
          "unchained": {
            "cost": 2,
            "type": "action"
          }
        },
        "duration": {
          "value": "1 minute"
        },
        "target": {
          "value": "1 willing living creature"
        },
        "range": {
          "units": "close"
        },
        "actionType": ""
      }
    ],
    "learnedAt": {
      "class": {
        "cleric": 3,
        "oracle": 3,
        "druid": 3,
        "witch": 3,
        "shaman": 3,
        "psychic": 3,
        "hunter": 3
      }
    },
    "level": 3,
    "school": "trs",
    "components": {
      "verbal": true,
      "somatic": true
    },
    "sr": false,
    "shortDescription": "<p>You bestow your regenerative abilities on the target. Your regeneration stops functioning for the duration of the spell, and the target gains your regeneration. For example, if you have regeneration 5 (acid or fire), your target gains regeneration 5 (acid or fire). This regeneration overlaps (does not stack) with any regeneration the creature already has, including other castings of this spell. This spell has no effect if you don't have the regeneration ability or your regeneration isn't functioning when you cast the spell.</p>"
  }
}
