{
  "_id": "56ntc8i3qfn2nyxc",
  "name": "Umbral Infusion",
  "type": "spell",
  "img": "systems/pf1/icons/misc/magic-swirl.png",
  "system": {
    "actions": [
      {
        "_id": "q4cvwyskwbwy3jw8",
        "name": "Use",
        "img": "systems/pf1/icons/misc/magic-swirl.png",
        "activation": {
          "type": "standard",
          "unchained": {
            "cost": 2,
            "type": "action"
          }
        },
        "duration": {
          "value": "1 minute/level"
        },
        "target": {
          "value": "one mindless undead creature"
        },
        "range": {
          "units": "close"
        },
        "actionType": "spellsave",
        "save": {
          "type": "will",
          "description": "Will negates"
        }
      }
    ],
    "learnedAt": {
      "class": {
        "sorcerer": 4,
        "wizard": 4,
        "cleric": 4,
        "oracle": 4,
        "alchemist": 4,
        "witch": 4,
        "antipaladin": 4,
        "shaman": 4,
        "psychic": 4,
        "occultist": 4
      }
    },
    "level": 4,
    "school": "nec",
    "types": "shadow",
    "components": {
      "verbal": true,
      "somatic": true
    },
    "shortDescription": "<p>You infuse the target mindless undead creature with power drawn from the Shadow Plane, immediately granting it the advanced creature simple template. It gains a +2 bonus on all rolls, including damage rolls, a +2 bonus to special ability DCs, a +4 bonus to AC and CMD, and 2 additional hit points per Hit Die. The undead creature's destructive instincts take hold for the duration of this spell, and any attempts to control or command the undead creature have a 50% chance of failing; if uncontrolled, the undead creature attacks any living creatures it sees. This spell has no effect on undead creatures that already have the advanced creature template.</p>"
  }
}
