{
  "name": "Unhallowed Blows",
  "type": "spell",
  "img": "systems/pf1/icons/misc/magic-swirl.png",
  "system": {
    "actions": [
      {
        "_id": "x47bJ5VYyid0a9VH",
        "name": "Use",
        "img": "systems/pf1/icons/misc/magic-swirl.png",
        "activation": {
          "type": "standard",
          "unchained": {
            "cost": 2,
            "type": "action"
          }
        },
        "duration": {
          "value": "1 minute/level"
        },
        "target": {
          "value": "one undead creature/level, no two of which can be more than 30 ft. apart"
        },
        "range": {
          "units": "close"
        },
        "actionType": "spellsave",
        "save": {
          "type": "will",
          "description": "Will negates (harmless)"
        }
      }
    ],
    "uses": {
      "autoDeductChargesCost": ""
    },
    "learnedAt": {
      "class": {
        "antipaladin": 1,
        "arcanist": 1,
        "cleric": 1,
        "inquisitor": 1,
        "oracle": 1,
        "sorcerer": 1,
        "warpriest": 1,
        "witch": 1,
        "wizard": 1
      }
    },
    "school": "trs",
    "types": "evil",
    "components": {
      "verbal": true,
      "somatic": true,
      "material": true,
      "divineFocus": 2
    },
    "materials": {
      "value": "a pinch of dust from a destroyed undead creature"
    },
    "spellbook": "",
    "shortDescription": "<p>This spell empowers the natural attacks or unarmed strikes of undead creatures, granting a +1 enhancement bonus on attack and damage rolls made by the target with its unarmed strikes or attacks with one natural attack. This spell can cause an undead creature’s unarmed strike to deal lethal damage, but in this case, the attack does not gain an enhancement bonus.</p><p><em>Unhallowed blows</em> can be made permanent with a @Compendium[pf1.spells.nsxngq65mbrzgwnm]{permanancy} spell. In this case, the caster must be at least 9th level and must expend 2,500 gp worth of diamond dust as a material component.</p>"
  },
  "_id": "HK5dl4ECkzd6LDLY"
}
