{
  "_id": "5gm3icgpwhkcaccf",
  "name": "Vine Strike",
  "type": "spell",
  "img": "systems/pf1/icons/misc/magic-swirl.png",
  "system": {
    "actions": [
      {
        "_id": "fpxtbykqfmevwp7e",
        "name": "Use",
        "img": "systems/pf1/icons/misc/magic-swirl.png",
        "activation": {
          "type": "standard",
          "unchained": {
            "cost": 2,
            "type": "action"
          }
        },
        "duration": {
          "value": "1 minute/level (D)"
        },
        "target": {
          "value": "you"
        },
        "range": {
          "units": "personal"
        },
        "actionType": "spellsave",
        "save": {
          "type": "ref",
          "description": "Reflex negates (see text)"
        }
      }
    ],
    "learnedAt": {
      "class": {
        "sorcerer": 2,
        "wizard": 2,
        "druid": 2,
        "ranger": 2,
        "alchemist": 2,
        "antipaladin": 2,
        "bloodrager": 2,
        "shaman": 2,
        "hunter": 2
      }
    },
    "level": 2,
    "school": "con",
    "subschool": "creation",
    "components": {
      "verbal": true,
      "somatic": true
    },
    "shortDescription": "<p>Bristles burst from your body, lodging in your opponent and blossoming into entangling vines as you pummel your target. While this spell is in effect, one of your natural attacks or unarmed strikes deals an additional 1d6 points of damage, and each creature hit with that natural weapon or unarmed strike must succeed at a Reflex save or be entangled for the duration of the spell; on a successful Reflex save, the creature is immune to the entangled effect for 1 round. A creature entangled by this spell can spend a standard action to remove the vines, but can be entangled again by further unarmed strikes.</p>"
  }
}
