{
  "_id": "ijvb1exko6dskalz",
  "name": "Waves of Fatigue",
  "type": "spell",
  "img": "systems/pf1/icons/misc/magic-swirl.png",
  "system": {
    "actions": [
      {
        "_id": "blzyv5p5qsemh219",
        "name": "Use",
        "img": "systems/pf1/icons/misc/magic-swirl.png",
        "activation": {
          "type": "standard",
          "unchained": {
            "cost": 2,
            "type": "action"
          }
        },
        "duration": {
          "value": "instantaneous"
        },
        "range": {
          "value": "30",
          "units": "ft"
        },
        "actionType": "",
        "spellArea": "cone-shaped burst"
      }
    ],
    "learnedAt": {
      "class": {
        "sorcerer": 5,
        "wizard": 5,
        "witch": 5,
        "psychic": 5,
        "mesmerist": 5,
        "spiritualist": 5
      },
      "subDomain": {
        "Toil": 5
      },
      "bloodline": {
        "Undead": 5
      }
    },
    "level": 5,
    "school": "nec",
    "components": {
      "verbal": true,
      "somatic": true
    },
    "shortDescription": "<p>Waves of negative energy render all living creatures in the spell's area fatigued. This spell has no effect on a creature that is already fatigued.</p>"
  }
}
