{
  "_id": "9n0hrflrshpxv4ns",
  "name": "Weapons Against Evil",
  "type": "spell",
  "img": "systems/pf1/icons/misc/magic-swirl.png",
  "system": {
    "actions": [
      {
        "_id": "bggl7r2puep299xa",
        "name": "Use",
        "img": "systems/pf1/icons/misc/magic-swirl.png",
        "activation": {
          "type": "standard",
          "unchained": {
            "cost": 2,
            "type": "action"
          }
        },
        "duration": {
          "value": "1 round/level"
        },
        "target": {
          "value": "one weapon/level, no two of which can be more than 20 ft. apart"
        },
        "range": {
          "units": "close"
        },
        "actionType": "spellsave",
        "save": {
          "type": "fort",
          "description": "Fortitude negates (harmless, object)"
        }
      }
    ],
    "learnedAt": {
      "class": {
        "cleric": 1,
        "oracle": 1,
        "paladin": 1,
        "inquisitor": 1
      }
    },
    "school": "trs",
    "components": {
      "verbal": true,
      "divineFocus": 1
    },
    "shortDescription": "<p>Each weapon this spell affects each shines with pale light that dimly illuminates a 5-foot square. These weapons also ignore the DR of evil creatures that have DR 5 or lower, as long as the damage reduction is not DR/epic.</p>"
  }
}
