{
  "_id": "1fc03hnuhtih8y6x",
  "name": "With the Wind",
  "type": "spell",
  "img": "systems/pf1/icons/misc/magic-swirl.png",
  "system": {
    "actions": [
      {
        "_id": "ll2occblbuphfjzn",
        "name": "Use",
        "img": "systems/pf1/icons/misc/magic-swirl.png",
        "activation": {
          "type": "standard",
          "unchained": {
            "cost": 2,
            "type": "action"
          }
        },
        "duration": {
          "value": "1 minute/level"
        },
        "target": {
          "value": "one creature"
        },
        "range": {
          "units": "close"
        },
        "actionType": "spellsave",
        "save": {
          "type": "will",
          "description": "Will negates (harmless)"
        }
      }
    ],
    "learnedAt": {
      "class": {
        "sorcerer": 2,
        "wizard": 2,
        "druid": 2,
        "ranger": 2,
        "magus": 2,
        "bloodrager": 2,
        "occultist": 2,
        "spiritualist": 2,
        "hunter": 2
      }
    },
    "level": 2,
    "school": "abj",
    "types": "air",
    "components": {
      "verbal": true,
      "somatic": true
    },
    "shortDescription": "<p>You create eddies in the air around the subject that protect it from being checked or blown away. The target can't be moved by winds of less than windstorm force unless it wishes to be.</p>"
  }
}
