{
  "_id": "W3EjUgYLJ1D9qDKw",
  "name": "Barbarian (Unchained)",
  "type": "class",
  "img": "systems/pf1/icons/items/weapons/greataxe.png",
  "system": {
    "description": {
      "value": "<p>For some heroes, the rage that lives within them can’t be contained. Whether this fury is a product of heritage or of nature, these adventurers have learned to harness it, turning its power against their foes. The primal warriors known as barbarians transform their rage into a potent weapon on a battlefield. Heedless of their wounds and possessed of unstoppable bloodlust, these savage brutes are the embodiment of war.</p>\n<p><b>Unchained:</b> The unchained barbarian is similar in many regards to its counterpart in the Core Rulebook—she still goes into a rage and gains rage powers, but many of the details have been changed. Rage now grants temporary hit points and static bonuses on attack and damage rolls, rather than bonuses to ability scores that force players to recalculate a number of statistics. Additionally, many rage powers now function whenever the barbarian is raging, as opposed to just once per rage. Finally, the overall utility of many of the rage powers has been adjusted to make them more useful and interesting.</p>\n<p><b>Alignment:</b> Any nonlawful.</p>\n<p><b>Hit Die:</b> d12.</p>\n<p><b>Starting Wealth:</b> 3d6 x 10 gp (average 105 gp).</p>\n<h2>Class Skills</h2>\n<p>The barbarian’s class skills are <em>Acrobatics</em> (<em>Dex</em>), <em>Climb</em> (<em>Str</em>), <em>Craft</em> (<em>Int</em>), <em>Handle Animal</em> (<em>Cha</em>), <em>Intimidate</em> (<em>Cha</em>), <em>Knowledge</em> (nature) (<em>Int</em>), <em>Perception</em> (<em>Wis</em>), <em>Ride</em> (<em>Dex</em>), <em>Survival</em> (<em>Wis</em>), and <em>Swim</em> (<em>Str</em>).</p>\n<p><b>Skill Ranks Per Level</b>: 4 + <em>Int</em> modifier.</p>"
    },
    "links": {
      "classAssociations": [
        {
          "name": "Rage (UC)",
          "level": 1,
          "uuid": "Compendium.pf1.class-abilities.2Az38ZPYwjYBKZd2"
        },
        {
          "name": "Fast Movement (BAR)",
          "level": 1,
          "uuid": "Compendium.pf1.class-abilities.9EX00obqhGHcrOdp"
        },
        {
          "name": "Rage Powers (UC)",
          "level": 2,
          "uuid": "Compendium.pf1.class-abilities.JtCZXN41TLQG48bo"
        },
        {
          "name": "Uncanny Dodge",
          "level": 2,
          "uuid": "Compendium.pf1.class-abilities.7WaQxnVaaoL4AGr8"
        },
        {
          "name": "Danger Sense (BAR)",
          "level": 3,
          "uuid": "Compendium.pf1.class-abilities.4bcGnKYf9beV0nfa"
        },
        {
          "name": "Improved Uncanny Dodge",
          "level": 5,
          "uuid": "Compendium.pf1.class-abilities.ZfnHhhTFQVo0Lj4P"
        },
        {
          "name": "Damage Reduction",
          "level": 7,
          "uuid": "Compendium.pf1.class-abilities.RENIeTVjWB7Mq6Mw"
        },
        {
          "name": "Greater Rage (UC)",
          "level": 11,
          "uuid": "Compendium.pf1.class-abilities.wQzDpnuEOloBB7ZH"
        },
        {
          "name": "Indomitable Will",
          "level": 14,
          "uuid": "Compendium.pf1.class-abilities.Q3x319WbNkCssApD"
        },
        {
          "name": "Tireless Rage (UC)",
          "level": 17,
          "uuid": "Compendium.pf1.class-abilities.jttL7NeMj1wGPkDO"
        },
        {
          "name": "Mighty Rage (UC)",
          "level": 20,
          "uuid": "Compendium.pf1.class-abilities.rmzUjpMld0deM9Aa"
        }
      ]
    },
    "tag": "barbarianUnchained",
    "useCustomTag": true,
    "armorProf": {
      "value": ["lgt", "med", "shl"]
    },
    "weaponProf": {
      "value": ["sim", "mar"]
    },
    "hd": 12,
    "hp": 12,
    "bab": "high",
    "skillsPerLevel": 4,
    "savingThrows": {
      "fort": {
        "value": "high"
      }
    },
    "classSkills": {
      "acr": true,
      "art": true,
      "clm": true,
      "crf": true,
      "han": true,
      "int": true,
      "kna": true,
      "lor": true,
      "per": true,
      "rid": true,
      "sur": true,
      "swm": true
    }
  }
}
