{
  "_id": "H0iUHrBW5tqrL9Zu",
  "name": "Expert",
  "type": "class",
  "img": "systems/pf1/icons/items/inventory/hammer.jpg",
  "system": {
    "description": {
      "value": "<p><b>Alignment</b>: Any.</p>\n<p><b>Hit Die</b>: d8.</p>\n<h2>Class Skills</h2>\n<p>The expert can choose any 10 skills to be class skills.</p>\n<p><b>Skill Ranks per Level</b>: 6 + <em>Int</em> modifier.</p>"
    },
    "tag": "expert",
    "useCustomTag": true,
    "armorProf": {
      "value": ["lgt"]
    },
    "weaponProf": {
      "value": ["sim"]
    },
    "subType": "npc",
    "bab": "med",
    "skillsPerLevel": 6,
    "savingThrows": {
      "will": {
        "value": "high"
      }
    },
    "classSkills": {
      "lor": true
    }
  }
}
