{
  "_id": "BrnHPJ2EVSQSyNQ8",
  "name": "Summoner",
  "type": "class",
  "img": "systems/pf1/icons/skills/blue_26.jpg",
  "system": {
    "description": {
      "value": "<p>While many who dabble in the arcane become adept at beckoning monsters from the farthest reaches of the planes, none are more skilled at it than the summoner. This practitioner of the arcane arts forms a close bond with one particular outsider, known as an eidolon, who gains power as the summoner becomes more proficient at his summoning. Over time, the two become linked, eventually even sharing a shard of the same soul. But this power comes with a price: the summoner’s spells and abilities are limited due to his time spent enhancing the power and exploring the nature of his eidolon.</p>\n<p><b>Role</b>: Summoners spend much of their time exploring the arcane arts alongside their eidolons. While their power comes from within, they rely heavily on their eidolon companions in dangerous situations. While a summoner and his eidolon function as individuals, their true power lies in what they can accomplish together.</p>\n<p><b>Alignment</b>: Any.</p>\n<p><b>Hit Die</b>: d8.</p>\n<p><b>Starting Wealth</b>: 2d6 × 10 gp (average 70gp.) In addition, each character begins play with an outfit worth 10 gp or less.</p>\n<h2>Class Skills</h2>\n<p>The summoner’s class skills are <em>Craft</em> (<em>Int</em>), <em>Fly</em> (<em>Dex</em>), <em>Handle Animal</em> (<em>Cha</em>), <em>Knowledge</em> (all) (<em>Int</em>), <em>Linguistics</em> (<em>Int</em>), <em>Profession</em> (Wis), <em>Ride</em> (<em>Dex</em>), <em>Spellcraft</em> (<em>Int</em>), and <em>Use Magic Device</em> (<em>Cha</em>).</p>\n<p><b>Skill Ranks per Level</b>: 2 + <em>Int</em> modifier.</p>"
    },
    "links": {
      "classAssociations": [
        {
          "name": "Eidolon",
          "level": 1,
          "uuid": "Compendium.pf1.class-abilities.YmWKyC6bPUqHf9iQ"
        },
        {
          "name": "Life Link",
          "level": 1,
          "uuid": "Compendium.pf1.class-abilities.xYuyemfGIFp0a97P"
        },
        {
          "name": "Summon Monster",
          "level": 1,
          "uuid": "Compendium.pf1.class-abilities.caNEmbCtoHA7NYtZ"
        },
        {
          "name": "Bond Senses",
          "level": 2,
          "uuid": "Compendium.pf1.class-abilities.Aj7SwIo94HfcpR9R"
        },
        {
          "name": "Shield Ally",
          "level": 4,
          "uuid": "Compendium.pf1.class-abilities.AaZ3OdpKFsMC6dFg"
        },
        {
          "name": "Maker's Call",
          "level": 6,
          "uuid": "Compendium.pf1.class-abilities.Jw6BEoNMBxfSN4cu"
        },
        {
          "name": "Transposition",
          "level": 8,
          "uuid": "Compendium.pf1.class-abilities.NAso2tQYl5bBfL1O"
        },
        {
          "name": "Aspect",
          "level": 10,
          "uuid": "Compendium.pf1.class-abilities.r5dE8fMdwjLVCHma"
        },
        {
          "name": "Greater Shield Ally",
          "level": 12,
          "uuid": "Compendium.pf1.class-abilities.81XUmdEI8Yr0UXeG"
        },
        {
          "name": "Life Bond",
          "level": 14,
          "uuid": "Compendium.pf1.class-abilities.ZF6FlGlFJRaiO4OH"
        },
        {
          "name": "Merge Forms",
          "level": 16,
          "uuid": "Compendium.pf1.class-abilities.CW99G919xJkrIWAu"
        },
        {
          "name": "Greater Aspect",
          "level": 18,
          "uuid": "Compendium.pf1.class-abilities.ew7BBQtX2HrVhxOu"
        },
        {
          "name": "Twin Eidolon",
          "level": 20,
          "uuid": "Compendium.pf1.class-abilities.jXEgYhQCj2o1fAVZ"
        }
      ]
    },
    "tag": "summoner",
    "useCustomTag": true,
    "armorProf": {
      "value": ["lgt"]
    },
    "weaponProf": {
      "value": ["sim"]
    },
    "bab": "med",
    "skillsPerLevel": 2,
    "savingThrows": {
      "will": {
        "value": "high"
      }
    },
    "classSkills": {
      "crf": true,
      "art": true,
      "fly": true,
      "han": true,
      "kar": true,
      "kdu": true,
      "ken": true,
      "kge": true,
      "khi": true,
      "klo": true,
      "kna": true,
      "kno": true,
      "kpl": true,
      "kre": true,
      "lin": true,
      "lor": true,
      "pro": true,
      "rid": true,
      "spl": true,
      "umd": true
    },
    "casting": {
      "type": "spontaneous",
      "progression": "med",
      "ability": "cha",
      "spells": "arcane"
    }
  }
}
